{
  "WorkItem": {
    "AffectedComponent": {
      "Name": "",
      "DisplayName": ""
    },
    "ClosedComment": "",
    "ClosedDate": "2010-02-19T19:15:09.047-08:00",
    "CommentCount": 0,
    "Custom": null,
    "Description": "There is tricky problem with NPOI when trying to read XLS file with pivot table.\nBug has been already fixed in POI:\nhttps://issues.apache.org/bugzilla/show_bug.cgi?id=47305\nhttps://issues.apache.org/bugzilla/show_bug.cgi?id=46918\nIn attachment is sample VS project and screenshot with error details.\nThank you for your great work!",
    "LastUpdatedDate": "2013-05-16T05:27:57.57-07:00",
    "PlannedForRelease": "NPOI 1.2.5",
    "ReleaseVisibleToPublic": true,
    "Priority": {
      "Name": "Medium",
      "Severity": 100,
      "Id": 2
    },
    "ProjectName": "npoi",
    "ReportedDate": "2009-12-29T16:34:52.15-08:00",
    "Status": {
      "Name": "Closed",
      "Id": 4
    },
    "ReasonClosed": {
      "Name": "Unassigned"
    },
    "Summary": "Unable to read xls file with pivot table",
    "Type": {
      "Name": "Issue",
      "Id": 3
    },
    "VoteCount": 2,
    "Id": 5010
  },
  "FileAttachments": [
    {
      "FileId": 1874,
      "FileName": "WindowsFormsApplication1.zip",
      "DownloadUrl": ".\\1874"
    }
  ],
  "Comments": [
    {
      "Message": "I'll fix this bug in NPOI 1.3",
      "PostedDate": "2010-01-03T02:25:29.947-08:00",
      "Id": -2147483648
    },
    {
      "Message": "",
      "PostedDate": "2010-01-23T17:11:33.05-08:00",
      "Id": -2147483648
    },
    {
      "Message": "Resolved with changeset 42188.",
      "PostedDate": "2010-02-19T19:15:09.047-08:00",
      "Id": -2147483648
    },
    {
      "Message": "",
      "PostedDate": "2013-02-21T18:20:05.967-08:00",
      "Id": -2147483648
    },
    {
      "Message": "",
      "PostedDate": "2013-05-16T05:27:57.57-07:00",
      "Id": -2147483648
    }
  ]
}