{
  "WorkItem": {
    "AffectedComponent": {
      "Name": "",
      "DisplayName": ""
    },
    "ClosedComment": "",
    "ClosedDate": "2008-11-23T01:54:05.433-08:00",
    "CommentCount": 0,
    "Custom": null,
    "Description": "package org.apache.poi.hssf.util",
    "LastUpdatedDate": "2013-05-16T05:28:02.563-07:00",
    "PlannedForRelease": "NPOI 1.2 Alpha",
    "ReleaseVisibleToPublic": false,
    "Priority": {
      "Name": "Medium",
      "Severity": 100,
      "Id": 2
    },
    "ProjectName": "npoi",
    "ReportedDate": "2008-11-11T12:40:32.967-08:00",
    "Status": {
      "Name": "Closed",
      "Id": 4
    },
    "ReasonClosed": {
      "Name": "Unassigned"
    },
    "Summary": "Test Cases for NPOI.HSSF.Util namespace",
    "Type": {
      "Name": "Task",
      "Id": 2
    },
    "VoteCount": 0,
    "Id": 929
  },
  "FileAttachments": [],
  "Comments": [
    {
      "Message": "Resolved with changeset 8082.",
      "PostedDate": "2008-11-23T01:54:05.433-08:00",
      "Id": -2147483648
    },
    {
      "Message": "",
      "PostedDate": "2013-02-21T18:20:12.383-08:00",
      "Id": -2147483648
    },
    {
      "Message": "",
      "PostedDate": "2013-05-16T05:28:02.563-07:00",
      "Id": -2147483648
    }
  ]
}