{
  "WorkItem": {
    "AffectedComponent": {
      "Name": "",
      "DisplayName": ""
    },
    "ClosedComment": "",
    "ClosedDate": "2014-12-14T01:05:33.637-08:00",
    "CommentCount": 0,
    "Custom": null,
    "Description": "Hi,\nwhen I set comment for more than one cell, the shape of comment block for each cell is different.\nHere my code:\n\nDim iPatriarch As IDrawing = m_iCurrentSheet.CreateDrawingPatriarch()\nDim rAnchor As XSSFClientAnchor = New XSSFClientAnchor(0, 0, 0, 0, 0, 0, 6, 3)\nDim iComment As IComment = iPatriarch.CreateCellComment(rAnchor)\nDim rText As XSSFRichTextString = New XSSFRichTextString(p_strComment)\niComment.String = rText\niCell.CellComment = iComment\n\nI use NPOI 2.1.1.0 and XLSX Format of Excel 2010 file. \nI open the file, make changes and save the same file under another file name.\nIn attachment you will find the screenshots with different shapes of comment.\n\nWill it be fixed in next Version of NPOI or I do something wrong?",
    "LastUpdatedDate": "2014-12-14T01:05:33.637-08:00",
    "PlannedForRelease": "",
    "ReleaseVisibleToPublic": false,
    "Priority": {
      "Name": "Unassigned",
      "Severity": 0,
      "Id": 0
    },
    "ProjectName": "npoi",
    "ReportedDate": "2014-12-02T06:47:20.257-08:00",
    "Status": {
      "Name": "Closed",
      "Id": 4
    },
    "ReasonClosed": {
      "Name": "Fixed"
    },
    "Summary": "Different cell comment shapes",
    "Type": {
      "Name": "Unassigned",
      "Id": 5
    },
    "VoteCount": 1,
    "Id": 13336
  },
  "FileAttachments": [
    {
      "FileId": 5095,
      "FileName": "DifferentCommentShapes.jpg",
      "DownloadUrl": ".\\5095"
    }
  ],
  "Comments": [
    {
      "Message": "As I remember, this issue should be fixed. Can you try NPOI 2.1.3? let me know the result. Thank you!",
      "PostedDate": "2014-12-10T15:47:48.643-08:00",
      "Id": -2147483648
    },
    {
      "Message": "I saw three different shapes in your comment. Are you saying the shape of the comment are randomly shown?",
      "PostedDate": "2014-12-10T15:49:26.073-08:00",
      "Id": -2147483648
    },
    {
      "Message": "After some investigation, it's confirmed as a bug and will be fixed in 2.1.3 final release.",
      "PostedDate": "2014-12-14T01:03:30.323-08:00",
      "Id": -2147483648
    },
    {
      "Message": "",
      "PostedDate": "2014-12-14T01:05:33.637-08:00",
      "Id": -2147483648
    }
  ]
}