{
  "WorkItem": {
    "AffectedComponent": {
      "Name": "",
      "DisplayName": ""
    },
    "ClosedComment": "",
    "ClosedDate": null,
    "CommentCount": 0,
    "Custom": null,
    "Description": "Hi,\n\nWe've been using NPOI (v2.1.3.1) to upload .xls files via IIS (v7.5 on Windows Server 2008 R2). We recently ran into a situation where attempting to upload the attached .xls causes the w3wp.exe process to crash. It looks like it may be a stack overflow due to recursion? I captured and attached a stack trace of what we're seeing.\n\nThanks!",
    "LastUpdatedDate": "2015-12-03T18:57:38.377-08:00",
    "PlannedForRelease": "",
    "ReleaseVisibleToPublic": false,
    "Priority": {
      "Name": "Unassigned",
      "Severity": 0,
      "Id": 0
    },
    "ProjectName": "npoi",
    "ReportedDate": "2015-12-03T18:56:47.083-08:00",
    "Status": {
      "Name": "Proposed",
      "Id": 1
    },
    "ReasonClosed": {
      "Name": "Unassigned"
    },
    "Summary": "Stack Overflow",
    "Type": {
      "Name": "Unassigned",
      "Id": 5
    },
    "VoteCount": 1,
    "Id": 13793
  },
  "FileAttachments": [
    {
      "FileId": 6264,
      "FileName": "clrstack.txt",
      "DownloadUrl": ".\\6264"
    },
    {
      "FileId": 6265,
      "FileName": "crash.xls",
      "DownloadUrl": ".\\6265"
    }
  ],
  "Comments": [
    {
      "Message": "Adding the .xls",
      "PostedDate": "2015-12-03T18:57:38.377-08:00",
      "Id": -2147483648
    }
  ]
}