{
  "WorkItem": {
    "AffectedComponent": {
      "Name": "",
      "DisplayName": ""
    },
    "ClosedComment": "",
    "ClosedDate": null,
    "CommentCount": 0,
    "Custom": null,
    "Description": "I spotted a weird behavior when trying to lock some cells with NPOI. Using global cell styles I can only generate an excel sheet with all cells blocked or all cells editable. The __ProtectSheet()__ method seems to override the __IsLocked__ attribute when using global cell styles some times.\nThe workaround I found is defining a style for each cell, but excel has a limit on cell styles per sheet, so this is not a good way of doing this. \n\nI've created a pastebin with the method: \n* Problem: http://pastebin.com/xt9a5A8A \n* Workaround http://pastebin.com/CthHNSvs\n\nI've tried to move those lines of code up and down, protect the sheet in different moments and also set cell styles in different places of the code. I'd like to know if there is another way of doing this kind of work with NPOI or if this is a cataloged issue or something like that. Thank you.",
    "LastUpdatedDate": "2014-08-14T09:15:26.36-07:00",
    "PlannedForRelease": "",
    "ReleaseVisibleToPublic": false,
    "Priority": {
      "Name": "Unassigned",
      "Severity": 0,
      "Id": 0
    },
    "ProjectName": "npoi",
    "ReportedDate": "2014-08-14T09:15:26.36-07:00",
    "Status": {
      "Name": "Proposed",
      "Id": 1
    },
    "ReasonClosed": {
      "Name": "Unassigned"
    },
    "Summary": "Weird behavior when locking cells NPOI 2.0.6",
    "Type": {
      "Name": "Unassigned",
      "Id": 5
    },
    "VoteCount": 1,
    "Id": 13199
  },
  "FileAttachments": [],
  "Comments": []
}