{
  "WorkItem": {
    "AffectedComponent": {
      "Name": "",
      "DisplayName": ""
    },
    "ClosedComment": "",
    "ClosedDate": null,
    "CommentCount": 0,
    "Custom": null,
    "Description": "Hi all,\n\nI've been struggling with this issue for 2 days now and I haven't come up with a way to get around it.\n\nI have a cell in a .xls which I try to read but I get an InvalidOperationException: Cannot get text value from a error formula cell.\n\nHere is my cell formula: \n=\"SELECT * FROM DATA_EQUITY WHERE FORMAT(Field1, 'yyyy/MM') >= '\"&TEXT(TodayDate, \"yyyy/MM\")&\"'\"\n\nTodayDate is points to a named range containing a date formatted to yyyy/MM\n\nIn excel all looks fine but when I run the code to read the cell string value I get the exception.\nIn code CellFormula returns:\n\"\\\"SELECT * FROM DATA_EQUITY WHERE FORMAT(Field1, 'yyyy/MM') >= '\\\"&Month1&\\\"'\\\"\"\nand CellType is Formula\n\nAm I missing something or what is going on?",
    "LastUpdatedDate": "2014-02-20T13:32:44.07-08:00",
    "PlannedForRelease": "",
    "ReleaseVisibleToPublic": false,
    "Priority": {
      "Name": "Unassigned",
      "Severity": 0,
      "Id": 0
    },
    "ProjectName": "npoi",
    "ReportedDate": "2014-02-20T13:27:47.49-08:00",
    "Status": {
      "Name": "Proposed",
      "Id": 1
    },
    "ReasonClosed": {
      "Name": "Unassigned"
    },
    "Summary": "Injecting a date into string via named range gives invalid operation exception",
    "Type": {
      "Name": "Unassigned",
      "Id": 5
    },
    "VoteCount": 1,
    "Id": 12757
  },
  "FileAttachments": [
    {
      "FileId": 4905,
      "FileName": "Book1.xls",
      "DownloadUrl": ".\\4905"
    }
  ],
  "Comments": [
    {
      "Message": "My test xls is attached. The problematic cell is B2 in Sheet2.",
      "PostedDate": "2014-02-20T13:32:44.07-08:00",
      "Id": -2147483648
    }
  ]
}