{
  "WorkItem": {
    "AffectedComponent": {
      "Name": "",
      "DisplayName": ""
    },
    "ClosedComment": "",
    "ClosedDate": null,
    "CommentCount": 0,
    "Custom": null,
    "Description": "Hello!\nAutoSizeColumn ignores DataFromat of column cells. Columns are sized like they don't have format.\nExcel file attached - reqular text columns are sized correctly. Removing format from currency and custom format columns makes them look nice too.",
    "LastUpdatedDate": "2014-09-12T04:13:59.223-07:00",
    "PlannedForRelease": "",
    "ReleaseVisibleToPublic": false,
    "Priority": {
      "Name": "Unassigned",
      "Severity": 0,
      "Id": 0
    },
    "ProjectName": "npoi",
    "ReportedDate": "2014-09-12T04:13:58.16-07:00",
    "Status": {
      "Name": "Proposed",
      "Id": 1
    },
    "ReasonClosed": {
      "Name": "Unassigned"
    },
    "Summary": "[2.1.1] AutoSizeColumn ignores cell DataFormat",
    "Type": {
      "Name": "Unassigned",
      "Id": 5
    },
    "VoteCount": 1,
    "Id": 13245
  },
  "FileAttachments": [
    {
      "FileId": 5072,
      "FileName": "example.xlsx",
      "DownloadUrl": ".\\5072"
    }
  ],
  "Comments": []
}