{
  "WorkItem": {
    "AffectedComponent": {
      "Name": "",
      "DisplayName": ""
    },
    "ClosedComment": "",
    "ClosedDate": null,
    "CommentCount": 0,
    "Custom": null,
    "Description": "when trying to open for reading one specific excel file, it gives me the following error: \nCannot access a disposed object.\n \n \n \n \nDescription: An unhandled exception occurred during the execution of the current web request. Please review the stack trace for more information about the error and where it originated in the code.  Exception Details: System.ObjectDisposedException: Cannot access a disposed object. Source Error:  \n \nLine 205:        {\nLine 206:            _stream = stream;\nLine 207:            _workbook = new HSSFWorkbook(_stream, true);\nLine 208:            _sheet = _workbook.GetSheetAt(0);\nLine 209:            _enumerator = _sheet.GetRowEnumerator();\n \n \n Source File: D:\\Projects\\ABCD\\ABCD.Model\\Excel\\NpoiExcelReader.cs    Line: 207  Stack Trace:  \n \n[ObjectDisposedException: Cannot access a disposed object.]\n   System.Security.Cryptography.HashAlgorithm.ComputeHash(Byte[] buffer) +2593147\n   NPOI.HSSF.Record.Crypto.Biff8EncryptionKey.CreateKeyDigest(String password, Byte[] docIdData) +552\n   NPOI.HSSF.Record.Crypto.Biff8EncryptionKey.Create(Byte[] docId) +66\n   NPOI.HSSF.Record.StreamEncryptionInfo.CreateDecryptingStream(Stream original) +150\n   NPOI.HSSF.Record.RecordFactoryInputStream..ctor(Stream in1, Boolean shouldIncludeContinueRecords) +273\n   NPOI.HSSF.Record.RecordFactory.CreateRecords(Stream in1) +133\n   NPOI.HSSF.UserModel.HSSFWorkbook..ctor(DirectoryNode directory, POIFSFileSystem fs, Boolean preserveNodes) +303\n   NPOI.HSSF.UserModel.HSSFWorkbook..ctor(POIFSFileSystem fs, Boolean preserveNodes) +76\n   NPOI.HSSF.UserModel.HSSFWorkbook..ctor(Stream s, Boolean preserveNodes) +78\n   Mefis.Model.Excel.NpoiExcelReader..ctor(Stream stream) in D:\\Projects\\Mefis2\\Mefis.Model\\Excel\\NpoiExcelReader.cs:207\n   Mefis.Model.Excel.NpoiExcelReader.CreateReader(Stream stream) in D:\\Projects\\Mefis2\\Mefis.Model\\Excel\\NpoiExcelReader.cs:222\n   Mefis.Model.Excel.BaseImportReader.ParseFile(Stream stream) in D:\\Projects\\Mefis2\\Mefis.Model\\Excel\\BaseImportReader.cs:234\n   Mefis.Web.Controllers.BudgetReportController.ImportBudgetReportT2(Nullable`1 budgetScheduleId, Nullable`1 eBKActivityId, String tab) in D:\\Projects\\Mefis2\\Mefis.Web\\Controllers\\BudgetReportController.cs:228\n   lambda_method(Closure , ControllerBase , Object[] ) +280\n   System.Web.Mvc.ActionMethodDispatcher.Execute(ControllerBase controller, Object[] parameters) +51\n   System.Web.Mvc.ReflectedActionDescriptor.Execute(ControllerContext controllerContext, IDictionary`2 parameters) +409\n   System.Web.Mvc.ControllerActionInvoker.InvokeActionMethod(ControllerContext controllerContext, ActionDescriptor actionDescriptor, IDictionary`2 parameters) +52\n   System.Web.Mvc.<>c__DisplayClassd.<InvokeActionMethodWithFilters>b__a() +127\n   System.Web.Mvc.ControllerActionInvoker.InvokeActionMethodFilter(IActionFilter filter, ActionExecutingContext preContext, Func`1 continuation) +436\n   System.Web.Mvc.<>c__DisplayClassf.<InvokeActionMethodWithFilters>b__c() +61\n   System.Web.Mvc.ControllerActionInvoker.InvokeActionMethodFilter(IActionFilter filter, ActionExecutingContext preContext, Func`1 continuation) +436\n   System.Web.Mvc.<>c__DisplayClassf.<InvokeActionMethodWithFilters>b__c() +61\n   System.Web.Mvc.ControllerActionInvoker.InvokeActionMethodFilter(IActionFilter filter, ActionExecutingContext preContext, Func`1 continuation) +436\n   System.Web.Mvc.<>c__DisplayClassf.<InvokeActionMethodWithFilters>b__c() +61\n   System.Web.Mvc.ControllerActionInvoker.InvokeActionMethodWithFilters(ControllerContext controllerContext, IList`1 filters, ActionDescriptor actionDescriptor, IDictionary`2 parameters) +305\n   System.Web.Mvc.ControllerActionInvoker.InvokeAction(ControllerContext controllerContext, String actionName) +830\n   System.Web.Mvc.Controller.ExecuteCore() +136\n   System.Web.Mvc.ControllerBase.Execute(RequestContext requestContext) +111\n   System.Web.Mvc.ControllerBase.System.Web.Mvc.IController.Execute(RequestContext requestContext) +39\n   System.Web.Mvc.<>c__DisplayClass8.<BeginProcessRequest>b__4() +65\n   System.Web.Mvc.Async.<>c__DisplayClass1.<MakeVoidDelegate>b__0() +44\n   System.Web.Mvc.Async.<>c__DisplayClass8`1.<BeginSynchronous>b__7(IAsyncResult _) +42\n   System.Web.Mvc.Async.WrappedAsyncResult`1.End() +141\n   System.Web.Mvc.Async.AsyncResultWrapper.End(IAsyncResult asyncResult, Object tag) +54\n   System.Web.Mvc.Async.AsyncResultWrapper.End(IAsyncResult asyncResult, Object tag) +40\n   System.Web.Mvc.MvcHandler.EndProcessRequest(IAsyncResult asyncResult) +52\n   System.Web.Mvc.MvcHandler.System.Web.IHttpAsyncHandler.EndProcessRequest(IAsyncResult result) +38\n   System.Web.CallHandlerExecutionStep.System.Web.HttpApplication.IExecutionStep.Execute() +8841105\n   System.Web.HttpApplication.ExecuteStep(IExecutionStep step, Boolean& completedSynchronously) +184\n \n \n \n \n \n \n \nany ideas what could be the problem ?\n \nEDIT: i forgot to mention that  i am using NPOI.dll, v2.0.50727",
    "LastUpdatedDate": "2013-02-21T18:19:54.867-08:00",
    "PlannedForRelease": "NPOI 1.2.4",
    "ReleaseVisibleToPublic": true,
    "Priority": {
      "Name": "Medium",
      "Severity": 100,
      "Id": 2
    },
    "ProjectName": "npoi",
    "ReportedDate": "2011-04-08T09:02:15.283-07:00",
    "Status": {
      "Name": "Active",
      "Id": 2
    },
    "ReasonClosed": {
      "Name": "Unassigned"
    },
    "Summary": "Weird behaviour trying to read an encrypted excel file",
    "Type": {
      "Name": "Issue",
      "Id": 3
    },
    "VoteCount": 1,
    "Id": 8620
  },
  "FileAttachments": [],
  "Comments": []
}