{
  "WorkItem": {
    "AffectedComponent": {
      "Name": "",
      "DisplayName": ""
    },
    "ClosedComment": "",
    "ClosedDate": null,
    "CommentCount": 0,
    "Custom": null,
    "Description": "```\n        public static void Test()\n        {\n            var wb = new XSSFWorkbook();\n            var s0 = wb.CreateCellStyle();\n            s0.IsLocked = true;\n            var s1 = wb.CreateCellStyle();\n            s1.IsLocked = false;\n\n            var ws = wb.CreateSheet();\n            var r0 = ws.CreateRow(0);\n            var c0 = r0.CreateCell(0);\n            c0.SetCellValue(\"已锁定\");\n            c0.CellStyle = s0;\n            var c1 = r0.CreateCell(1);\n            c1.SetCellValue(\"未锁定\");\n            c1.CellStyle = s1;\n\n            ws.ProtectSheet(\"123\");\n\n            var fn = Path.ChangeExtension(Path.GetTempFileName(), \"xlsx\");\n            using (var ms = File.OpenWrite(fn)) wb.Write(ms);\n            Process.Start(fn);\n        }\n```\n\n生成的xlsx文件中的两个单元格均不能编辑，在Excel里看到的“设置单元格格式->保护->锁定”都是被勾上的。\n\nNPOI 2.1.3 版本。\n\nHSSF里面这个功能正常。",
    "LastUpdatedDate": "2015-02-10T00:05:06.12-08:00",
    "PlannedForRelease": "",
    "ReleaseVisibleToPublic": false,
    "Priority": {
      "Name": "Unassigned",
      "Severity": 0,
      "Id": 0
    },
    "ProjectName": "npoi",
    "ReportedDate": "2015-02-10T00:05:06.12-08:00",
    "Status": {
      "Name": "Proposed",
      "Id": 1
    },
    "ReasonClosed": {
      "Name": "Unassigned"
    },
    "Summary": "【XSSFCellStyle.IsLocked = false】不起作用",
    "Type": {
      "Name": "Unassigned",
      "Id": 5
    },
    "VoteCount": 1,
    "Id": 13456
  },
  "FileAttachments": [],
  "Comments": []
}