{
  "WorkItem": {
    "AffectedComponent": {
      "Name": "",
      "DisplayName": ""
    },
    "ClosedComment": "",
    "ClosedDate": null,
    "CommentCount": 0,
    "Custom": null,
    "Description": "Sheet.LockXXXX methods changes internal lock state to 'true' (=locked)\nbut there's no way to change state 'false'.\n・default protection property is almost 'true'\n・ProtectSheet method creates new protection object (with default property value=true=locked)\nso we cannot choose protect options. all operations are locked.\n\nI tried to change internal state via reflection\nand I got desired results.\n\nand I found HSSFSheet LockFormatCells changes wrong field\n\nMy suggestion:\na. add UnLockXXXXMethod\nb. change default lock state false. and use LockXXXX methods\nc. add access method to CT_Worksheet",
    "LastUpdatedDate": "2016-03-10T02:12:48.157-08:00",
    "PlannedForRelease": "",
    "ReleaseVisibleToPublic": false,
    "Priority": {
      "Name": "Unassigned",
      "Severity": 0,
      "Id": 0
    },
    "ProjectName": "npoi",
    "ReportedDate": "2015-07-15T22:01:07.873-07:00",
    "Status": {
      "Name": "Proposed",
      "Id": 1
    },
    "ReasonClosed": {
      "Name": "Unassigned"
    },
    "Summary": "cannot choose sheet protect options",
    "Type": {
      "Name": "Unassigned",
      "Id": 5
    },
    "VoteCount": 2,
    "Id": 13643
  },
  "FileAttachments": [],
  "Comments": [
    {
      "Message": "Hi,\r\n\r\nI have also facing same issue with me.\r\n\r\nSo can you please tell me how you are using __change internal state via reflection__ method for got your desired result.\r\n\r\nThanks",
      "PostedDate": "2016-03-10T02:12:48.157-08:00",
      "Id": -2147483648
    }
  ]
}