{
  "WorkItem": {
    "AffectedComponent": {
      "Name": "",
      "DisplayName": ""
    },
    "ClosedComment": "",
    "ClosedDate": null,
    "CommentCount": 0,
    "Custom": null,
    "Description": "Dear developers,\n \nthe path ./NPOI/Util should be renamed to ./NPOI/util to compile NPOI with a case sensitive linux system.\n \ncheers,\nh2o",
    "LastUpdatedDate": "2013-02-21T18:20:07.577-08:00",
    "PlannedForRelease": "",
    "ReleaseVisibleToPublic": false,
    "Priority": {
      "Name": "Low",
      "Severity": 50,
      "Id": 1
    },
    "ProjectName": "npoi",
    "ReportedDate": "2009-10-31T12:26:03.627-07:00",
    "Status": {
      "Name": "Proposed",
      "Id": 1
    },
    "ReasonClosed": {
      "Name": "Unassigned"
    },
    "Summary": "case sensitive filenames running mdtool on NPOI.sln",
    "Type": {
      "Name": "Issue",
      "Id": 3
    },
    "VoteCount": 1,
    "Id": 4548
  },
  "FileAttachments": [],
  "Comments": [
    {
      "Message": "I understand what you want. It looks codeplex don't allow me to rename it. Sorry about that! I'll rename the folder in the 1.2.2 release package",
      "PostedDate": "2009-11-24T15:29:19.883-08:00",
      "Id": -2147483648
    },
    {
      "Message": "",
      "PostedDate": "2013-02-21T18:20:07.577-08:00",
      "Id": -2147483648
    }
  ]
}