{
  "WorkItem": {
    "AffectedComponent": {
      "Name": "",
      "DisplayName": ""
    },
    "ClosedComment": "",
    "ClosedDate": null,
    "CommentCount": 0,
    "Custom": null,
    "Description": "Workbook do not write correct information about font's underline.\nI made some changes which allow workbook to save information correctly.\n__Styles.cs__\n```\n  // why to set single line as as default option ?\n\n        public CT_UnderlineProperty()\n        {\n//            this.valField = ST_UnderlineValues.single;\n            this.valField = ST_UnderlineValues.none;\n        }\n\n       public ST_UnderlineValues val\n        {\n            get\n            {\n               // return  (null == valField) ? ST_UnderlineValues.single : (ST_UnderlineValues)this.valField;\n                   return  (null == valField) ? ST_UnderlineValues.none : (ST_UnderlineValues)this.valField;\n            }\n            set\n            {\n                this.valField = value;\n            }\n        }\n```\n__XSSFFont__\n\n```\n        public FontUnderlineType Underline\n        {\n            get\n            {\n                CT_UnderlineProperty underline = _ctFont.sizeOfUArray() == 0 ? null : _ctFont.GetUArray(0);\n                if (underline != null)\n                {\n                    return (FontUnderlineType)underline.val;\n\n                    //FontUnderline val = FontUnderline.ValueOf((int)underline.val);\n                    //return (FontUnderlineType)val.ByteValue;\n                }\n                return (FontUnderlineType)FontUnderline.NONE.ByteValue;\n            }\n            set \n            {\n                SetUnderline(value);\n            }\n        }\n\n       internal void SetUnderline(FontUnderlineType underline)\n        {\n            if (underline == FontUnderlineType.None && _ctFont.sizeOfUArray() > 0)\n            {\n                _ctFont.SetUArray(null);\n            }\n            else\n            {\n                CT_UnderlineProperty ctUnderline = _ctFont.sizeOfUArray() == 0 ? _ctFont.AddNewU() : _ctFont.GetUArray(0);\n                ST_UnderlineValues val = (ST_UnderlineValues)FontUnderline.ValueOf(underline).ByteValue; //.Value;\n                ctUnderline.val = val;\n            }\n        }\n\n```",
    "LastUpdatedDate": "2015-01-09T05:00:08.52-08:00",
    "PlannedForRelease": "",
    "ReleaseVisibleToPublic": false,
    "Priority": {
      "Name": "Unassigned",
      "Severity": 0,
      "Id": 0
    },
    "ProjectName": "npoi",
    "ReportedDate": "2014-01-13T04:08:44.76-08:00",
    "Status": {
      "Name": "Proposed",
      "Id": 1
    },
    "ReasonClosed": {
      "Name": "Unassigned"
    },
    "Summary": "Underline work incorrectly",
    "Type": {
      "Name": "Unassigned",
      "Id": 5
    },
    "VoteCount": 2,
    "Id": 12655
  },
  "FileAttachments": [],
  "Comments": [
    {
      "Message": "Which version are you using? 2.0.1? 2.0.5? or 2.0.6?",
      "PostedDate": "2014-02-15T17:46:20.55-08:00",
      "Id": -2147483648
    },
    {
      "Message": "",
      "PostedDate": "2015-01-08T19:12:56.777-08:00",
      "Id": -2147483648
    },
    {
      "Message": "When I using version 2.0.6,I have the same problem.",
      "PostedDate": "2015-01-08T19:17:54.86-08:00",
      "Id": -2147483648
    },
    {
      "Message": "I use 2.0.6",
      "PostedDate": "2015-01-09T05:00:08.52-08:00",
      "Id": -2147483648
    }
  ]
}