{
  "WorkItem": {
    "AffectedComponent": {
      "Name": "",
      "DisplayName": ""
    },
    "ClosedComment": "",
    "ClosedDate": null,
    "CommentCount": 0,
    "Custom": null,
    "Description": "Could you please show a code example for (creating and) streaming a .xlsx fiel back to the client. \nI have it running for .xls and works perfect, but for .xlsx didn't get it working.\n\nNice component ! Keep up the good work !\n\nThanks.\nRishi",
    "LastUpdatedDate": "2014-09-19T08:26:24.463-07:00",
    "PlannedForRelease": "",
    "ReleaseVisibleToPublic": false,
    "Priority": {
      "Name": "Unassigned",
      "Severity": 0,
      "Id": 0
    },
    "ProjectName": "npoi",
    "ReportedDate": "2013-10-01T06:43:06.673-07:00",
    "Status": {
      "Name": "Proposed",
      "Id": 1
    },
    "ReasonClosed": {
      "Name": "Unassigned"
    },
    "Summary": "How to stream .xlsx file back to client (browser) without first saving it to file system",
    "Type": {
      "Name": "Unassigned",
      "Id": 5
    },
    "VoteCount": 3,
    "Id": 12266
  },
  "FileAttachments": [],
  "Comments": [
    {
      "Message": "That makes two of us looking for an answer to this question.",
      "PostedDate": "2013-10-16T08:34:53.727-07:00",
      "Id": -2147483648
    },
    {
      "Message": "let's say three.\r\n\r\nI used the same code I found in XLS example, but as soon as I write the stream to Response.OutputStream\n  [   --> MyGetExcelStream(workbook).WriteTo(Response.OutputStream)  ]\nI receive the following error:\r\n\r\n\nCannot access a closed Stream. \n  Description: An unhandled exception occurred during the execution of the current web request. Please review the stack trace for more information about the error and where it originated in the code. \r\n\r\n Exception Details: System.ObjectDisposedException: Cannot access a closed Stream.\n",
      "PostedDate": "2013-11-26T01:57:33.573-08:00",
      "Id": -2147483648
    },
    {
      "Message": "Keep the stream open is not a good practice. It is suggested that you save to file first and then read it back by HttpResponse.BinaryWrite(path)",
      "PostedDate": "2014-05-16T18:15:50.117-07:00",
      "Id": -2147483648
    },
    {
      "Message": "@tonyqus Of course a stream should be closed, but it shouldn't be done by NPOI code. I create the stream, so it's my responsibility to close it. The following ASP.NET MVC code will crash because the stream is already closed before it can be returned:\r\n\r\n```\nvar stream = new MemoryStream();\nworkbook.Write(stream);\nreturn this.File(stream, mimeType, fileName + fileExtension);\n```",
      "PostedDate": "2014-09-17T01:23:42.133-07:00",
      "Id": -2147483648
    },
    {
      "Message": "",
      "PostedDate": "2014-09-17T01:27:10.367-07:00",
      "Id": -2147483648
    },
    {
      "Message": "I agree, i'm having the same issue with XLSX because the stream gets closed before i can read from it. \r\n\r\nIs there a fix in place for this?",
      "PostedDate": "2014-09-19T08:26:24.463-07:00",
      "Id": -2147483648
    }
  ]
}