{
  "WorkItem": {
    "AffectedComponent": {
      "Name": "",
      "DisplayName": ""
    },
    "ClosedComment": "",
    "ClosedDate": null,
    "CommentCount": 0,
    "Custom": null,
    "Description": "hi,\n\nThe part of my code :var book = new XSSFWorkbook();…………………………，\nMemoryStream ms = new MemoryStream();\nwhen the code execute book.Write(ms),it throw out of memory exception. \n\nthe stack trace :\n\n \tmscorlib.dll!System.IO.MemoryStream.Capacity.set(int value) + 0x5e 字节\t\n \tmscorlib.dll!System.IO.MemoryStream.EnsureCapacity(int value) + 0x41 字节\t\n \tmscorlib.dll!System.IO.MemoryStream.Write(byte[] buffer, int offset, int count) + 0x14b 字节\t\n \tNPOI.OpenXml4Net.dll!NPOI.OpenXml4Net.OPC.Internal.MemoryPackagePartOutputStream.Write(byte[] b, int off, int len) + 0x3c 字节\t\n \tmscorlib.dll!System.IO.StreamWriter.Flush(bool flushStream, bool flushEncoder) + 0x62 字节\t\n \tmscorlib.dll!System.IO.StreamWriter.Write(string value) + 0x76 字节\t\n>\tNPOI.OpenXmlFormats.dll!NPOI.OpenXmlFormats.Spreadsheet.CT_Cell.Write(System.IO.StreamWriter sw, string nodeName) 行 168\tC#\n \tNPOI.OpenXmlFormats.dll!NPOI.OpenXmlFormats.Spreadsheet.CT_Row.Write(System.IO.StreamWriter sw, string nodeName) 行 199 + 0x36 字节\tC#\n \tNPOI.OpenXmlFormats.dll!NPOI.OpenXmlFormats.Spreadsheet.CT_SheetData.Write(System.IO.StreamWriter sw, string nodeName) 行 97 + 0x2a 字节\tC#\n \tNPOI.OpenXmlFormats.dll!NPOI.OpenXmlFormats.Spreadsheet.CT_Worksheet.Write(System.IO.Stream stream) 行 553\tC#\n \tNPOI.OpenXmlFormats.dll!NPOI.OpenXmlFormats.Spreadsheet.WorksheetDocument.Save(System.IO.Stream stream) 行 34\tC#\n \tNPOI.OOXML.dll!NPOI.XSSF.UserModel.XSSFSheet.Write(System.IO.Stream stream) 行 2051\tC#\n \tNPOI.OOXML.dll!NPOI.XSSF.UserModel.XSSFSheet.Commit() 行 134\tC#\n \tNPOI.OOXML.dll!NPOI.POIXMLDocumentPart.OnSave(System.Collections.Generic.List<NPOI.OpenXml4Net.OPC.PackagePart> alreadySaved) 行 218\tC#\n \tNPOI.OOXML.dll!NPOI.POIXMLDocumentPart.OnSave(System.Collections.Generic.List<NPOI.OpenXml4Net.OPC.PackagePart> alreadySaved) 行 219 + 0x4e 字节\tC#\n \tNPOI.OOXML.dll!NPOI.POIXMLDocument.Write(System.IO.Stream stream) 行 114\tC#",
    "LastUpdatedDate": "2014-10-09T02:58:32.63-07:00",
    "PlannedForRelease": "",
    "ReleaseVisibleToPublic": false,
    "Priority": {
      "Name": "Unassigned",
      "Severity": 0,
      "Id": 0
    },
    "ProjectName": "npoi",
    "ReportedDate": "2014-06-09T03:55:25.953-07:00",
    "Status": {
      "Name": "Proposed",
      "Id": 1
    },
    "ReasonClosed": {
      "Name": "Unassigned"
    },
    "Summary": "npoi 2.0.6 out of memory exception",
    "Type": {
      "Name": "Unassigned",
      "Id": 5
    },
    "VoteCount": 2,
    "Id": 13068
  },
  "FileAttachments": [
    {
      "FileId": 5002,
      "FileName": "example.xlsx",
      "DownloadUrl": ".\\5002"
    }
  ],
  "Comments": [
    {
      "Message": "多少数据量",
      "PostedDate": "2014-06-10T09:15:49.207-07:00",
      "Id": -2147483648
    },
    {
      "Message": "",
      "PostedDate": "2014-06-13T00:46:44.9-07:00",
      "Id": -2147483648
    },
    {
      "Message": "几个sheet的 大小分别为:154290行，64826行，84942行，3416行。我通过reflector调试时发现是在StreamWriter向MemoryPackagePartOutputStream流中写数据时报的out of memory exception，报异常时流的Length和Position为33554432，excel表格格式见附件。",
      "PostedDate": "2014-06-13T00:46:49.33-07:00",
      "Id": -2147483648
    },
    {
      "Message": "",
      "PostedDate": "2014-10-09T02:58:32.63-07:00",
      "Id": -2147483648
    }
  ]
}