{
  "WorkItem": {
    "AffectedComponent": {
      "Name": "",
      "DisplayName": ""
    },
    "ClosedComment": "",
    "ClosedDate": "2008-10-21T16:02:32.973-07:00",
    "CommentCount": 0,
    "Custom": null,
    "Description": "the variable 'read' may become 0, however the while condition is read != -1",
    "LastUpdatedDate": "2013-05-16T05:28:03.327-07:00",
    "PlannedForRelease": "NPOI.Util 1.1",
    "ReleaseVisibleToPublic": false,
    "Priority": {
      "Name": "High",
      "Severity": 150,
      "Id": 3
    },
    "ProjectName": "npoi",
    "ReportedDate": "2008-10-21T15:54:53.817-07:00",
    "Status": {
      "Name": "Closed",
      "Id": 4
    },
    "ReasonClosed": {
      "Name": "Unassigned"
    },
    "Summary": "[Bug] NPOI.Util..IO.IOUtils.ToByteArray may cause endless loop",
    "Type": {
      "Name": "Task",
      "Id": 2
    },
    "VoteCount": 0,
    "Id": 751
  },
  "FileAttachments": [],
  "Comments": [
    {
      "Message": "Resolved with changeset 6462.",
      "PostedDate": "2008-10-21T16:02:32.973-07:00",
      "Id": -2147483648
    },
    {
      "Message": "",
      "PostedDate": "2013-02-21T18:20:13.173-08:00",
      "Id": -2147483648
    },
    {
      "Message": "",
      "PostedDate": "2013-05-16T05:28:03.327-07:00",
      "Id": -2147483648
    }
  ]
}