{
  "WorkItem": {
    "AffectedComponent": {
      "Name": "",
      "DisplayName": ""
    },
    "ClosedComment": "This is implemented in NPOI 1.2.4",
    "ClosedDate": "2011-04-13T00:53:57.783-07:00",
    "CommentCount": 0,
    "Custom": null,
    "Description": "I am trying to copy three cells A1,B1,C1 to down the row. Cells A1 and B1 are merged.\n \nWhen i tried it, it is moved to A2,B2,C2 but A2 and B2 not merged.\n \nActually before copying the cells, How could i find whether the cell is stand alone or it is merged with some others?",
    "LastUpdatedDate": "2013-05-16T05:27:54.343-07:00",
    "PlannedForRelease": "NPOI 1.2.4",
    "ReleaseVisibleToPublic": true,
    "Priority": {
      "Name": "Low",
      "Severity": 50,
      "Id": 1
    },
    "ProjectName": "npoi",
    "ReportedDate": "2010-12-29T19:42:54.793-08:00",
    "Status": {
      "Name": "Closed",
      "Id": 4
    },
    "ReasonClosed": {
      "Name": "Unassigned"
    },
    "Summary": "[Feature Request] property to help determine if the two cells are merged",
    "Type": {
      "Name": "Feature",
      "Id": 1
    },
    "VoteCount": 1,
    "Id": 8002
  },
  "FileAttachments": [],
  "Comments": []
}