{
  "WorkItem": {
    "AffectedComponent": {
      "Name": "",
      "DisplayName": ""
    },
    "ClosedComment": "",
    "ClosedDate": null,
    "CommentCount": 0,
    "Custom": null,
    "Description": "I am trying to read the font colour of an Excel cell using NPOI 2.2.1 or 2.1.3.1 It doesn't matter what the font colour is NPOI is always saying that it is 8 (black). Code fragment below\n\n    IWorkbook workbook = WorkbookFactory.Create(new FileStream(txtFileName.Text, FileMode.Open, FileAccess.Read));\n    ISheet worksheet = workbook.GetSheet(\"sheet1\");\n    IRow row = worksheet.GetRow(0);\n    lblFontColor.Text = row.GetCell(0).CellStyle.GetFont(workbook).Color.ToString();\nIs this a bug or am I doing something wrong?\n\nCheers Stew",
    "LastUpdatedDate": "2016-08-23T02:36:43.807-07:00",
    "PlannedForRelease": "",
    "ReleaseVisibleToPublic": false,
    "Priority": {
      "Name": "Unassigned",
      "Severity": 0,
      "Id": 0
    },
    "ProjectName": "npoi",
    "ReportedDate": "2016-05-31T18:43:56.553-07:00",
    "Status": {
      "Name": "Proposed",
      "Id": 1
    },
    "ReasonClosed": {
      "Name": "Unassigned"
    },
    "Summary": "NPOI cell font color bug?",
    "Type": {
      "Name": "Unassigned",
      "Id": 5
    },
    "VoteCount": 2,
    "Id": 13913
  },
  "FileAttachments": [],
  "Comments": [
    {
      "Message": "Update:\nThis only seems to be a problem when reading .xlsx files not the older .xls files",
      "PostedDate": "2016-06-06T17:04:02.173-07:00",
      "Id": -2147483648
    },
    {
      "Message": "",
      "PostedDate": "2016-08-23T02:36:43.807-07:00",
      "Id": -2147483648
    }
  ]
}