{
  "WorkItem": {
    "AffectedComponent": {
      "Name": "",
      "DisplayName": ""
    },
    "ClosedComment": "This is not a bug",
    "ClosedDate": "2010-10-04T14:47:04.51-07:00",
    "CommentCount": 0,
    "Custom": null,
    "Description": "I have a excel template with the hidden column C (s. attached file).\n \nWhen I now try to unhide this column, npoi tells me, that the column is not hidden anymore. But when I open the written workbook\nthe column is still hidden.\n \nCode to reproduce the issue:\nFileStream templateFileStream = new FileStream(\"Test.xls\", FileMode.Open);\nHSSFWorkbook workbook = new HSSFWorkbook(templateFileStream);\nbool hidden = workbook .GetSheetAt(0).IsColumnHidden(2); // returns true\nworkbook .GetSheetAt(0).SetColumnHidden(2, false);\nhidden = workbook .GetSheetAt(0).IsColumnHidden(2); // returns false\nFileStream outputFileStream = new FileStream(\"TestOut.xls\", FileMode.Create)\nworkbook.Write(outputFileStream); // column is still hidden in written file\noutputFileStream.Close();",
    "LastUpdatedDate": "2014-11-25T21:34:16.66-08:00",
    "PlannedForRelease": "NPOI 1.2.5",
    "ReleaseVisibleToPublic": true,
    "Priority": {
      "Name": "Low",
      "Severity": 50,
      "Id": 1
    },
    "ProjectName": "npoi",
    "ReportedDate": "2009-12-21T01:13:45.263-08:00",
    "Status": {
      "Name": "Closed",
      "Id": 4
    },
    "ReasonClosed": {
      "Name": "Unassigned"
    },
    "Summary": "SetColumnHidden false does not work",
    "Type": {
      "Name": "Issue",
      "Id": 3
    },
    "VoteCount": 3,
    "Id": 4932
  },
  "FileAttachments": [
    {
      "FileId": 1837,
      "FileName": "Test.xls",
      "DownloadUrl": ".\\1837"
    }
  ],
  "Comments": [
    {
      "Message": "The column is already unhidden, I think. The problem is that the column width is 0. So this is not a bug.\r\nworkbook.GetSheetAt(0).SetColumnWidth(2,40 * 60);\r\n\r\nThe above code can make the column visible. ",
      "PostedDate": "2010-10-04T14:46:44.593-07:00",
      "Id": -2147483648
    },
    {
      "Message": "",
      "PostedDate": "2010-10-04T14:47:04.51-07:00",
      "Id": -2147483648
    },
    {
      "Message": "",
      "PostedDate": "2013-02-21T18:20:06.187-08:00",
      "Id": -2147483648
    },
    {
      "Message": "",
      "PostedDate": "2013-05-16T05:27:57.703-07:00",
      "Id": -2147483648
    },
    {
      "Message": "Just false to true;\r\n\r\nworkbook .GetSheetAt(0).SetColumnHidden(2, true);\r\n\r\nsecond parameter name hidden, that set hide to true.",
      "PostedDate": "2014-11-25T21:34:16.66-08:00",
      "Id": -2147483648
    }
  ]
}