{
  "WorkItem": {
    "AffectedComponent": {
      "Name": "",
      "DisplayName": ""
    },
    "ClosedComment": "fixed",
    "ClosedDate": "2012-04-09T19:48:59.41-07:00",
    "CommentCount": 0,
    "Custom": null,
    "Description": "Hi,\n \nI am using NPOI library on a 2008 R2 server 64 bits, with VS 2008 .NET 2.0.\n \nWhen I execute this code :  Dim HSSFWorkbookEX As HSSFWorkbook = New HSSFWorkbook()\n \nI have th following error :\n \nSystem.Security.SecurityException: Échec de la demande d'autorisation de type 'System.Security.Permissions.EnvironmentPermission, mscorlib, Version=2.0.0.0, Culture=neutral, PublicKeyToken=b77a5c561934e089'.\n \nI saw that in system requirements I need : \"medium trust environment in ASP.NET\"\n \nWhat does that mean, and where can I check and parameter this ?\n \nThanks a lot in advance",
    "LastUpdatedDate": "2013-05-16T05:27:52.293-07:00",
    "PlannedForRelease": "",
    "ReleaseVisibleToPublic": false,
    "Priority": {
      "Name": "Low",
      "Severity": 50,
      "Id": 1
    },
    "ProjectName": "npoi",
    "ReportedDate": "2012-02-14T08:40:20.793-08:00",
    "Status": {
      "Name": "Closed",
      "Id": 4
    },
    "ReasonClosed": {
      "Name": "Unassigned"
    },
    "Summary": "Security problem while creating workbook",
    "Type": {
      "Name": "Issue",
      "Id": 3
    },
    "VoteCount": 1,
    "Id": 10376
  },
  "FileAttachments": [],
  "Comments": [
    {
      "Message": "I am running NPOI on Windows 2008 R2 x64 without any errors.  You can check your trust level in the web.config:\r\n\r\n    <system.web>\r\n        <trust level=\"Full\"/>\r\n    </system.web>",
      "PostedDate": "2012-02-15T16:10:11.88-08:00",
      "Id": -2147483648
    },
    {
      "Message": "Hi, thanks for responding me.\r\n\r\nI have already this parameter in my web.config file. What version all dll of NPOI do you use ?",
      "PostedDate": "2012-02-16T02:51:15.483-08:00",
      "Id": -2147483648
    },
    {
      "Message": "",
      "PostedDate": "2012-04-09T19:48:59.41-07:00",
      "Id": -2147483648
    },
    {
      "Message": "",
      "PostedDate": "2013-02-21T18:19:51.143-08:00",
      "Id": -2147483648
    },
    {
      "Message": "",
      "PostedDate": "2013-05-16T05:27:52.293-07:00",
      "Id": -2147483648
    }
  ]
}