{
  "WorkItem": {
    "AffectedComponent": {
      "Name": "",
      "DisplayName": ""
    },
    "ClosedComment": "",
    "ClosedDate": null,
    "CommentCount": 0,
    "Custom": null,
    "Description": "Hi, \n\nAfter cloning an Excel Sheet, I wanted to change the name of the cloned sheet. At this point, a _FormulaParseException_ occurs with the message _Name 'GET.WORKBOOK' is completely unknown in the current workbook_.\n\nHere is an example of the code :\n\n```\nint? sheetIndex = null;\nfor (int i = 0; i < wb.Count; ++i)\n  if (wb.GetSheetName(i).ToLower().Equals(MODEL_SHEET.ToLower())) \n  {\n    sheetIndex = i;\n    break;\n  }\n\nif (sheetIndex != null)\n{\n  XSSFSheet clone = (XSSFSheet)wb.CloneSheet((int)sheetIndex);\n  wb.SetSheetName(wb.GetSheetIndex(clone), sheetName); // Hang at this line\n  return clone;\n}\n```\n\nSincerely,",
    "LastUpdatedDate": "2015-03-10T06:43:00.267-07:00",
    "PlannedForRelease": "",
    "ReleaseVisibleToPublic": false,
    "Priority": {
      "Name": "Unassigned",
      "Severity": 0,
      "Id": 0
    },
    "ProjectName": "npoi",
    "ReportedDate": "2015-03-10T06:42:21.057-07:00",
    "Status": {
      "Name": "Proposed",
      "Id": 1
    },
    "ReasonClosed": {
      "Name": "Unassigned"
    },
    "Summary": "Name 'GET.WORKBOOK' is completely unknown in the current workbook",
    "Type": {
      "Name": "Unassigned",
      "Id": 5
    },
    "VoteCount": 1,
    "Id": 13494
  },
  "FileAttachments": [],
  "Comments": []
}