{
  "WorkItem": {
    "AffectedComponent": {
      "Name": "",
      "DisplayName": ""
    },
    "ClosedComment": "",
    "ClosedDate": "2014-08-19T23:22:23.43-07:00",
    "CommentCount": 0,
    "Custom": null,
    "Description": "Hello,\n\nIs there possible to know the export progress state, in order to display a progress bar for time consuming excel export operations (large files combined with AutoFit) ?\nAnd also is it possible to Cancel a started Excel export operation?\n\nCurrently I don't find any other way then displaying a marquee progress bar w/o a Cancel button.\n\nThanks,\nBogdan",
    "LastUpdatedDate": "2014-08-19T23:22:23.43-07:00",
    "PlannedForRelease": "",
    "ReleaseVisibleToPublic": false,
    "Priority": {
      "Name": "Unassigned",
      "Severity": 0,
      "Id": 0
    },
    "ProjectName": "npoi",
    "ReportedDate": "2014-07-25T03:12:26.4-07:00",
    "Status": {
      "Name": "Closed",
      "Id": 4
    },
    "ReasonClosed": {
      "Name": "Not a issue"
    },
    "Summary": "Export progress indication",
    "Type": {
      "Name": "Unassigned",
      "Id": 5
    },
    "VoteCount": 1,
    "Id": 13162
  },
  "FileAttachments": [],
  "Comments": []
}