{
  "WorkItem": {
    "AffectedComponent": {
      "Name": "",
      "DisplayName": ""
    },
    "ClosedComment": "",
    "ClosedDate": null,
    "CommentCount": 0,
    "Custom": null,
    "Description": "Hi, I'm learning how to use NPOI, but I'm having some trouble i just can't figure out.\n\nrunning this very simple snippet gives me a exception at the line \"wb.Write(fsOut);\"\n\n\"An unhandled exception of type 'System.ArgumentException' occurred in NPOI.dll\n\nAdditional information: calculated end index (3148) is out of allowable range (3121..3126)\"\n\n```\nstatic void Main(string[] args)\n        {\n            using (FileStream fs = File.OpenRead(@\"C:\\Users\\Mads\\Desktop\\TestSheet.xls\"))\n            {\n                IWorkbook wb = WorkbookFactory.Create(fs);\n                Console.WriteLine(\"Value of Cell B2: \" + wb.GetSheetAt(0).GetRow(1).GetCell(1));\n                Console.WriteLine(wb.NumberOfSheets);\n                Console.WriteLine(wb.GetSheetName(0));\n                ISheet ws = wb.CloneSheet(0);\n\n                wb.Add(ws);\n\n                FileStream fsOut = new FileStream(@\"C:\\Users\\Mads\\Desktop\\TestSheet2.xls\", FileMode.Create);\n                wb.Write(fsOut);\n                fsOut.Close();\n                //wb.CreateSheet(\"new sheet name\");\n            }\n            Console.Read();\n        }\n```",
    "LastUpdatedDate": "2014-01-27T05:40:08-08:00",
    "PlannedForRelease": "",
    "ReleaseVisibleToPublic": false,
    "Priority": {
      "Name": "Unassigned",
      "Severity": 0,
      "Id": 0
    },
    "ProjectName": "npoi",
    "ReportedDate": "2014-01-27T05:40:08-08:00",
    "Status": {
      "Name": "Proposed",
      "Id": 1
    },
    "ReasonClosed": {
      "Name": "Unassigned"
    },
    "Summary": "calculated end index (3148) is out of allowable range (3121..3126)",
    "Type": {
      "Name": "Unassigned",
      "Id": 5
    },
    "VoteCount": 1,
    "Id": 12698
  },
  "FileAttachments": [],
  "Comments": []
}