{
  "WorkItem": {
    "AffectedComponent": {
      "Name": "XWPF",
      "DisplayName": "XWPF"
    },
    "ClosedComment": "",
    "ClosedDate": null,
    "CommentCount": 0,
    "Custom": null,
    "Description": "I've been using NPOI (1.2.5) for a while to make XLS files, and I recently discovered the NPOI 2.0.6 which I would like to use to build DOCX files from scratch.\n \nI've been looking for a XWPF styled table example, and found very little, I got the example Simple Table working, and found a styled Table example from POI, but calling, <tcpr.tcPrChange = new CT_TcPrChange();> whether, I make any additional calls to the tcpr object or not (<tcpr.AddNewShd().fill = \"A7BFDE\";>), causes the Table to render BADLY (WHOLE CELL IS BLACK).  I would like to change the fill color:\ntcpr.tcPrChange = new CT_TcPrChange();\ntcpr.AddNewShd().fill = \"A7BFDE\";\n\nThe following is a summary of my success and failures:\n\nXWPF Success:\n* Create Paragraphs\n* Set Font-Family\n* Set Font-Size\n* Set Font-Bold\n* Set Text\n* Set Run-Color\n* Create Table\n* Access Table-Cell-Paragraph\n* Create Runs in Table-Cells\n* SetInsideVBorder & SetInsideHBorder\n\nXWPF Fail:\n* AddPicture\n* Set Table-Width\n* Set Table-Column-Width\n* Set Table-Row-Height\n* Set Table-Cell-Background-Color\n* Set Table-SetOutsideVBorder & Table-SetOutsideHBorder\n* Set Page-Header/Footer\n* Set Page-Orientation-Landscape (maybe not event supported in POI yet?)\n\nAre any or all of these expected to work at this time?\nIf so, where can I find example code for each?\n\nThanks",
    "LastUpdatedDate": "2014-06-15T19:02:46.973-07:00",
    "PlannedForRelease": "",
    "ReleaseVisibleToPublic": false,
    "Priority": {
      "Name": "Medium",
      "Severity": 100,
      "Id": 2
    },
    "ProjectName": "npoi",
    "ReportedDate": "2014-05-13T16:43:18-07:00",
    "Status": {
      "Name": "Active",
      "Id": 2
    },
    "ReasonClosed": {
      "Name": "Unassigned"
    },
    "Summary": "Build DOCX files from scratch",
    "Type": {
      "Name": "Feature",
      "Id": 1
    },
    "VoteCount": 3,
    "Id": 13019
  },
  "FileAttachments": [],
  "Comments": [
    {
      "Message": "Hi, I'm trying NPOI for a similar task, using 2.1 and:\r\n\r\n* AddPicture works\n* for Page Orientation one could swap w and h, it works:\r\n\r\n>> NPOI.OpenXmlFormats.Wordprocessing.CT_SectPr bodyProps = internalDoc.Document.body.sectPr;\n>> bodyProps.pgSz.w = 16838;\n>> bodyProps.pgSz.h = 11906;\r\n\r\nBut sadly, I found no solution yet for:\r\n\r\n* Set Table-Cell-Background-Color\n* Set Table-SetOutsideVBorder & Table-SetOutsideHBorder\n* Set Page-Header/Footer \r\n\r\nFor cell background, going this way at least gives the right colors, but table is still broken with no text showing up:\r\n\r\n>> if(!cell.GetCTTc().IsSetTcPr()) cell.GetCTTc().AddNewTcPr(); \n>> if(!cell.GetCTTc().tcPr.IsSetShd()) cell.GetCTTc().tcPr.AddNewShd();\n>> NPOI.OpenXmlFormats.Wordprocessing.CT_Shd cellShd = cell.GetCTTc().tcPr.shd;\n>> cellShd.val = NPOI.OpenXmlFormats.Wordprocessing.ST_Shd.solid;\n>> cellShd.color = cellColor;\r\n\r\nHaven't played with table/cell width/height yet. ",
      "PostedDate": "2014-06-15T05:39:44.69-07:00",
      "Id": -2147483648
    },
    {
      "Message": "As planed, the features you requested will be supported in NPOI 2.1.x instead fo NPOI 2.1. \r\n\r\nIf you think it's urgent to make it happen, you can buy NPOI support service. For details of payment, you can contact me via tonyqus@gmail.com.",
      "PostedDate": "2014-06-15T19:02:46.973-07:00",
      "Id": -2147483648
    }
  ]
}