{
  "WorkItem": {
    "AffectedComponent": {
      "Name": "",
      "DisplayName": ""
    },
    "ClosedComment": "",
    "ClosedDate": "2009-05-29T22:10:02.757-07:00",
    "CommentCount": 0,
    "Custom": null,
    "Description": "When I try to build my application I get:\n'Index' is ambiguous because multiple kinds of members with this name exist in class 'NPOI.HSSF.Util.HSSFColor.GREY_25_PERCENT'",
    "LastUpdatedDate": "2013-05-16T05:27:59.373-07:00",
    "PlannedForRelease": "NPOI 1.2.1 release",
    "ReleaseVisibleToPublic": true,
    "Priority": {
      "Name": "Low",
      "Severity": 50,
      "Id": 1
    },
    "ProjectName": "npoi",
    "ReportedDate": "2009-05-18T09:56:14.923-07:00",
    "Status": {
      "Name": "Closed",
      "Id": 4
    },
    "ReasonClosed": {
      "Name": "Unassigned"
    },
    "Summary": "HSSF.Util.HSSFColor: Ambiguous Names for index in VB.Net",
    "Type": {
      "Name": "Issue",
      "Id": 3
    },
    "VoteCount": 1,
    "Id": 3063
  },
  "FileAttachments": [],
  "Comments": [
    {
      "Message": "One way to do this in VB.Net:\r\n\r\nDim color As HSSFColor = New NPOI.HSSF.Util.HSSFColor.GREY_25_PERCENT()\r\nheaderStyle.FillForegroundColor = color.Index\r\n",
      "PostedDate": "2009-05-18T10:33:50.81-07:00",
      "Id": -2147483648
    },
    {
      "Message": "I understand this cause some inconvenience for your usage. The bug will be fixed in NPOI 1.2.1. Thank you for your feedback",
      "PostedDate": "2009-05-29T21:49:24.54-07:00",
      "Id": -2147483648
    },
    {
      "Message": "",
      "PostedDate": "2009-05-29T22:06:45.317-07:00",
      "Id": -2147483648
    },
    {
      "Message": "Resolved with changeset 24528.",
      "PostedDate": "2009-05-29T22:10:02.757-07:00",
      "Id": -2147483648
    },
    {
      "Message": "",
      "PostedDate": "2013-02-21T18:20:10.507-08:00",
      "Id": -2147483648
    },
    {
      "Message": "",
      "PostedDate": "2013-05-16T05:27:59.373-07:00",
      "Id": -2147483648
    }
  ]
}