{
  "WorkItem": {
    "AffectedComponent": {
      "Name": "",
      "DisplayName": ""
    },
    "ClosedComment": "",
    "ClosedDate": null,
    "CommentCount": 0,
    "Custom": null,
    "Description": "__Error while opening XL file__ \n\nAn unhandled exception of type 'ICSharpCode.SharpZipLib.Zip.ZipException' occurred in ICSharpCode.SharpZipLib.dll\n\nAdditional information: Wrong Local header signature: 0xE011CFD0\n\n```\ninternal DataTable OpenXL(string fullpath)\n        {\n            DataTable table = new DataTable();\n            XSSFWorkbook workbook = new XSSFWorkbook(new FileStream(fullpath, FileMode.Open, FileAccess.Read)); //ERROR AT THIS STATEMENT\n            .......\n        }\n```",
    "LastUpdatedDate": "2015-02-21T05:40:07.71-08:00",
    "PlannedForRelease": "",
    "ReleaseVisibleToPublic": false,
    "Priority": {
      "Name": "Unassigned",
      "Severity": 0,
      "Id": 0
    },
    "ProjectName": "npoi",
    "ReportedDate": "2014-06-29T00:21:52.547-07:00",
    "Status": {
      "Name": "Proposed",
      "Id": 1
    },
    "ReasonClosed": {
      "Name": "Unassigned"
    },
    "Summary": "Error while opening XL file",
    "Type": {
      "Name": "Unassigned",
      "Id": 5
    },
    "VoteCount": 1,
    "Id": 13106
  },
  "FileAttachments": [
    {
      "FileId": 5011,
      "FileName": "data - Copy.xlsx",
      "DownloadUrl": ".\\5011"
    }
  ],
  "Comments": [
    {
      "Message": "which file and file extension are you opening? It looks not to be a xlsx file. ",
      "PostedDate": "2014-06-29T04:43:43.67-07:00",
      "Id": -2147483648
    },
    {
      "Message": "",
      "PostedDate": "2014-06-29T22:43:16.777-07:00",
      "Id": -2147483648
    },
    {
      "Message": "It is the valid XL sheet created in office 2013. Attached the demo file for your reference.\nThis morning I got another error:\n\"An unhandled exception of type 'System.InvalidOperationException' occurred in NPOI.OOXML.dll\nAdditional information: Cannot get a text value from a numeric cell\"\r\n\r\nHere is the code I am using:\n```\nDataTable table = new DataTable();\n            XSSFWorkbook workbook = new XSSFWorkbook(new FileStream(fullpath, FileMode.Open, FileAccess.Read));\n            ISheet sheet = workbook.GetSheetAt(0);\n            IRow headerRow = sheet.GetRow(0);\n            int cellCount = headerRow.LastCellNum;\n            for (int i = headerRow.FirstCellNum; i < cellCount; i++)\n            {\n                DataColumn column = new DataColumn(headerRow.GetCell(i).StringCellValue);\n                table.Columns.Add(column);\n            }\n            int rowCount = sheet.LastRowNum;\n            for (int i = (sheet.FirstRowNum); i < sheet.LastRowNum; i++)\n            {\n                IRow row = sheet.GetRow(i);\n                DataRow dataRow = table.NewRow();\n                for (int j = row.FirstCellNum; j < cellCount; j++)\n                {\n                    if (row.GetCell(j) != null)\n                    {\n                        //EXCEPTION GENERATING IN THIS CODE\n                        dataRow[j] = row.GetCell(j).ToString();\n                        ////////////////////////////\n                    }\n                }\n                table.Rows.Add(dataRow);\n            }\n            workbook = null;\n            sheet = null;\n            return table;\n```",
      "PostedDate": "2014-06-29T22:43:18.42-07:00",
      "Id": -2147483648
    },
    {
      "Message": "Hi, I happened same question with you, How do you solve ?  But the error not happened all server,  Attachment my code:\r\n\r\nusing (MemoryStream ms = new MemoryStream(downloadFile, 0, downloadFile.Length))\n{\n         if (task.FileType == 2) //Office 2007\n              workbook = new XSSFWorkbook(ms); // Exception Code\n         else if (task.FileType == 1) //Office 2003\n               workbook = new HSSFWorkbook(ms); // Exception Code\n}\r\n\r\nThx",
      "PostedDate": "2015-01-14T23:39:17.563-08:00",
      "Id": -2147483648
    },
    {
      "Message": "Did anyone find a solution for this issue. i've updated npoi still the issue persist. ",
      "PostedDate": "2015-02-21T05:40:07.71-08:00",
      "Id": -2147483648
    }
  ]
}