{
  "WorkItem": {
    "AffectedComponent": {
      "Name": "HPSF",
      "DisplayName": "HPSF"
    },
    "ClosedComment": "",
    "ClosedDate": null,
    "CommentCount": 0,
    "Custom": null,
    "Description": "I want to add name-value pairs in the CustomProperties of an 97-2003 (.xls) Excel spreadsheet. Adding works, but name is inserted as invalid unicode (A is inserted as \\u4100 instead of \\u0041). The name is not not readable anymore (looks like chinese characters).\nName should be UTF-8 (single byte) of correct unicode for use in Excel 97-2003.\nBefore:\n![Image](http://www.van-engelen.nl/images/before.png)\nAfter:\n![Image](http://www.van-engelen.nl/images/after.png)\nDoes anyone have experience with this?\n\n```\nvar filename_in = Path.Combine(@\"Z:\\WSH projecten\\Volleybal\", \"template.xls\");\nvar fs_in = new FileStream(filename_in, FileMode.Open, FileAccess.Read);\nvar wb = new HSSFWorkbook(fs_in);\n\nCustomProperties customProperties = wb.DocumentSummaryInformation.CustomProperties;\nif (customProperties == null)\n  customProperties = new CustomProperties();\ncustomProperties.Put(\"A\", \"value A\");\ncustomProperties.Put(\"BB\", \"value BB\");\ncustomProperties.Put(\"CCC\", \"value CCC\");\nwb.DocumentSummaryInformation.CustomProperties = customProperties;\n\nvar filename_out = Path.Combine(@\"Z:\\WSH projecten\\Volleybal\", \"result.xls\");\nvar fs_out = new FileStream(filename_out, FileMode.Create);\nwb.Write(fs_out);\nfs_out.Close();\n```",
    "LastUpdatedDate": "2013-11-17T00:46:46.21-08:00",
    "PlannedForRelease": "NPOI 2.0",
    "ReleaseVisibleToPublic": true,
    "Priority": {
      "Name": "Low",
      "Severity": 50,
      "Id": 1
    },
    "ProjectName": "npoi",
    "ReportedDate": "2013-10-08T10:19:22.86-07:00",
    "Status": {
      "Name": "Resolved",
      "Id": 7
    },
    "ReasonClosed": {
      "Name": "Unassigned"
    },
    "Summary": "Issue CustomProperties in Excel (.xls): name saved in invalid unicode",
    "Type": {
      "Name": "Issue",
      "Id": 3
    },
    "VoteCount": 1,
    "Id": 12296
  },
  "FileAttachments": [],
  "Comments": [
    {
      "Message": "It's a bug in MutableSection WriteDictionary. ",
      "PostedDate": "2013-11-17T00:46:10.227-08:00",
      "Id": -2147483648
    },
    {
      "Message": "fix the read dictionary code in Property as well. ",
      "PostedDate": "2013-11-17T00:46:46.21-08:00",
      "Id": -2147483648
    }
  ]
}