{
  "WorkItem": {
    "AffectedComponent": {
      "Name": "",
      "DisplayName": ""
    },
    "ClosedComment": "",
    "ClosedDate": null,
    "CommentCount": 0,
    "Custom": null,
    "Description": "Looks like I missed at least once place when I revamped the API a while back, fixing all of the 'short' and 'int' properties to be the appropriate enum types instead.\n\nI just noticed that I missed IPatternFormatting.FillPattern.",
    "LastUpdatedDate": "2016-08-31T14:47:03.473-07:00",
    "PlannedForRelease": "",
    "ReleaseVisibleToPublic": false,
    "Priority": {
      "Name": "Unassigned",
      "Severity": 0,
      "Id": 0
    },
    "ProjectName": "npoi",
    "ReportedDate": "2016-08-31T13:52:36.17-07:00",
    "Status": {
      "Name": "Proposed",
      "Id": 1
    },
    "ReasonClosed": {
      "Name": "Unassigned"
    },
    "Summary": "IPatternFormatting.FillPattern should be of type FillPattern, not short",
    "Type": {
      "Name": "Unassigned",
      "Id": 5
    },
    "VoteCount": 1,
    "Id": 13973
  },
  "FileAttachments": [],
  "Comments": [
    {
      "Message": "I've submitted a PR to fix this here: https://github.com/tonyqus/npoi/pull/98",
      "PostedDate": "2016-08-31T14:47:03.473-07:00",
      "Id": -2147483648
    }
  ]
}