{
  "WorkItem": {
    "AffectedComponent": {
      "Name": "",
      "DisplayName": ""
    },
    "ClosedComment": "",
    "ClosedDate": null,
    "CommentCount": 0,
    "Custom": null,
    "Description": "This is the implement of XLSF namesapce.",
    "LastUpdatedDate": "2013-02-21T18:20:02.68-08:00",
    "PlannedForRelease": "",
    "ReleaseVisibleToPublic": false,
    "Priority": {
      "Name": "Low",
      "Severity": 50,
      "Id": 1
    },
    "ProjectName": "npoi",
    "ReportedDate": "2010-05-11T22:43:57.77-07:00",
    "Status": {
      "Name": "Proposed",
      "Id": 1
    },
    "ReasonClosed": {
      "Name": "Unassigned"
    },
    "Summary": "[Feature Request] PowerPoint 2007 format(pptx) read/write library",
    "Type": {
      "Name": "Feature",
      "Id": 1
    },
    "VoteCount": 4,
    "Id": 6109
  },
  "FileAttachments": [],
  "Comments": []
}