{
  "WorkItem": {
    "AffectedComponent": {
      "Name": "",
      "DisplayName": ""
    },
    "ClosedComment": "",
    "ClosedDate": null,
    "CommentCount": 0,
    "Custom": null,
    "Description": "Setting a double value to a cell produces an unreadable file on a non-English environment.\n\nFor instance, generate your spreadsheet in an application running on a Brazilian Portuguese (pt-BR) thread culture and a value like 60.3 is written as 60,3 to the XLS/XLSX file.\n\nUsers can correct this by setting the thread culture to Invariant before calling NPOI and resetting it back to the original culture after using it.\n\nHowever, this can be fixed in NPOI by specifying invariant culture inside the setCellValue method.\n\nExample:\n\nstring text = doubleValue.ToString(\"G\", CultureInfo.InvariantCulture);\n\nHope to see it fixed in a future release.",
    "LastUpdatedDate": "2013-07-12T13:18:51.707-07:00",
    "PlannedForRelease": "",
    "ReleaseVisibleToPublic": false,
    "Priority": {
      "Name": "Unassigned",
      "Severity": 0,
      "Id": 0
    },
    "ProjectName": "npoi",
    "ReportedDate": "2013-07-12T13:18:51.707-07:00",
    "Status": {
      "Name": "Proposed",
      "Id": 1
    },
    "ReasonClosed": {
      "Name": "Unassigned"
    },
    "Summary": "ICell.setCellValue(double) produces invalid value",
    "Type": {
      "Name": "Unassigned",
      "Id": 5
    },
    "VoteCount": 1,
    "Id": 11936
  },
  "FileAttachments": [],
  "Comments": []
}