{
  "WorkItem": {
    "AffectedComponent": {
      "Name": "",
      "DisplayName": ""
    },
    "ClosedComment": "Not a bug or issue",
    "ClosedDate": "2013-12-04T13:52:08.707-08:00",
    "CommentCount": 0,
    "Custom": null,
    "Description": "Hi,\n\nI used to use the library from alpha binaries but now may need to recompile from the latest source.  Can you tell me how to re-create these?\n\n* NPOI.OOXML.dll\n* NPOI.OpenXml4Net\n\nFor instance, we are using the using NPOI.XSSF.UserModel namespace.\n\nI choose AllInOne/Main but it only creates NPOI.dll (and Ionic.Zip.dll)\n\nThanks!\nChris",
    "LastUpdatedDate": "2013-12-04T13:52:08.707-08:00",
    "PlannedForRelease": "",
    "ReleaseVisibleToPublic": false,
    "Priority": {
      "Name": "Unassigned",
      "Severity": 0,
      "Id": 0
    },
    "ProjectName": "npoi",
    "ReportedDate": "2013-12-02T16:02:22.027-08:00",
    "Status": {
      "Name": "Closed",
      "Id": 4
    },
    "ReasonClosed": {
      "Name": "Unassigned"
    },
    "Summary": "How to Compile OOXML and OpenXml4Net from Source",
    "Type": {
      "Name": "Unassigned",
      "Id": 5
    },
    "VoteCount": 1,
    "Id": 12542
  },
  "FileAttachments": [],
  "Comments": [
    {
      "Message": "I figured it out.  The latest source is here (rather than codeplex):\r\n\r\n   https://github.com/tonyqus/npoi",
      "PostedDate": "2013-12-02T18:02:34.147-08:00",
      "Id": -2147483648
    },
    {
      "Message": "You can use the latest release: NPOI 2.0 beta 2. It's just released on Dec. 4.\r\n\r\nLink:\nhttps://npoi.codeplex.com/releases/view/112932",
      "PostedDate": "2013-12-04T13:51:37.153-08:00",
      "Id": -2147483648
    },
    {
      "Message": "",
      "PostedDate": "2013-12-04T13:52:08.707-08:00",
      "Id": -2147483648
    }
  ]
}