{
  "WorkItem": {
    "AffectedComponent": {
      "Name": "",
      "DisplayName": ""
    },
    "ClosedComment": "",
    "ClosedDate": null,
    "CommentCount": 0,
    "Custom": null,
    "Description": "Code like below:\nFileStream file = new FileStream(@\"D:\\npoi\\BeforeSave.xlsx\", FileMode.Open, FileAccess.Read);\n            XSSFWorkbook hssfworkbook = new XSSFWorkbook(file);\n            FileStream file1 = new FileStream(@\"D:\\npoi\\AfterSave.xlsx\", FileMode.Create);\n            hssfworkbook.Write(file1);\n            file1.Close();\n\nthe Referance File is in the attachments file (bug.rar)",
    "LastUpdatedDate": "2015-03-10T18:53:34.673-07:00",
    "PlannedForRelease": "",
    "ReleaseVisibleToPublic": false,
    "Priority": {
      "Name": "Unassigned",
      "Severity": 0,
      "Id": 0
    },
    "ProjectName": "npoi",
    "ReportedDate": "2015-03-10T18:53:33.373-07:00",
    "Status": {
      "Name": "Proposed",
      "Id": 1
    },
    "ReasonClosed": {
      "Name": "Unassigned"
    },
    "Summary": "Update an exists Excel File,Some cell's backgroud color  of the Excel became black .",
    "Type": {
      "Name": "Unassigned",
      "Id": 5
    },
    "VoteCount": 1,
    "Id": 13497
  },
  "FileAttachments": [
    {
      "FileId": 5167,
      "FileName": "bug.rar",
      "DownloadUrl": ".\\5167"
    }
  ],
  "Comments": []
}