{
  "WorkItem": {
    "AffectedComponent": {
      "Name": "",
      "DisplayName": ""
    },
    "ClosedComment": "",
    "ClosedDate": null,
    "CommentCount": 0,
    "Custom": null,
    "Description": "Hi, \nI am getting memory exception if i do \"this.Workbook.Write(buffer);\"  for 50 k and 70 columns,\n\nhow to avoid this exception.\n\n   using (var buffer = new MemoryStream())\n               {\n                   this.Workbook.Write(buffer);\n                   \n                   return buffer.GetBuffer();\n               }\n\n\nError :\n\nException of type 'System.OutOfMemoryException' was thrown.\n\nThanks\nA-",
    "LastUpdatedDate": "2013-04-04T12:23:14.573-07:00",
    "PlannedForRelease": "",
    "ReleaseVisibleToPublic": false,
    "Priority": {
      "Name": "Unassigned",
      "Severity": 0,
      "Id": 0
    },
    "ProjectName": "npoi",
    "ReportedDate": "2013-04-04T12:22:35.09-07:00",
    "Status": {
      "Name": "Proposed",
      "Id": 1
    },
    "ReasonClosed": {
      "Name": "Unassigned"
    },
    "Summary": "Memory Exception if using 50k rows with 70 columns",
    "Type": {
      "Name": "Issue",
      "Id": 3
    },
    "VoteCount": 1,
    "Id": 11691
  },
  "FileAttachments": [],
  "Comments": []
}