{
  "WorkItem": {
    "AffectedComponent": {
      "Name": "",
      "DisplayName": ""
    },
    "ClosedComment": "",
    "ClosedDate": null,
    "CommentCount": 0,
    "Custom": null,
    "Description": "Hi, I'm using the NPOI 2.0 Version of your library, and I'm having an issue when creating an Excel file and try to open with Microsoft Excel 2013. \n\nThere is a column with date format, that works fine from row 1 to 10, but from row 11 the program stops reading this property and shows a weird decima value.\n\nThe llibrary works perfect for me in older versions of Excel, OpenOffice and GoogleDrive.\n\nI attach a screenshot.\n\nThanks and regards!\n\nAlejo",
    "LastUpdatedDate": "2014-12-14T01:14:28.453-08:00",
    "PlannedForRelease": "",
    "ReleaseVisibleToPublic": false,
    "Priority": {
      "Name": "Unassigned",
      "Severity": 0,
      "Id": 0
    },
    "ProjectName": "npoi",
    "ReportedDate": "2014-07-17T23:50:55.883-07:00",
    "Status": {
      "Name": "Proposed",
      "Id": 1
    },
    "ReasonClosed": {
      "Name": "Unassigned"
    },
    "Summary": "EXCEL 2013 - Date Format from row 10",
    "Type": {
      "Name": "Unassigned",
      "Id": 5
    },
    "VoteCount": 2,
    "Id": 13144
  },
  "FileAttachments": [
    {
      "FileId": 5042,
      "FileName": "aparchepoi.png",
      "DownloadUrl": ".\\5042"
    },
    {
      "FileId": 5056,
      "FileName": "difference.png",
      "DownloadUrl": ".\\5056"
    }
  ],
  "Comments": [
    {
      "Message": "looks weird. I suggest you double check your code. Cell styles are not applied correctly.",
      "PostedDate": "2014-07-18T01:10:55.717-07:00",
      "Id": -2147483648
    },
    {
      "Message": "",
      "PostedDate": "2014-08-11T03:50:13.297-07:00",
      "Id": -2147483648
    },
    {
      "Message": "I'm experiencing the same sort of problems..\r\n\r\nI generate a file and if I open this file in Excel 2010, everything looks fine, just the way I want it, and if someone runs the program and opens the generated file in Excel 2010, the table looks fine from row 1 to 10, after row 10 the style isn't applied anymore.\r\n\r\nI also attached a screenshot",
      "PostedDate": "2014-08-11T03:50:14.453-07:00",
      "Id": -2147483648
    },
    {
      "Message": "for additional information, I use this code to apply the style:\r\n\r\nFirst I Defined the style I want to apply:\n```\nHSSFFont fontStyleSubject = (HSSFFont)xlsWorkbook.CreateFont();\nfontStyleSubject.Boldweight = (short)FontBoldWeight.BOLD;\nICellStyle cellStyleSubject = xlsWorkbook.CreateCellStyle();\ncellStyleSubject.SetFont(fontStyleSubject);\nshort colorIndex = new HSSFColor.GREY_25_PERCENT().GetIndex();\ncellStyleSubject.FillForegroundColor = colorIndex;\ncellStyleSubject.FillPattern = FillPatternType.SOLID_FOREGROUND;\n```\r\n\r\nafter that, I have the following:\n```\nif (cellIsHeader)\n{\n     wbCell.SetCellValue(cellValue);\n     wbCell.CellStyle = cellStyleSubject;\n}\n```\r\n\r\nthe strange thing is, as you can see in the attachment (difference), I also have a borderstyle, and this behaves correctly on all the rows as you can see, the code for this is nothing more then:\r\n\r\ndefining the style:\n```\nICellStyle borderStyle = xlsWorkbook.CreateCellStyle();\nborderStyle.BorderBottom = BorderStyle.THIN;\nborderStyle.BorderRight = BorderStyle.THIN;\n```\r\n\r\nand if none of the if/else if's apply on a row, this code is applied:\nelse\n```\n{\n      wbCell.CellStyle = borderStyle;\n}\n```",
      "PostedDate": "2014-08-11T04:13:07.363-07:00",
      "Id": -2147483648
    },
    {
      "Message": "",
      "PostedDate": "2014-08-11T04:35:11.45-07:00",
      "Id": -2147483648
    },
    {
      "Message": "Hello, is any feedback about the issue? ",
      "PostedDate": "2014-12-14T01:14:28.453-08:00",
      "Id": -2147483648
    }
  ]
}