{
  "WorkItem": {
    "AffectedComponent": {
      "Name": "",
      "DisplayName": ""
    },
    "ClosedComment": "",
    "ClosedDate": "2009-01-30T01:48:45.433-08:00",
    "CommentCount": 0,
    "Custom": null,
    "Description": "package org.apache.poi.hssf.record",
    "LastUpdatedDate": "2013-05-16T05:28:05.96-07:00",
    "PlannedForRelease": "NPOI.HSSF 1.0",
    "ReleaseVisibleToPublic": false,
    "Priority": {
      "Name": "Medium",
      "Severity": 100,
      "Id": 2
    },
    "ProjectName": "npoi",
    "ReportedDate": "2008-09-22T08:38:57.1-07:00",
    "Status": {
      "Name": "Closed",
      "Id": 4
    },
    "ReasonClosed": {
      "Name": "Unassigned"
    },
    "Summary": "NPOI.HSSF.Record namespace",
    "Type": {
      "Name": "Task",
      "Id": 2
    },
    "VoteCount": 0,
    "Id": 180
  },
  "FileAttachments": [],
  "Comments": [
    {
      "Message": "Associated with changeset 3797.",
      "PostedDate": "2008-10-06T10:33:22.607-07:00",
      "Id": -2147483648
    },
    {
      "Message": "Associated with changeset 4759.",
      "PostedDate": "2008-10-11T19:42:49.63-07:00",
      "Id": -2147483648
    },
    {
      "Message": "Associated with changeset 6103.",
      "PostedDate": "2008-10-18T09:14:51.843-07:00",
      "Id": -2147483648
    },
    {
      "Message": "Associated with changeset 8534.",
      "PostedDate": "2008-12-07T14:46:26.923-08:00",
      "Id": -2147483648
    },
    {
      "Message": "Associated with changeset 8985.",
      "PostedDate": "2008-12-17T01:23:02.94-08:00",
      "Id": -2147483648
    },
    {
      "Message": "Resolved with changeset 10429.",
      "PostedDate": "2009-01-30T01:48:45.433-08:00",
      "Id": -2147483648
    },
    {
      "Message": "",
      "PostedDate": "2013-02-21T18:20:15.533-08:00",
      "Id": -2147483648
    },
    {
      "Message": "",
      "PostedDate": "2013-05-16T05:28:05.96-07:00",
      "Id": -2147483648
    }
  ]
}