{
  "WorkItem": {
    "AffectedComponent": {
      "Name": "",
      "DisplayName": ""
    },
    "ClosedComment": "",
    "ClosedDate": "2009-09-27T05:55:18.79-07:00",
    "CommentCount": 0,
    "Custom": null,
    "Description": "Could you let me know how to use the NPOI.HSSF.Record.ExtendedFormatRecord.ShrinkToFit property? I can't find any way to be able to set it or apply it to a HSSFCell or HSSFCellStyle.",
    "LastUpdatedDate": "2013-05-16T05:27:58.5-07:00",
    "PlannedForRelease": "NPOI 1.2.2 for .NET 2.0",
    "ReleaseVisibleToPublic": true,
    "Priority": {
      "Name": "Medium",
      "Severity": 100,
      "Id": 2
    },
    "ProjectName": "npoi",
    "ReportedDate": "2009-09-27T05:46:25.063-07:00",
    "Status": {
      "Name": "Closed",
      "Id": 4
    },
    "ReasonClosed": {
      "Name": "Unassigned"
    },
    "Summary": "expose ShrinkToFit via HSSFCellStyle",
    "Type": {
      "Name": "Task",
      "Id": 2
    },
    "VoteCount": 1,
    "Id": 4103
  },
  "FileAttachments": [],
  "Comments": [
    {
      "Message": "I've made it public to users. According to the test, it works perfectly!",
      "PostedDate": "2009-09-27T05:54:37.243-07:00",
      "Id": -2147483648
    },
    {
      "Message": "Resolved with changeset 29719.",
      "PostedDate": "2009-09-27T05:55:18.79-07:00",
      "Id": -2147483648
    },
    {
      "Message": "",
      "PostedDate": "2013-02-21T18:20:08.607-08:00",
      "Id": -2147483648
    },
    {
      "Message": "",
      "PostedDate": "2013-05-16T05:27:58.5-07:00",
      "Id": -2147483648
    }
  ]
}