{
  "WorkItem": {
    "AffectedComponent": {
      "Name": "",
      "DisplayName": ""
    },
    "ClosedComment": "",
    "ClosedDate": "2010-07-11T04:36:43.453-07:00",
    "CommentCount": 0,
    "Custom": null,
    "Description": "1.2.2.0\n \n在winform 里，点按钮，第一次导出成功，再点这个按钮，就会在\ndateStyle.DataFormat = format.GetFormat(\"yyyy-mm-dd\");出现 未将对象引用设置到对象的实例。\n分析后错误出在：GetFormat， 不知道是什么原因\n主要代码：\n \n    public static void ExportEasy(DataTable dtSource, string strFileName)\n    {\n        HSSFWorkbook workbook = new HSSFWorkbook();\n        HSSFSheet sheet = workbook.CreateSheet();\n \n        HSSFCellStyle dateStyle = workbook.CreateCellStyle();\n        HSSFDataFormat format = workbook.CreateDataFormat();\n        dateStyle.DataFormat = format.GetFormat(\"yyyy-mm-dd\");\n        format.Dispose();\n \n        //填充表头\n        HSSFRow dataRow = sheet.CreateRow(0);\n        foreach (DataColumn column in dtSource.Columns)\n        {\n            dataRow.CreateCell(column.Ordinal).SetCellValue(column.ColumnName);\n        }\n \n \n        //填充内容\n        for (int i = 0; i < dtSource.Rows.Count; i++)\n        {\n            dataRow = sheet.CreateRow(i + 1);\n            for (int j = 0; j < dtSource.Columns.Count; j++)\n            {\n                HSSFCell newCell = dataRow.CreateCell(j);\n                newCell.SetCellValue(dtSource.Rows[i][j].ToString());\n                newCell.CellStyle = dateStyle;\n            }\n        }\n \n \n        //保存\n        using (MemoryStream ms = new MemoryStream())\n        {\n            using (FileStream fs = new FileStream(strFileName, FileMode.Create, FileAccess.Write))\n            {\n                workbook.Write(fs);\n            }\n        }\n \n        sheet.Dispose();\n        workbook.Dispose();\n    }",
    "LastUpdatedDate": "2013-05-16T05:27:56.79-07:00",
    "PlannedForRelease": "",
    "ReleaseVisibleToPublic": false,
    "Priority": {
      "Name": "Low",
      "Severity": 50,
      "Id": 1
    },
    "ProjectName": "npoi",
    "ReportedDate": "2010-05-08T20:53:54.477-07:00",
    "Status": {
      "Name": "Closed",
      "Id": 4
    },
    "ReasonClosed": {
      "Name": "Unassigned"
    },
    "Summary": "HSSFDataFormat 未将对象引用设置到对象的实例。",
    "Type": {
      "Name": "Issue",
      "Id": 3
    },
    "VoteCount": 1,
    "Id": 6083
  },
  "FileAttachments": [],
  "Comments": [
    {
      "Message": "当我注释掉\r\n            //sheet.Dispose();\r\n            //workbook.Dispose();\r\n后，不存在上面的问题了",
      "PostedDate": "2010-05-08T21:42:23.023-07:00",
      "Id": -2147483648
    },
    {
      "Message": "我注意到您的代码里全都没有显示释放，是不用？还是没必要？",
      "PostedDate": "2010-05-08T21:49:59.16-07:00",
      "Id": -2147483648
    },
    {
      "Message": "对，示例代码里面没有使用过Dispose，查看源码发现workbook.Dispose();的时候会释放静态类的静态成员，所以感觉这个是不用手动释放的。",
      "PostedDate": "2010-06-16T02:40:29.293-07:00",
      "Id": -2147483648
    },
    {
      "Message": "对，示例代码里面没有使用过Dispose，查看源码发现workbook.Dispose();的时候会释放静态类的静态成员，所以感觉这个是不用手动释放的。",
      "PostedDate": "2010-06-16T02:41:05.553-07:00",
      "Id": -2147483648
    },
    {
      "Message": "对，示例代码里面没有使用过Dispose，查看源码发现workbook.Dispose();的时候会释放静态类的静态成员，所以感觉这个是不用手动释放的。",
      "PostedDate": "2010-06-16T02:41:06.933-07:00",
      "Id": -2147483648
    },
    {
      "Message": "Resolved with changeset 51262.",
      "PostedDate": "2010-07-11T04:36:43.453-07:00",
      "Id": -2147483648
    },
    {
      "Message": "",
      "PostedDate": "2013-02-21T18:20:03.54-08:00",
      "Id": -2147483648
    },
    {
      "Message": "",
      "PostedDate": "2013-05-16T05:27:56.79-07:00",
      "Id": -2147483648
    }
  ]
}