{
  "WorkItem": {
    "AffectedComponent": {
      "Name": "",
      "DisplayName": ""
    },
    "ClosedComment": "",
    "ClosedDate": null,
    "CommentCount": 0,
    "Custom": null,
    "Description": "Hi,\n\nI am currently using NPOI HSSF classes to create and modify excel data. Which works fine for me. \nI am facing two main issues with this version. The limitation of number of rows(65535) and columns(255). So I have to move to NPOI XSSF classes. \n\nNow my query is can I get source code for NPOI.XSSF dll. Because I have made my custom methods and classes in HSSF code. \n\nIf you have any other solution, please provide it.\n\n\nPlease reply me.\nThank you,\nMegha Shukla",
    "LastUpdatedDate": "2015-10-07T21:42:07.85-07:00",
    "PlannedForRelease": "",
    "ReleaseVisibleToPublic": false,
    "Priority": {
      "Name": "Unassigned",
      "Severity": 0,
      "Id": 0
    },
    "ProjectName": "npoi",
    "ReportedDate": "2015-10-07T21:42:07.85-07:00",
    "Status": {
      "Name": "Proposed",
      "Id": 1
    },
    "ReasonClosed": {
      "Name": "Unassigned"
    },
    "Summary": "What can I do to remove limitation of number of rows(65535) and columns(255)?",
    "Type": {
      "Name": "Unassigned",
      "Id": 5
    },
    "VoteCount": 1,
    "Id": 13740
  },
  "FileAttachments": [],
  "Comments": []
}