{
  "WorkItem": {
    "AffectedComponent": {
      "Name": "",
      "DisplayName": ""
    },
    "ClosedComment": "",
    "ClosedDate": null,
    "CommentCount": 0,
    "Custom": null,
    "Description": "Currently using NPOI 1.2.5 to generate Excel 2003 reports from an MVC3 application.  \n\nWhen I use the following lines of code it doesn't autosize the columns correctly.\n\n\n> for (var i = 0; i < 14; i++)\n> {\n>    worksheet.AutoSizeColumn(i);\n> }\n\n\nNote, although I am merging cells in the output I am not doing so until after the autosize code above has run.\n\nAny help would be appreciated.",
    "LastUpdatedDate": "2014-01-29T06:37:04.38-08:00",
    "PlannedForRelease": "",
    "ReleaseVisibleToPublic": false,
    "Priority": {
      "Name": "Unassigned",
      "Severity": 0,
      "Id": 0
    },
    "ProjectName": "npoi",
    "ReportedDate": "2013-03-26T06:55:38.197-07:00",
    "Status": {
      "Name": "Proposed",
      "Id": 1
    },
    "ReasonClosed": {
      "Name": "Unassigned"
    },
    "Summary": "AutoSizeColumn not working correctly",
    "Type": {
      "Name": "Issue",
      "Id": 3
    },
    "VoteCount": 1,
    "Id": 11661
  },
  "FileAttachments": [],
  "Comments": [
    {
      "Message": "Can you give us a picture? Because not sizing correctly is too wide subject. \n",
      "PostedDate": "2014-01-29T06:37:04.38-08:00",
      "Id": -2147483648
    }
  ]
}