{
  "WorkItem": {
    "AffectedComponent": {
      "Name": "",
      "DisplayName": ""
    },
    "ClosedComment": "",
    "ClosedDate": null,
    "CommentCount": 0,
    "Custom": null,
    "Description": "I have an .xlsx file with a cell containing \"a@\" - kind of a broken email address. When I try to open it using new XSSFWorkbook(file).\n\nException: UrlFormatException\nInvalid URI: The hostname could not be parsed.",
    "LastUpdatedDate": "2016-08-29T05:57:44.583-07:00",
    "PlannedForRelease": "",
    "ReleaseVisibleToPublic": false,
    "Priority": {
      "Name": "Unassigned",
      "Severity": 0,
      "Id": 0
    },
    "ProjectName": "npoi",
    "ReportedDate": "2014-02-07T09:11:45.9-08:00",
    "Status": {
      "Name": "Proposed",
      "Id": 1
    },
    "ReasonClosed": {
      "Name": "Unassigned"
    },
    "Summary": "Crash when opening a file with a broken link",
    "Type": {
      "Name": "Unassigned",
      "Id": 5
    },
    "VoteCount": 6,
    "Id": 12727
  },
  "FileAttachments": [
    {
      "FileId": 4890,
      "FileName": "123.xlsx",
      "DownloadUrl": ".\\4890"
    }
  ],
  "Comments": [
    {
      "Message": "This is happening to me as well with a xlsx file to create a XSSFWorkbook. \r\n\r\nThe problem occurs when the cell has hyperlink format, which is given automatically by Excel when the '@' character is writen. Otherwise, when the information is kept without URI format (not hyperlink), the constructor works fine:\r\n\r\n```\nusing (FileStream file = new FileStream(path, FileMode.Open, FileAccess.Read))\n            {\n                try\n                {\n                    XSSFWorkbook xssfworkbook = new XSSFWorkbook(file);\n                    return xssfworkbook;\n                }\n                catch (Exception ex)\n                {\n                   //error stuff\n                }\n            }\n```",
      "PostedDate": "2014-02-11T08:33:11.597-08:00",
      "Id": -2147483648
    },
    {
      "Message": "",
      "PostedDate": "2014-02-11T08:36:08.127-08:00",
      "Id": -2147483648
    },
    {
      "Message": "",
      "PostedDate": "2014-04-22T03:21:56.437-07:00",
      "Id": -2147483648
    },
    {
      "Message": "",
      "PostedDate": "2014-06-08T07:26:45.503-07:00",
      "Id": -2147483648
    },
    {
      "Message": "Is this issue expected to be fixed?",
      "PostedDate": "2014-06-08T07:27:38.69-07:00",
      "Id": -2147483648
    },
    {
      "Message": "how about this issue?\nIt is happening to me yestoday.\nWaiting for feedback",
      "PostedDate": "2014-08-28T18:43:31.58-07:00",
      "Id": -2147483648
    },
    {
      "Message": "",
      "PostedDate": "2014-11-06T11:41:49.867-08:00",
      "Id": -2147483648
    },
    {
      "Message": "I have the same problem.\r\n\r\nOne way to fix this issue, is to edit _XSSFHyperlink.cs_.\nReplace line 85:\n```\n _location = target.ToString();\n```\r\n\r\nWith:\n```\ntry\n{\n    _location = target.ToString();\n}\ncatch (UriFormatException)\n{\n    _location = target.OriginalString;\n}\n```\r\n\r\nThis works fine for me.",
      "PostedDate": "2014-11-06T13:17:13.803-08:00",
      "Id": -2147483648
    },
    {
      "Message": "",
      "PostedDate": "2016-08-29T05:57:44.583-07:00",
      "Id": -2147483648
    }
  ]
}