{
  "WorkItem": {
    "AffectedComponent": {
      "Name": "XSSF",
      "DisplayName": "XSSF"
    },
    "ClosedComment": "",
    "ClosedDate": "2014-05-16T18:09:34.323-07:00",
    "CommentCount": 0,
    "Custom": null,
    "Description": "Excel 2013 displays an curved arrow instead of a rectangular shape as comment box in excel file created from xssf class library (2.0.1 beta). The picture from generated test.xlsx example is in attachment.\n\nExcel 2010 displays same file correctly.",
    "LastUpdatedDate": "2015-10-02T04:17:57.713-07:00",
    "PlannedForRelease": "NPOI 2.1.1",
    "ReleaseVisibleToPublic": true,
    "Priority": {
      "Name": "Medium",
      "Severity": 100,
      "Id": 2
    },
    "ProjectName": "npoi",
    "ReportedDate": "2013-10-15T06:36:29.42-07:00",
    "Status": {
      "Name": "Closed",
      "Id": 4
    },
    "ReasonClosed": {
      "Name": "Fixed"
    },
    "Summary": "Excel 2013, XSSF CellComment, Shape problem",
    "Type": {
      "Name": "Issue",
      "Id": 3
    },
    "VoteCount": 1,
    "Id": 12320
  },
  "FileAttachments": [
    {
      "FileId": 4702,
      "FileName": "sample.png",
      "DownloadUrl": ".\\4702"
    },
    {
      "FileId": 6249,
      "FileName": "cell-comment.png",
      "DownloadUrl": ".\\6249"
    }
  ],
  "Comments": [
    {
      "Message": "I can reproduce the issue. This will become a workitem",
      "PostedDate": "2013-10-23T21:59:44.583-07:00",
      "Id": -2147483648
    },
    {
      "Message": "",
      "PostedDate": "2013-10-23T22:51:15.59-07:00",
      "Id": -2147483648
    },
    {
      "Message": "",
      "PostedDate": "2014-01-19T11:40:57.3-08:00",
      "Id": -2147483648
    },
    {
      "Message": "This is caused by the same VML issue that breaks XLSX files with images in headers (issue 12831): \r\n\r\nWhen replacing the VML Drawing file with a \"good\" one, the comment shape is fine. \r\n\r\nThe XSSFVMLDrawing seems to introduce some issues parsing and re-writing the XML nodes. ",
      "PostedDate": "2014-03-21T08:40:03.653-07:00",
      "Id": -2147483648
    },
    {
      "Message": "same issue in POI: https://issues.apache.org/bugzilla/show_bug.cgi?id=55410",
      "PostedDate": "2014-05-16T18:08:44.48-07:00",
      "Id": -2147483648
    },
    {
      "Message": "shapetype id should not be _xssf_cell_comment",
      "PostedDate": "2014-05-16T18:09:29.747-07:00",
      "Id": -2147483648
    },
    {
      "Message": "",
      "PostedDate": "2014-05-16T18:09:34.323-07:00",
      "Id": -2147483648
    },
    {
      "Message": "",
      "PostedDate": "2015-10-02T04:17:56.49-07:00",
      "Id": -2147483648
    },
    {
      "Message": "\nThis is still an issue in NPOI version 2.1.3.1.\r\n\r\nSteps to reproduce:\n1. Create an Excel workbook using the code below.\n2. Open the file in Excel 2013 - observe the cell comment is correctly formatted\n3. Save the file\n4. Close the file\n5. Reopen file - observe the cell comment has been reformated as an arrow (see attached file cell-comment.png)\r\n\r\n```\nvar workbook = new XSSFWorkbook();\nvar worksheet = workbook.CreateSheet(\"Sheet1\");\nvar row = worksheet.CreateRow(0);\nvar cell = row.CreateCell(0);\r\n\r\nvar anchor = (workbook).GetCreationHelper().CreateClientAnchor();\nanchor.AnchorType = (int)AnchorType.DontMoveAndResize;\nanchor.Col1 = cell.ColumnIndex;\nanchor.Col2 = cell.ColumnIndex + 3;\nanchor.Row1 = cell.RowIndex;\nanchor.Row2 = cell.RowIndex + 3;\r\n\r\nvar comment = worksheet.CreateDrawingPatriarch().CreateCellComment(anchor);\ncomment.String = (workbook).GetCreationHelper().CreateRichTextString(\"Comment text\");\r\n\r\ncell.CellComment = comment;\r\n\r\nusing (var stream = new FileStream(@\"C:\\comment.xlsx\", FileMode.Create))\n{\n\tworkbook.Write(stream);\n}\n```",
      "PostedDate": "2015-10-02T04:17:57.713-07:00",
      "Id": -2147483648
    }
  ]
}