{
  "WorkItem": {
    "AffectedComponent": {
      "Name": "XSSF",
      "DisplayName": "XSSF"
    },
    "ClosedComment": "",
    "ClosedDate": null,
    "CommentCount": 0,
    "Custom": null,
    "Description": "Hi all:\n\n        Use XSSF to SetCellValue(\"\")\n\n        The Cell Result is \"名称\" ,Not \"\"",
    "LastUpdatedDate": "2013-11-17T00:55:53.49-08:00",
    "PlannedForRelease": "NPOI 2.0",
    "ReleaseVisibleToPublic": true,
    "Priority": {
      "Name": "Low",
      "Severity": 50,
      "Id": 1
    },
    "ProjectName": "npoi",
    "ReportedDate": "2013-10-30T00:06:19.447-07:00",
    "Status": {
      "Name": "Proposed",
      "Id": 1
    },
    "ReasonClosed": {
      "Name": "Unassigned"
    },
    "Summary": "[NPOI 2.0.1]XSSF SetCellValue  Bug",
    "Type": {
      "Name": "Issue",
      "Id": 3
    },
    "VoteCount": 1,
    "Id": 12396
  },
  "FileAttachments": [],
  "Comments": [
    {
      "Message": "Please use SetCellValue(null) instead.  This is a workaround",
      "PostedDate": "2013-11-17T00:55:28.86-08:00",
      "Id": -2147483648
    },
    {
      "Message": "",
      "PostedDate": "2013-11-17T00:55:53.49-08:00",
      "Id": -2147483648
    }
  ]
}