{
  "WorkItem": {
    "AffectedComponent": {
      "Name": "",
      "DisplayName": ""
    },
    "ClosedComment": "",
    "ClosedDate": null,
    "CommentCount": 0,
    "Custom": null,
    "Description": "I am using NPOI 1.2.3.0 in an ASP.NET application to export the results of a rather large SQL query to an Excel 2003 XLS file.\n \nIn short, the query results are populated into an ADO.NET DataTable. I then have a routine that loops through the rows in the DataTable and for each row adds a row to an NPOI spreadsheet. It is intelligent enough that once 65,000 rows are exceeded for a\n single sheet, a new sheet is created and the rows are continued there, starting at the first row in the new sheet.\n \nThis approach works well for some of my smaller database queries that include, say, 30,000 rows and 50 columns, but I have this one query that returns north of 125,000 rows and has roughly 50 columns, many of which have a good deal of text.\n \nI am able to construct the spreadsheet without issue, but when I try to stream the generated spreadsheet down to the browser I get an OutOfMemoryException when calling the HSSFWorkbook class'sWrite method.\n (Internally, the error is happening when the Write method calls the class's GetBytesmethod.)\n \nIf I run the debugger and stop before the Write method is called, I see that the workbook's Size property returns a value of (roughly) 6.5 million. I'm not sure why such a small size would result in anOutOfMemoryException seeing that there\n are gigabytes worth of RAM sitting around on my dev box.\n \nThis error is noted in another discussion here - Out of Memory Problems - but no resolution was found, unfortunately.\n \nFor completeness, here is the code where the exception is raised (specifically, it's raised on theworkbook.Write line).\n \nUsing exportData As New MemoryStream()    workbook.Write(exportData)    Response.ContentType = \"application/vnd.ms-excel\"    Response.AddHeader(\"Content-Disposition\", \"Attachment;Filename=\" & saveAsName)    Response.Clear()    Response.BinaryWrite(exportData.GetBuffer())    Response.End()End Using\nThanks!",
    "LastUpdatedDate": "2013-07-08T22:43:38.87-07:00",
    "PlannedForRelease": "",
    "ReleaseVisibleToPublic": false,
    "Priority": {
      "Name": "Medium",
      "Severity": 100,
      "Id": 2
    },
    "ProjectName": "npoi",
    "ReportedDate": "2011-10-16T14:40:51.69-07:00",
    "Status": {
      "Name": "Active",
      "Id": 2
    },
    "ReasonClosed": {
      "Name": "Unassigned"
    },
    "Summary": "OutOfMemoryException when calling HSSFWorkbook Write method",
    "Type": {
      "Name": "Issue",
      "Id": 3
    },
    "VoteCount": 3,
    "Id": 9655
  },
  "FileAttachments": [],
  "Comments": [
    {
      "Message": "Have you tried writing directly to the Response.OutputStream?   I've used this method in the past to greatly reduce the memory requirements of large amounts of data being streamed out ...\r\n\r\n    Response.ContentType = \"application/vnd.ms-excel\" \n    Response.AddHeader(\"Content-Disposition\", \"Attachment;Filename=\" & saveAsName) \n    Response.Clear() \n    workbook.Write(Response.OutputStream)\n    Response.End()",
      "PostedDate": "2013-07-08T22:43:38.87-07:00",
      "Id": -2147483648
    }
  ]
}