{
  "WorkItem": {
    "AffectedComponent": {
      "Name": "",
      "DisplayName": ""
    },
    "ClosedComment": "",
    "ClosedDate": "2009-04-08T09:30:20.633-07:00",
    "CommentCount": 0,
    "Custom": null,
    "Description": "",
    "LastUpdatedDate": "2013-05-16T05:28:00.35-07:00",
    "PlannedForRelease": "NPOI 1.2 Alpha",
    "ReleaseVisibleToPublic": false,
    "Priority": {
      "Name": "Unassigned",
      "Severity": 0,
      "Id": 0
    },
    "ProjectName": "npoi",
    "ReportedDate": "2008-11-11T13:08:44.7-08:00",
    "Status": {
      "Name": "Closed",
      "Id": 4
    },
    "ReasonClosed": {
      "Name": "Unassigned"
    },
    "Summary": "Test Cases for NPOI.HSSF.Record.Formula.Atp namespace",
    "Type": {
      "Name": "Task",
      "Id": 2
    },
    "VoteCount": 0,
    "Id": 945
  },
  "FileAttachments": [],
  "Comments": [
    {
      "Message": "Resolved with changeset 21534.",
      "PostedDate": "2009-04-08T09:30:20.633-07:00",
      "Id": -2147483648
    },
    {
      "Message": "",
      "PostedDate": "2013-05-16T05:28:00.35-07:00",
      "Id": -2147483648
    }
  ]
}