{
  "WorkItem": {
    "AffectedComponent": {
      "Name": "",
      "DisplayName": ""
    },
    "ClosedComment": "",
    "ClosedDate": null,
    "CommentCount": 0,
    "Custom": null,
    "Description": "Hello,\n\nI am reading a excel file using NPOI dll. This excel file have few cells which have formulas associated with it. now when i read the cell value it return the formula instead of actual text. \n\nHere is my code.\n\nICell cell = row.GetCell(i);\n                if (cell == null)\n                {\n                    dr[i] = null;\n                }\n                else\n                {\n                    dr[i] = cell.ToString(); // This line returning the \"M16\" instead of 18.00\n                }\n\n\nPlease let me know if anyone knows how to read the actual cell value of the cell.\n\nThanks.",
    "LastUpdatedDate": "2014-08-01T06:22:29.433-07:00",
    "PlannedForRelease": "",
    "ReleaseVisibleToPublic": false,
    "Priority": {
      "Name": "Unassigned",
      "Severity": 0,
      "Id": 0
    },
    "ProjectName": "npoi",
    "ReportedDate": "2013-05-23T04:21:54.483-07:00",
    "Status": {
      "Name": "Proposed",
      "Id": 1
    },
    "ReasonClosed": {
      "Name": "Unassigned"
    },
    "Summary": "How to read cell text when formula is attached to cell.",
    "Type": {
      "Name": "Unassigned",
      "Id": 5
    },
    "VoteCount": 2,
    "Id": 11803
  },
  "FileAttachments": [],
  "Comments": []
}