{
  "WorkItem": {
    "AffectedComponent": {
      "Name": "",
      "DisplayName": ""
    },
    "ClosedComment": "",
    "ClosedDate": null,
    "CommentCount": 0,
    "Custom": null,
    "Description": "The sample project NPOI.Examples.2010.sln will not open with Visual Studio 2010.  I get an error message stating that the solution was built with a newer version of VS.",
    "LastUpdatedDate": "2014-04-12T14:47:36.367-07:00",
    "PlannedForRelease": "",
    "ReleaseVisibleToPublic": false,
    "Priority": {
      "Name": "Unassigned",
      "Severity": 0,
      "Id": 0
    },
    "ProjectName": "npoi",
    "ReportedDate": "2013-08-07T06:37:26.72-07:00",
    "Status": {
      "Name": "Proposed",
      "Id": 1
    },
    "ReasonClosed": {
      "Name": "Unassigned"
    },
    "Summary": "NPOI.Examples.2010.sln is a 2012 solution",
    "Type": {
      "Name": "Unassigned",
      "Id": 5
    },
    "VoteCount": 1,
    "Id": 11997
  },
  "FileAttachments": [],
  "Comments": [
    {
      "Message": "Read this\nhttp://stackoverflow.com/questions/15405108/visual-studio-2012-project-wont-open-in-2010",
      "PostedDate": "2014-04-12T14:47:36.367-07:00",
      "Id": -2147483648
    }
  ]
}