{
  "WorkItem": {
    "AffectedComponent": {
      "Name": "",
      "DisplayName": ""
    },
    "ClosedComment": "NPOI 1.2.4 fixed the issue",
    "ClosedDate": "2011-12-11T15:19:49.353-08:00",
    "CommentCount": 0,
    "Custom": null,
    "Description": "HSSFDataValidation in poi has getter method for regions and constraint.\n-> getConstraint() / getRegions()\n    http://poi.apache.org/apidocs/org/apache/poi/hssf/usermodel/HSSFDataValidation.html\n \nBut HSSFDataValidation in NPOI does not have these method.\nBecause of this , I can't refer existing data validation defenition.\n \nPlease add above two method to HSSFDataValidation.",
    "LastUpdatedDate": "2013-05-16T05:27:53.33-07:00",
    "PlannedForRelease": "",
    "ReleaseVisibleToPublic": false,
    "Priority": {
      "Name": "Low",
      "Severity": 50,
      "Id": 1
    },
    "ProjectName": "npoi",
    "ReportedDate": "2011-08-26T03:36:17.56-07:00",
    "Status": {
      "Name": "Closed",
      "Id": 4
    },
    "ReasonClosed": {
      "Name": "Unassigned"
    },
    "Summary": "Missing Method in HSSFDataValidation",
    "Type": {
      "Name": "Issue",
      "Id": 3
    },
    "VoteCount": 2,
    "Id": 9424
  },
  "FileAttachments": [],
  "Comments": [
    {
      "Message": "this issue will be fixed in NPOI 1.2.4 final release",
      "PostedDate": "2011-09-04T08:21:43.52-07:00",
      "Id": -2147483648
    },
    {
      "Message": "Thank you for reply. I'm waiting 1.2.4 release.\r\n\r\nAnd I would like to contribute NPOI project. My Project team is using NPOI heavily, So I want to contribute , improve NPOI more .\r\n\r\nPlease let me know what I can help.\r\n\r\n\r\n",
      "PostedDate": "2011-09-06T22:06:20.867-07:00",
      "Id": -2147483648
    },
    {
      "Message": "",
      "PostedDate": "2011-12-11T15:19:49.353-08:00",
      "Id": -2147483648
    },
    {
      "Message": "",
      "PostedDate": "2013-02-21T18:19:53.507-08:00",
      "Id": -2147483648
    },
    {
      "Message": "",
      "PostedDate": "2013-05-16T05:27:53.33-07:00",
      "Id": -2147483648
    }
  ]
}