{
  "WorkItem": {
    "AffectedComponent": {
      "Name": "",
      "DisplayName": ""
    },
    "ClosedComment": "",
    "ClosedDate": null,
    "CommentCount": 0,
    "Custom": null,
    "Description": "When I'm trying to use HSSFOptimiser.OptimiseCellStyles(wb); I get this exception.\nThere's the same bug in POI https://bz.apache.org/bugzilla/show_bug.cgi?id=54443",
    "LastUpdatedDate": "2015-06-18T11:40:07.047-07:00",
    "PlannedForRelease": "",
    "ReleaseVisibleToPublic": false,
    "Priority": {
      "Name": "Unassigned",
      "Severity": 0,
      "Id": 0
    },
    "ProjectName": "npoi",
    "ReportedDate": "2015-05-18T04:21:06.377-07:00",
    "Status": {
      "Name": "Proposed",
      "Id": 1
    },
    "ReasonClosed": {
      "Name": "Unassigned"
    },
    "Summary": "Could not convert type \"NPOI.HSSF.Record.StyleRecord\" to type \"NPOI.HSSF.Record.ExtendedFormatRecord\"",
    "Type": {
      "Name": "Unassigned",
      "Id": 5
    },
    "VoteCount": 1,
    "Id": 13592
  },
  "FileAttachments": [],
  "Comments": [
    {
      "Message": "A ported solution from the link provided in the question:\r\n\r\n        /// <summary>\n        /// Goes through the Wokrbook, optimising the cell styles\n        /// by removing duplicate ones.\n        /// For best results, optimise the fonts via a call to\n        /// OptimiseFonts(HSSFWorkbook) first\n        /// </summary>\n        /// <param name=\"workbook\">The workbook in which to optimise the cell styles</param>\n        public static void OptimiseCellStyles(HSSFWorkbook workbook)\n        {\n            // Where each style has ended up, and if we need to\n            //  delete the record for it. Start off with no change\n            var newPos = new short[workbook.Workbook.NumExFormats];\n            var isUsed = new bool[newPos.Length];\n            var zapRecords = new bool[newPos.Length];\n            for (var i = 0; i < newPos.Length; i++)\n            {\n                isUsed[i] = false;\n                newPos[i] = (short)i;\n                zapRecords[i] = false;\n            }\r\n\r\n            // Get each style record, so we can do deletes\n            //  without Getting confused\n            var xfrs = new ExtendedFormatRecord[newPos.Length];\n            for (var i = 0; i < newPos.Length; i++)\n            {\n                xfrs[i] = workbook.Workbook.GetExFormatAt(i);\n            }\r\n\r\n            // Loop over each style, seeing if it is the same\n            //  as an earlier one. If it is, point users of the\n            //  later duplicate copy to the earlier one, and \n            //  mark the later one as needing deleting\n            // Only work on user added ones, which come after 20\n            for (var i = 21; i < newPos.Length; i++)\n            {\n                // Check this one for being a duplicate\n                //  of an earlier one\n                var earlierDuplicate = -1;\n                for (var j = 0; j < i && earlierDuplicate == -1; j++)\n                {\n                    var xfCheck = workbook.Workbook.GetExFormatAt(j);\n                    if (xfCheck.Equals(xfrs[i]))\n                    {\n                        earlierDuplicate = j;\n                    }\n                }\r\n\r\n                // If we got a duplicate, mark it as such\n                if (earlierDuplicate != -1)\n                {\n                    newPos[i] = (short)earlierDuplicate;\n                    zapRecords[i] = true;\n                }\n            }\r\n\r\n            // Loop over all the cells in the file, and identify any user defined\n\t\t    // styles aren't actually being used (don't touch built-in ones)\n            for(var sheetNum=0; sheetNum < workbook.NumberOfSheets; sheetNum++) {\n                var s = workbook.GetSheetAt(sheetNum);\n                foreach (IRow row in s)\n                {\n                    foreach (var cellI in row)\n                    {\n                        var cell = (HSSFCell)cellI;\n                        var oldXf = cell.CellValueRecord.XFIndex;\r\n\r\n                        if (isUsed[oldXf] == false)\n                        {\n                            isUsed[newPos[oldXf]] = true;\n                        }\n                    }\n                }\n            }\r\n\r\n            // Mark any that aren't used as needing zapping\n            for (var i = 21; i < isUsed.Length; i++)\n            {\n                if (isUsed[i])\n                {\n                    continue;\n                }\n                if (zapRecords[i])\n                {\n                    continue;\n                }\n                zapRecords[i] = true;\n                newPos[i] = 0;\n            }\r\n\r\n\n            // Update the new positions based on\n            //  deletes that have occurred between\n            //  the start and them\n            // Only work on user added ones, which come after 20\n            for (var i = 21; i < newPos.Length; i++)\n            {\n                // Find the number deleted to that\n                //  point, and adjust\n                var preDeletePos = newPos[i];\n                var newPosition = preDeletePos;\n                for (var j = 0; j < preDeletePos; j++)\n                {\n                    if (zapRecords[j]) newPosition--;\n                }\r\n\r\n                // Update the new position\n                newPos[i] = newPosition;\n            }\r\n\r\n            // Zap the un-needed user style records\n            // removing by index, because removing by object may delete\n            // styles we did not intend to (the ones that _were_ duplicated and not the duplicates)\n            var max = newPos.Length;\n            var removed = 0; // to adjust index after deletion\n            for (var i = 21; i < max; i++)\n            {\n                if (!zapRecords[i + removed])\n                {\n                    continue;\n                }\n                workbook.Workbook.RemoveExFormatRecord(i);\n                i--;\n                max--;\n                removed++;\n            }\r\n\r\n            // Finally, update the cells to point at\n            //  their new extended format records\n            for (var sheetNum = 0; sheetNum < workbook.NumberOfSheets; sheetNum++)\n            {\n                var s = (HSSFSheet)workbook.GetSheetAt(sheetNum);\r\n\r\n                foreach (IRow row in s)\n                {\n                    foreach (ICell cell in row)\n                    {\n                        var oldXf = ((HSSFCell)cell).CellValueRecord.XFIndex;\n                        var newStyle = workbook.GetCellStyleAt(\n                            newPos[oldXf]\n                        );\n                        cell.CellStyle = (newStyle);\n                    }\n                }\n            }\n        }",
      "PostedDate": "2015-06-18T11:40:07.047-07:00",
      "Id": -2147483648
    }
  ]
}