{
  "WorkItem": {
    "AffectedComponent": {
      "Name": "",
      "DisplayName": ""
    },
    "ClosedComment": "",
    "ClosedDate": null,
    "CommentCount": 0,
    "Custom": null,
    "Description": "I load workbook from this template, but I have a bug then try to save\n            byte template[] = ....\n            MemoryStream msTemplate = new MemoryStream(template);\n            HSSFWorkbook workbook = new HSSFWorkbook(msTemplate);\n            FileStream msResult = new FileStream(@\"c:\\123.xls\", FileMode.Create);\n            try\n            {\n                workbook.Write(msResult);\n            }\n            catch (Exception ex)\n            {\n                System.Diagnostics.Debug.Write(ex);\n            }",
    "LastUpdatedDate": "2013-02-21T18:19:54.22-08:00",
    "PlannedForRelease": "",
    "ReleaseVisibleToPublic": false,
    "Priority": {
      "Name": "Low",
      "Severity": 50,
      "Id": 1
    },
    "ProjectName": "npoi",
    "ReportedDate": "2011-05-18T15:26:25.477-07:00",
    "Status": {
      "Name": "Proposed",
      "Id": 1
    },
    "ReasonClosed": {
      "Name": "Unassigned"
    },
    "Summary": "Not Save the workbook",
    "Type": {
      "Name": "Issue",
      "Id": 3
    },
    "VoteCount": 1,
    "Id": 8856
  },
  "FileAttachments": [
    {
      "FileId": 3349,
      "FileName": "template.xls",
      "DownloadUrl": ".\\3349"
    }
  ],
  "Comments": [
    {
      "Message": "this error \"Bad padding calculation (38, 42)\" created",
      "PostedDate": "2011-05-18T15:30:34.123-07:00",
      "Id": -2147483648
    },
    {
      "Message": "which version of NPOI are you using? Please try the latest version 1.2.4",
      "PostedDate": "2011-06-28T10:48:44.997-07:00",
      "Id": -2147483648
    },
    {
      "Message": "I used  version 1.2.3\r\nThanks, I'll try",
      "PostedDate": "2011-06-28T11:18:52.397-07:00",
      "Id": -2147483648
    },
    {
      "Message": "I try latest version 1.2.4. My code works fine!\r\nBut result of saved file is corrupt. I can't to read result file c:\\123.xls. File broken.",
      "PostedDate": "2011-07-13T04:37:51.877-07:00",
      "Id": -2147483648
    },
    {
      "Message": "",
      "PostedDate": "2013-02-21T18:19:54.22-08:00",
      "Id": -2147483648
    }
  ]
}