{
  "WorkItem": {
    "AffectedComponent": {
      "Name": "",
      "DisplayName": ""
    },
    "ClosedComment": "",
    "ClosedDate": null,
    "CommentCount": 0,
    "Custom": null,
    "Description": "I am using NPOI to work with .xls files that are password protected.\nAccording to the GitHub page (https://github.com/tonyqus/npoi/tree/master/main/POIFS), Crypt exists along with all of its files.\nBUT on NuGet, where I installed the NPOI package, Crypt does not exist in the NPOI.POIFS namespace.\n(NuGet page: https://www.nuget.org/packages/NPOI/)\n\nIs this a mistake? And if so, is it possible to have it added as soon as possible?\nThank you.",
    "LastUpdatedDate": "2014-12-14T01:10:10.07-08:00",
    "PlannedForRelease": "",
    "ReleaseVisibleToPublic": false,
    "Priority": {
      "Name": "Unassigned",
      "Severity": 0,
      "Id": 0
    },
    "ProjectName": "npoi",
    "ReportedDate": "2014-08-18T10:05:05.49-07:00",
    "Status": {
      "Name": "Proposed",
      "Id": 1
    },
    "ReasonClosed": {
      "Name": "Unassigned"
    },
    "Summary": "NPOI.POIFS.Crypt doesn't exist in NuGet package",
    "Type": {
      "Name": "Unassigned",
      "Id": 5
    },
    "VoteCount": 1,
    "Id": 13206
  },
  "FileAttachments": [],
  "Comments": [
    {
      "Message": "I don't think POIFS.Crypt is working properly even after the code is included. We are planning to release this feature in the next version of NPOI (maybe in 2.1.4 or 2.1.5)",
      "PostedDate": "2014-12-14T01:10:10.07-08:00",
      "Id": -2147483648
    }
  ]
}