{
  "WorkItem": {
    "AffectedComponent": {
      "Name": "",
      "DisplayName": ""
    },
    "ClosedComment": "",
    "ClosedDate": null,
    "CommentCount": 0,
    "Custom": null,
    "Description": "Im' using the version 2.3.1 and when I call the HSSFFormulaEvaluator.EvaluateAllFormulaCells I get error:\n\nUnexpected eval class (MissingArgEval)    in NPOI.HSSF.UserModel.HSSFFormulaEvaluator.EvaluateFormulaCellValue(ICell cell)\n   in NPOI.HSSF.UserModel.HSSFFormulaEvaluator.EvaluateFormulaCell(ICell cell)\n   in NPOI.HSSF.UserModel.HSSFFormulaEvaluator.EvaluateAllFormulaCells(IWorkbook wb, IFormulaEvaluator evaluator)\n   in NPOI.HSSF.UserModel.HSSFFormulaEvaluator.EvaluateAllFormulaCells(HSSFWorkbook wb)\n\nI don't understand which cell cause the Error.\n\nIt's possibile the download the source code of the last version of NOI or know the cell that cause the error?\n\nthanks",
    "LastUpdatedDate": "2016-10-07T02:06:51.047-07:00",
    "PlannedForRelease": "",
    "ReleaseVisibleToPublic": false,
    "Priority": {
      "Name": "Unassigned",
      "Severity": 0,
      "Id": 0
    },
    "ProjectName": "npoi",
    "ReportedDate": "2016-10-07T02:06:51.047-07:00",
    "Status": {
      "Name": "Proposed",
      "Id": 1
    },
    "ReasonClosed": {
      "Name": "Unassigned"
    },
    "Summary": "EvaluateAllFormulaCells error",
    "Type": {
      "Name": "Unassigned",
      "Id": 5
    },
    "VoteCount": 1,
    "Id": 13992
  },
  "FileAttachments": [],
  "Comments": []
}