{
  "WorkItem": {
    "AffectedComponent": {
      "Name": "",
      "DisplayName": ""
    },
    "ClosedComment": "",
    "ClosedDate": null,
    "CommentCount": 0,
    "Custom": null,
    "Description": "I have a situation where I have to open several XLSM files. Only about 50% of them work with the NPOI 2.0.\n \nI get a failure similar to the following: The 'br' start tag on line 19 position 12 does not match the end tag of 'font'. Line 20, position 9.\n \nThe relevent stack trace is as follows:\n \nSystem.Reflection.TargetInvocationException: Exception has been thrown by the target of an invocation. ---> System.Xml.XmlException: The 'br' start tag on line 19 position 12 does not match the end tag of 'font'. Line 20, position 9.\n   at System.Xml.XmlTextReaderImpl.Throw(Exception e)\n   at System.Xml.XmlTextReaderImpl.Throw(String res, String[] args)\n   at System.Xml.XmlTextReaderImpl.ThrowTagMismatch(NodeData startTag)\n   at System.Xml.XmlTextReaderImpl.ParseEndElement()\n   at System.Xml.XmlTextReaderImpl.ParseElementContent()\n   at System.Xml.XmlTextReaderImpl.Read()\n   at System.Xml.XmlLoader.LoadNode(Boolean skipOverWhitespace)\n   at System.Xml.XmlLoader.LoadDocSequence(XmlDocument parentDoc)\n   at System.Xml.XmlLoader.Load(XmlDocument doc, XmlReader reader, Boolean preserveWhitespace)\n   at System.Xml.XmlDocument.Load(XmlReader reader)\n   at System.Xml.XmlDocument.LoadXml(String xml)\n   at NPOI.XSSF.UserModel.XSSFVMLDrawing.Read(Stream is1)\n   at NPOI.XSSF.UserModel.XSSFVMLDrawing..ctor(PackagePart part, PackageRelationship rel)\n   --- End of inner exception stack trace ---\n   at System.RuntimeMethodHandle._InvokeConstructor(IRuntimeMethodInfo method, Object[] args, SignatureStruct& signature, RuntimeType declaringType)\n   at System.RuntimeMethodHandle.InvokeConstructor(IRuntimeMethodInfo method, Object[] args, SignatureStruct signature, RuntimeType declaringType)\n   at System.Reflection.RuntimeConstructorInfo.Invoke(BindingFlags invokeAttr, Binder binder, Object[] parameters, CultureInfo culture)\n   at System.Reflection.ConstructorInfo.Invoke(Object[] parameters)\n   at NPOI.XSSF.UserModel.XSSFFactory.CreateDocumentPart(POIXMLDocumentPart parent, PackageRelationship rel, PackagePart part)\n   --- End of inner exception stack trace ---\n   at NPOI.XSSF.UserModel.XSSFFactory.CreateDocumentPart(POIXMLDocumentPart parent, PackageRelationship rel, PackagePart part)\n   at NPOI.POIXMLDocumentPart.Read(POIXMLFactory factory, Dictionary`2 context)\n   at NPOI.POIXMLDocumentPart.Read(POIXMLFactory factory, Dictionary`2 context)\n   at NPOI.POIXMLDocument.Load(POIXMLFactory factory)\n   at NPOI.XSSF.UserModel.XSSFWorkbook..ctor(Stream is1)\n \nI found that the EPPlus Excel library is able to read all the files without issue. I prefer NPOI but have to have a working solution by the next 2 weeks. Hope there is an easy fix for the Alpha release.\n \nFor proprietary reasons I cannot attach the XLSM file. Thanks!",
    "LastUpdatedDate": "2013-06-14T00:35:28.71-07:00",
    "PlannedForRelease": "",
    "ReleaseVisibleToPublic": false,
    "Priority": {
      "Name": "Low",
      "Severity": 50,
      "Id": 1
    },
    "ProjectName": "npoi",
    "ReportedDate": "2012-08-15T16:46:56.44-07:00",
    "Status": {
      "Name": "Resolved",
      "Id": 7
    },
    "ReasonClosed": {
      "Name": "Unassigned"
    },
    "Summary": "Issue with 2.0 Beta: Get an non-Closing Element error",
    "Type": {
      "Name": "Issue",
      "Id": 3
    },
    "VoteCount": 1,
    "Id": 11085
  },
  "FileAttachments": [],
  "Comments": [
    {
      "Message": "Thank you for you feedback. The issue looks to be extra <br> tag in your xml file (included in the xlsm). I'll try to reproduce it by myself.",
      "PostedDate": "2012-08-17T18:43:26.903-07:00",
      "Id": -2147483648
    },
    {
      "Message": "",
      "PostedDate": "2012-08-19T16:28:23-07:00",
      "Id": -2147483648
    },
    {
      "Message": "",
      "PostedDate": "2013-02-21T18:19:49.16-08:00",
      "Id": -2147483648
    },
    {
      "Message": "",
      "PostedDate": "2013-05-16T05:27:51.62-07:00",
      "Id": -2147483648
    },
    {
      "Message": "",
      "PostedDate": "2013-05-16T05:27:51.74-07:00",
      "Id": -2147483648
    },
    {
      "Message": "",
      "PostedDate": "2013-06-14T00:35:28.71-07:00",
      "Id": -2147483648
    }
  ]
}