{
  "WorkItem": {
    "AffectedComponent": {
      "Name": "",
      "DisplayName": ""
    },
    "ClosedComment": "issue solved",
    "ClosedDate": "2011-04-01T08:28:59.37-07:00",
    "CommentCount": 0,
    "Custom": null,
    "Description": "Since there is no documentation one can refer to, let me ask the author whether NPOI supports Excel files with macros?\n \nProbably I did something wrong, but each time I try to open such a file, fill it with data and save it via NPOI, the resulting file gets corrupted. Excel opens it but is unable to save. Once macros are eliminated, everything goes smooth. Could you please tell me where the problem is?\n \nThank you.",
    "LastUpdatedDate": "2013-12-21T18:10:41.593-08:00",
    "PlannedForRelease": "NPOI 1.2.5",
    "ReleaseVisibleToPublic": true,
    "Priority": {
      "Name": "High",
      "Severity": 150,
      "Id": 3
    },
    "ProjectName": "npoi",
    "ReportedDate": "2009-08-21T07:13:40.79-07:00",
    "Status": {
      "Name": "Closed",
      "Id": 4
    },
    "ReasonClosed": {
      "Name": "Unassigned"
    },
    "Summary": "NPOI doesn't work with a Excel template with macro",
    "Type": {
      "Name": "Issue",
      "Id": 3
    },
    "VoteCount": 8,
    "Id": 3804
  },
  "FileAttachments": [
    {
      "FileId": 1922,
      "FileName": "Callable RA CMS Spread Swap-SWIR0902270031A.xls",
      "DownloadUrl": ".\\1922"
    }
  ],
  "Comments": [
    {
      "Message": "The CodeName record (sid=442) is lost in the NPOI-generated xls file. I'm research how to read the file without losing the record in the template file.",
      "PostedDate": "2009-08-23T05:35:19.62-07:00",
      "Id": -2147483648
    },
    {
      "Message": "",
      "PostedDate": "2009-08-24T11:33:43.983-07:00",
      "Id": -2147483648
    },
    {
      "Message": "I'm experiencing this issue also. I'm looking forward to the fix (and thanks for the great library already, tonyqus!).",
      "PostedDate": "2009-08-24T11:41:01.02-07:00",
      "Id": -2147483648
    },
    {
      "Message": "the issue is more complex than what I previous think. Firstly the codename record is not lost in the re-written xls file. After searching the bug of POIFS, I found a similar POI bug 39234, http://mail-archives.apache.org/mod_mbox/poi-dev/200604.mbox/%3Cbug-39234-7501@http.issues.apache.org/bugzilla/%3E. As this post said, the POIFS in POI still exists similar bugs. \r\n\r\nAfter reviewing some documents, I found the root cause. Every substream (DocumentEntry) in VBA substream has a offset which is saved in MODULEOFFSET record of VBA stream. Since this offset refers to the previous offset in the original xls and POIFS write the document entries \"randomly\", the offset of these substream are changed. But the value in MODULEOFFSET record is not changed. which makes these VBA module and program unavailable in Office Excel 2003/2007. The only way to fix this bug is to teach NPOI identify the records in VBA stream and re-calculate the offset for MODULEOFFSET record.",
      "PostedDate": "2009-08-29T08:34:29.463-07:00",
      "Id": -2147483648
    },
    {
      "Message": "Hi Tony, Good work on NPOI. \r\n\r\nAnd I have the same issue that read Excel file with Macro inside. The error message is \"DimensionsRecord was not found\".\r\n\r\nIs it possible to  fix this issue in your next release?\r\n\r\nMany many thanks.",
      "PostedDate": "2009-08-30T10:35:44.427-07:00",
      "Id": -2147483648
    },
    {
      "Message": "There is a solution in POI Bug 39234 \r\n\r\nhttp://mail-archives.apache.org/mod_mbox/poi-dev/200604.mbox/%3Cbug-39234-7501@http.issues.apache.org/bugzilla/%3E\r\n\r\nwhere they changed the Compare Method within DirectoryProperty.cs (Project POFS) like that:\r\n\r\n            public int Compare(Object o1, Object o2)\r\n            {\r\n                //fix\r\n                String VBA_PROJECT = \"_VBA_PROJECT\";\r\n\r\n\r\n                String name1  = (( Property ) o1).Name;\r\n                String name2  = (( Property ) o2).Name;\r\n\r\n                int num = name1.Length - name2.Length;\r\n\r\n                if (num == 0)\r\n                {\r\n                    if (name1.CompareTo(VBA_PROJECT) == 0)\r\n                        num = 1;\r\n                    else if (name2.CompareTo(VBA_PROJECT) == 0)\r\n                        num = -1;\r\n                    else\r\n                        num = String.Compare(name1, name2, true);\r\n//                    num = name1.CompareTo(name2);\r\n                }\r\n\r\nIs this enough?",
      "PostedDate": "2009-11-12T03:24:41.513-08:00",
      "Id": -2147483648
    },
    {
      "Message": "",
      "PostedDate": "2009-11-12T03:26:11.057-08:00",
      "Id": -2147483648
    },
    {
      "Message": "Thanks, ManuelCavallaro, but this is not enough.  The issue cannot be solved simply by change the sequence of the DirectoryProperty.",
      "PostedDate": "2009-12-04T16:54:29.437-08:00",
      "Id": -2147483648
    },
    {
      "Message": "After some research, there used to be a trick in POI while initializing the HSSFWorkbook. \r\nHSSFWorkbook hssfworkbook = new HSSFWorkbook(file,true); \r\n\r\nThe second parameter is named preserveNode. In other words, this parameter is used to keep the sequence of substream including macro substream. I did a simple test this morning. it works great! \r\nI'll appreciate your feedback if you can use this trick to solve your issues while reading a xls template with macro.",
      "PostedDate": "2009-12-04T17:36:52.84-08:00",
      "Id": -2147483648
    },
    {
      "Message": "Hi; I just updated to the 1.2.2 alpha version which looked from the release notes like it may have addressed the issue.  However, I have a simple spreadsheet that I can just put one button on that calls one sub (one that does nothing), and if I load it into a worksheet object and then save it back out, the file is at least somewhat corrupted as when loading into Excel I get a \"File Not Found\" error.  At some point usually after this Excel crashes entirely and has to be restarted.\r\n\r\nThanks for the wonderful tool, it has made my life very easy when dealing with .xls files. -- Michelle",
      "PostedDate": "2009-12-09T08:43:22.423-08:00",
      "Id": -2147483648
    },
    {
      "Message": "Just as a note; I am telling the workbook to preserve nodes but it doesn't seem to fix the problem.",
      "PostedDate": "2009-12-09T08:45:54.533-08:00",
      "Id": -2147483648
    },
    {
      "Message": "Please use\r\nHSSFWorkbook hssfworkbook = new HSSFWorkbook(file,true); \r\ninstead of \r\nHSSFWorkbook hssfworkbook = new HSSFWorkbook(file); \r\n\r\nLet me know if it works",
      "PostedDate": "2009-12-10T16:13:22.79-08:00",
      "Id": -2147483648
    },
    {
      "Message": "Hi,\r\ntoday i found the NPOI project, it was exactly what i was searching for. But now it seems that it doesn't work with makros inside the excel template.\r\nWhen i open the created file it takes 1-2 minutes (no problem) but when i want to save the file i get an error. Without any makros it works very well, but makros usage inside the template is a \"must have\" in our requirements...\r\n\r\nPlease use\r\nHSSFWorkbook hssfworkbook = new HSSFWorkbook(file,true);\r\ninstead of\r\nHSSFWorkbook hssfworkbook = new HSSFWorkbook(file); \r\n\r\nThat doesn't change anything in behaviour :-/\r\nIs there any other way to create excel files from templates with makros with NPOI?\r\n\r\nThanks for your work!\r\n\r\n",
      "PostedDate": "2009-12-11T02:44:03.193-08:00",
      "Id": -2147483648
    },
    {
      "Message": "",
      "PostedDate": "2009-12-15T02:49:43.187-08:00",
      "Id": -2147483648
    },
    {
      "Message": "Associated with changeset 37117.",
      "PostedDate": "2009-12-15T16:20:25.763-08:00",
      "Id": -2147483648
    },
    {
      "Message": "Hi, Good  work.\r\n\r\nwe checked the 1.2.2 version and i have to say GREAT, it is a real improvement. However, we still find some issues:\r\n\r\nDESCRIPTION\r\n\r\nwe have an excel template with 11 sheets, every sheet has some macros embedded, that gets called through buttons, then there is 1 input form and 10 modules each containing one or two functions.\r\n\r\ni open the template and save it with npoi, then reopen it with excel. open the vbeditor from within excel, where you find this treeview on the left side:\r\n\r\n- at the folder \"Microsoft Excel Objects\", all the sheets are listed, while all of them are named correctly and some of them can be opened and the embedded macro code is visible and correct, for most of them i get the error \"Not Found ...\"\r\n- at the folder for forms, i find my form, which is also correctly named, but when i try to open it i get the error \"Not Found ...\"\r\n- at the folder \"modules\" nearly all vba code modules are found, however one of them cannot be opened with error \"Not Found ...\"\r\n\r\n2. Detected issues\r\n\r\nWe tried a little bit and it seems that we found one issue, inside one of the vba for the sheets, there wasn't any code but only \r\n\"option explicit\" in the first row and afterwards everything empty. If we delete the \"option explicit\" and reopen after saving via npoi it the embedded macros in sheets and opening the input form worked!\r\n\r\nBut there was still that bug \"not found\" with one module, so it seems that the last changeset left some cases to fix.\r\n\r\n\r\n",
      "PostedDate": "2009-12-17T09:03:45.36-08:00",
      "Id": -2147483648
    },
    {
      "Message": "",
      "PostedDate": "2010-01-19T07:08:36.403-08:00",
      "Id": -2147483648
    },
    {
      "Message": "if you try to open and save an excel with macro/VBA embedded twice\r\nstill can get the error message : File Error: Data may lost.... ",
      "PostedDate": "2010-01-21T08:20:55.323-08:00",
      "Id": -2147483648
    },
    {
      "Message": "",
      "PostedDate": "2010-01-21T08:20:56.803-08:00",
      "Id": -2147483648
    },
    {
      "Message": "I tried version 1.2.2 and it works good.\r\nVersion 1.2.1 strips the vba code causing Excel to give the \"Can not find file\" error when I open the XLS.\r\n\r\nBut I'm experiencing another problem with version 1.2.2, where version 1.2.1 leaves the pivot tables in the sheet intact, version 1.2.2 crashes when I try to load the sheet with the following error:\r\n\r\nSource: \r\nHSSFWorkbook templateWorkbook = new HSSFWorkbook(fs, true);\r\n\r\nError:\r\nex\t{\"Unable to construct record instance: 256\"}\tSystem.Exception {NPOI.HSSF.Record.RecordFormatException}\r\n+\t\tInnerException\t{\"Expected to find a ContinueRecord in order to read remaining 65535 of 65535 chars\"}\tSystem.Exception {NPOI.HSSF.Record.RecordFormatException}\r\n+\tSource\t\"NPOI.HSSF\"\tstring\r\n+\tStackTrace\t\"   at NPOI.HSSF.Record.RecordFactory.CreateSingleRecord(RecordInputStream in1)\r\n\tat NPOI.HSSF.Record.RecordFactory.CreateRecords(Stream in1)\r\n\tat NPOI.HSSF.UserModel.HSSFWorkbook..ctor(DirectoryNode directory, POIFSFileSystem fs, Boolean preserveNodes)\r\n\tat NPOI.HSSF.UserModel.HSSFWorkbook..ctor(POIFSFileSystem fs, Boolean preserveNodes)\r\n\tat Dagrapportage.Dagrapportage.CreateXLS() in D:\\\\Stuff\\\\Project\\\\00.122.161\\\\Dagrapportage\\\\Dagrapportage\\\\Dagrapportage.cs:line 22\"\r\n\r\nI hope you can fix this in your next release.\r\nKind regards,\r\nSebastiaan",
      "PostedDate": "2010-02-22T02:05:44.357-08:00",
      "Id": -2147483648
    },
    {
      "Message": "Here is an updated Compare method from: https://issues.apache.org/bugzilla/show_bug.cgi?id=39234 that fixes this issue for me:\r\n\r\npublic int Compare(Object o1, Object o2)\r\n            {\r\n                //solution from https://issues.apache.org/bugzilla/show_bug.cgi?id=39234\r\n\r\n                String VBA_PROJECT = \"_VBA_PROJECT\";\r\n\r\n                String name1 = (( Property ) o1).Name;\r\n                String name2 = (( Property ) o2).Name;\r\n\r\n                int num = name1.Length - name2.Length;\r\n\r\n                if (num == 0)\r\n                {\r\n                    if (name1.CompareTo(VBA_PROJECT) == 0)\r\n                        num = 1;\r\n                    else if (name2.CompareTo(VBA_PROJECT) == 0)\r\n                        num = -1;\r\n                    else\r\n                    {\r\n                        //num = String.Compare(name1, name2, true);\r\n                        if (name1.StartsWith(\"__\") && name2.StartsWith(\"__\"))\r\n                        {\r\n                            // Betweeen __SRP_0 and __SRP_1 just sort as normal\r\n                            num = String.Compare(name1, name2, true);\r\n                        }\r\n                        else if (name1.StartsWith(\"__\"))\r\n                        {\r\n                            // If only name1 is __XXX then this will be placed after name2\r\n                            num = 1;\r\n                        }\r\n                        else if (name2.StartsWith(\"__\"))\r\n                        {\r\n                            // If only name2 is __XXX then this will be placed after name1\r\n                            num = -1;\r\n                        }\r\n                        else\r\n                            // result = name1.compareTo(name2);\r\n                            // The default case is to sort names ignoring case\r\n                            num = String.Compare(name1, name2, true);\r\n\r\n                    }\r\n                        \r\n                }\r\n",
      "PostedDate": "2010-04-22T13:24:31.473-07:00",
      "Id": -2147483648
    },
    {
      "Message": "Here is the code from https://issues.apache.org/bugzilla/show_bug.cgi?id=39234 that works for me:\r\n\r\npublic int Compare(Object o1, Object o2)\r\n{\r\n    //solution from https://issues.apache.org/bugzilla/show_bug.cgi?id=39234\r\n\r\n    String VBA_PROJECT = \"_VBA_PROJECT\";\r\n\r\n    String name1 = (( Property ) o1).Name;\r\n    String name2 = (( Property ) o2).Name;\r\n\r\n    int num = name1.Length - name2.Length;\r\n\r\n    if (num == 0)\r\n    {\r\n        if (name1.CompareTo(VBA_PROJECT) == 0)\r\n            num = 1;\r\n        else if (name2.CompareTo(VBA_PROJECT) == 0)\r\n            num = -1;\r\n        else\r\n        {\r\n            //num = String.Compare(name1, name2, true);\r\n            if (name1.StartsWith(\"__\") && name2.StartsWith(\"__\"))\r\n            {\r\n                // Betweeen __SRP_0 and __SRP_1 just sort as normal\r\n                num = String.Compare(name1, name2, true);\r\n            }\r\n            else if (name1.StartsWith(\"__\"))\r\n            {\r\n                // If only name1 is __XXX then this will be placed after name2\r\n                num = 1;\r\n            }\r\n            else if (name2.StartsWith(\"__\"))\r\n            {\r\n                // If only name2 is __XXX then this will be placed after name1\r\n                num = -1;\r\n            }\r\n            else\r\n                // result = name1.compareTo(name2);\r\n                // The default case is to sort names ignoring case\r\n                num = String.Compare(name1, name2, true);\r\n\r\n        }\r\n            \r\n    }\r\n    //String name1  = (( Property ) o1).Name;\r\n    //String name2  = (( Property ) o2).Name;\r\n\r\n    //int num = name1.Length - name2.Length;\r\n    //if (num == 0)\r\n    //{\r\n    //    num = name1.CompareTo(name2);\r\n    //}\r\n    return num;\r\n}",
      "PostedDate": "2010-04-22T13:27:07.54-07:00",
      "Id": -2147483648
    },
    {
      "Message": "Greg, that works for me (tested with 1.2.2).",
      "PostedDate": "2010-04-23T05:03:06.63-07:00",
      "Id": -2147483648
    },
    {
      "Message": "We had a further issue when calling HSSFSheet.Clone(int) with an Excel containing macros in HSSF. \r\nException message was \"CodeNameRecord does not implement method Clone()\"\r\n\r\nWe fixed this by adding a Clone Method and an additional Constructor, however i don't know if this is correct or a good way solving it:\r\n        \r\n        public override object Clone()\r\n        {\r\n            return new CodeNameRecord(str);\r\n        }\r\n\r\n        protected CodeNameRecord(UnicodeString unicodeString)\r\n        {\r\n            str = (UnicodeString)unicodeString.Clone();\r\n        }\r\n",
      "PostedDate": "2010-08-05T09:22:30.833-07:00",
      "Id": -2147483648
    },
    {
      "Message": "",
      "PostedDate": "2010-10-04T14:47:48.583-07:00",
      "Id": -2147483648
    },
    {
      "Message": "",
      "PostedDate": "2010-10-08T14:08:20.22-07:00",
      "Id": -2147483648
    },
    {
      "Message": "",
      "PostedDate": "2010-12-20T15:12:20.993-08:00",
      "Id": -2147483648
    },
    {
      "Message": "",
      "PostedDate": "2011-03-16T02:45:45.31-07:00",
      "Id": -2147483648
    },
    {
      "Message": "Got the issue using 1.2.3 version of NPOI.\r\nused NPOI.HSSF.UserModel.HSSFWorkbook(stream, True) to instanciate the workbook.",
      "PostedDate": "2011-03-16T02:47:58.02-07:00",
      "Id": -2147483648
    },
    {
      "Message": "This bug is still present in NPOI 1.2.3.\r\n\r\nThe \"patched\" version of the method (see 1.2.3 sources) still fails:\r\n\r\n            public int Compare(Object o1, Object o2) {\r\n                //solution from http://mail-archives.apache.org/mod_mbox/poi-dev/200604.mbox/%3Cbug-39234-7501@http.issues.apache.org/bugzilla/%3E\r\n\r\n                String VBA_PROJECT = \"_VBA_PROJECT\";\r\n\r\n                String name1 = ((Property)o1).Name;\r\n                String name2 = ((Property)o2).Name;\r\n\r\n                int num = name1.Length - name2.Length;\r\n\r\n                if (num == 0) {\r\n                    if (name1.CompareTo(VBA_PROJECT) == 0)\r\n                        num = 1;\r\n                    else if (name2.CompareTo(VBA_PROJECT) == 0)\r\n                        num = -1;\r\n                    else\r\n                        num = String.Compare(name1, name2, true);\r\n                }\r\n                //String name1  = (( Property ) o1).Name;\r\n                //String name2  = (( Property ) o2).Name;\r\n\r\n                //int num = name1.Length - name2.Length;\r\n                //if (num == 0)\r\n                //{\r\n                //    num = name1.CompareTo(name2);\r\n                //}\r\n                return num;\r\n            }\r\n\r\nWith GregArcara's patch now it works:\r\n\r\n            public int Compare(Object o1, Object o2) {\r\n                //solution from https://issues.apache.org/bugzilla/show_bug.cgi?id=39234\r\n\r\n                String VBA_PROJECT = \"_VBA_PROJECT\";\r\n\r\n                String name1 = ((Property)o1).Name;\r\n                String name2 = ((Property)o2).Name;\r\n\r\n                int num = name1.Length - name2.Length;\r\n\r\n                if (num == 0) {\r\n                    if (name1.CompareTo(VBA_PROJECT) == 0)\r\n                        num = 1;\r\n                    else if (name2.CompareTo(VBA_PROJECT) == 0)\r\n                        num = -1;\r\n                    else {\r\n                        //num = String.Compare(name1, name2, true);\r\n                        if (name1.StartsWith(\"__\") && name2.StartsWith(\"__\")) {\r\n                            // Betweeen __SRP_0 and __SRP_1 just sort as normal\r\n                            num = String.Compare(name1, name2, true);\r\n                        } else if (name1.StartsWith(\"__\")) {\r\n                            // If only name1 is __XXX then this will be placed after name2\r\n                            num = 1;\r\n                        } else if (name2.StartsWith(\"__\")) {\r\n                            // If only name2 is __XXX then this will be placed after name1\r\n                            num = -1;\r\n                        } else\r\n                            // result = name1.compareTo(name2);\r\n                            // The default case is to sort names ignoring case\r\n                            num = String.Compare(name1, name2, true);\r\n\r\n                    }\r\n\r\n                }\r\n                return num;\r\n            }\r\n\r\nFix it in next release! \r\nThank you.",
      "PostedDate": "2011-03-23T04:42:03.49-07:00",
      "Id": -2147483648
    },
    {
      "Message": "Thanks, GregArcara. The issue is finally solved by the community efforts! ：）",
      "PostedDate": "2011-04-01T08:28:40.2-07:00",
      "Id": -2147483648
    },
    {
      "Message": "",
      "PostedDate": "2011-04-01T08:28:59.37-07:00",
      "Id": -2147483648
    },
    {
      "Message": "",
      "PostedDate": "2013-02-21T18:20:09.58-08:00",
      "Id": -2147483648
    },
    {
      "Message": "Hiii guy, i'm a newbie in here, please give me a guidence, i'm using NPOI  2.0.1.0\nand  i got problem when read the excel :\n public static ArrayList ReaderExcel(string path, string SheetName, int rowStart, int columnStart, int columnEnd)\n        {\n            ArrayList array = new ArrayList();\n            using (StreamReader input = new StreamReader(path))\n            {\n                POIFSFileSystem p = new POIFSFileSystem(input.BaseStream);\n                HSSFWorkbook wb =  new HSSFWorkbook(p,true);\n                IWorkbook workbook = wb;\r\n\r\n# it give me this error :\nUnable to construct record instance\r\n\r\nat NPOI.HSSF.Record.RecordInputStream.CheckRecordPosition(Int32 requiredByteCount)\nat NPOI.HSSF.Record.RecordInputStream.ReadByte()\nat NPOI.HSSF.Record.LabelRecord..ctor(RecordInputStream in1)\r\n\r\n# the error was at line : HSSFWorkbook wb =  new HSSFWorkbook(p,true);\r\n\r\n\n",
      "PostedDate": "2013-04-09T01:02:11.657-07:00",
      "Id": -2147483648
    },
    {
      "Message": "this is the complete stack trace :\r\n\r\n  at NPOI.HSSF.Record.RecordFactory.ReflectionConstructorRecordCreator.Create(RecordInputStream in1)\n   at NPOI.HSSF.Record.RecordFactory.CreateSingleRecord(RecordInputStream in1)\n   at NPOI.HSSF.Record.RecordFactoryInputStream.ReadNextRecord()\n   at NPOI.HSSF.Record.RecordFactoryInputStream.NextRecord()\n   at NPOI.HSSF.Record.RecordFactory.CreateRecords(Stream in1)\n   at NPOI.HSSF.UserModel.HSSFWorkbook..ctor(DirectoryNode directory, Boolean preserveNodes)\n   at NPOI.HSSF.UserModel.HSSFWorkbook..ctor(DirectoryNode directory, POIFSFileSystem fs, Boolean preserveNodes)\n   at NPOI.HSSF.UserModel.HSSFWorkbook..ctor(POIFSFileSystem fs, Boolean preserveNodes)\r\n\r\nreally appreciate if someone can give enlightment about my case...",
      "PostedDate": "2013-04-09T01:09:03.017-07:00",
      "Id": -2147483648
    },
    {
      "Message": "",
      "PostedDate": "2013-05-16T05:27:58.797-07:00",
      "Id": -2147483648
    },
    {
      "Message": "can the current version of NPOI now support VBA programming ?",
      "PostedDate": "2013-06-04T02:31:55.687-07:00",
      "Id": -2147483648
    },
    {
      "Message": "__Can someone post the compiled .DLL files for the bug fix?__",
      "PostedDate": "2013-12-21T18:09:27.827-08:00",
      "Id": -2147483648
    },
    {
      "Message": "Can somone post a compiled bug fix?",
      "PostedDate": "2013-12-21T18:10:41.593-08:00",
      "Id": -2147483648
    }
  ]
}