{
  "WorkItem": {
    "AffectedComponent": {
      "Name": "",
      "DisplayName": ""
    },
    "ClosedComment": "",
    "ClosedDate": null,
    "CommentCount": 0,
    "Custom": null,
    "Description": "Excel default weekday start is Sunday=1 but NPOI uses Date.DayOfWeek() which follows ISO with Monday=1.\nThe value displayed in excel hence is not the same as the value given by NPOI __once the workbook is evaluated__ by NPOI.\n\nyou can reproduce using a workbook with a single value in first cell: '=WEEKDAY(TODAY())' and the following code\n\n```\n        Dim wb As IWorkbook = WorkbookFactory.Create(originalfilepath)\n        Dim sh As ISheet = wb.GetSheetAt(0)\n        Dim c As ICell = sh.GetRow(0).GetCell(0)\n        Console.WriteLine(c.NumericCellValue)\n        wb.GetCreationHelper().CreateFormulaEvaluator().EvaluateAll()\n        Console.WriteLine(c.NumericCellValue)\n        Console.ReadLine()\n```\n\nOutput (29/06/2017):\n5\n4",
    "LastUpdatedDate": "2017-06-29T04:07:18.423-07:00",
    "PlannedForRelease": "",
    "ReleaseVisibleToPublic": false,
    "Priority": {
      "Name": "Unassigned",
      "Severity": 0,
      "Id": 0
    },
    "ProjectName": "npoi",
    "ReportedDate": "2017-06-29T04:07:18.423-07:00",
    "Status": {
      "Name": "Proposed",
      "Id": 1
    },
    "ReasonClosed": {
      "Name": "Unassigned"
    },
    "Summary": "WeekDay Function Uses Monday=1 Instead of Sunday=1",
    "Type": {
      "Name": "Unassigned",
      "Id": 5
    },
    "VoteCount": 1,
    "Id": 14114
  },
  "FileAttachments": [],
  "Comments": []
}