{
  "WorkItem": {
    "AffectedComponent": {
      "Name": "XSSF",
      "DisplayName": "XSSF"
    },
    "ClosedComment": "",
    "ClosedDate": null,
    "CommentCount": 0,
    "Custom": null,
    "Description": "If i am creating a XSFFWorkbook using \"de-DE\" culture, when i open the excel file it says that the excel file is corrupted.\n\nWhat is there to do with this, because i need to use the resources for the german culture.\n\nthank you.",
    "LastUpdatedDate": "2014-09-01T00:19:02.143-07:00",
    "PlannedForRelease": "NPOI 2.1.1",
    "ReleaseVisibleToPublic": true,
    "Priority": {
      "Name": "Medium",
      "Severity": 100,
      "Id": 2
    },
    "ProjectName": "npoi",
    "ReportedDate": "2014-02-27T04:14:03.443-08:00",
    "Status": {
      "Name": "Proposed",
      "Id": 1
    },
    "ReasonClosed": {
      "Name": "Unassigned"
    },
    "Summary": "XSSFWorbook not working on culture \"de-DE\"",
    "Type": {
      "Name": "Issue",
      "Id": 3
    },
    "VoteCount": 3,
    "Id": 12785
  },
  "FileAttachments": [],
  "Comments": [
    {
      "Message": "I have the same problem with \"pl-PL\" culture.",
      "PostedDate": "2014-03-03T06:11:41.24-08:00",
      "Id": -2147483648
    },
    {
      "Message": "",
      "PostedDate": "2014-03-03T06:11:44.68-08:00",
      "Id": -2147483648
    },
    {
      "Message": "Can you send me the corrupt file.",
      "PostedDate": "2014-04-12T14:45:00.707-07:00",
      "Id": -2147483648
    },
    {
      "Message": "",
      "PostedDate": "2014-09-01T00:19:02.143-07:00",
      "Id": -2147483648
    }
  ]
}