{
  "WorkItem": {
    "AffectedComponent": {
      "Name": "",
      "DisplayName": ""
    },
    "ClosedComment": "",
    "ClosedDate": "2014-12-17T14:57:44.573-08:00",
    "CommentCount": 0,
    "Custom": null,
    "Description": "I have cell with very long text.\nHow to automatically set the height of the row so that the text would fit in it?",
    "LastUpdatedDate": "2014-12-17T14:57:44.573-08:00",
    "PlannedForRelease": "",
    "ReleaseVisibleToPublic": false,
    "Priority": {
      "Name": "Unassigned",
      "Severity": 0,
      "Id": 0
    },
    "ProjectName": "npoi",
    "ReportedDate": "2014-10-13T08:43:06.137-07:00",
    "Status": {
      "Name": "Closed",
      "Id": 4
    },
    "ReasonClosed": {
      "Name": "Won't fix"
    },
    "Summary": "How to autofit cell content?",
    "Type": {
      "Name": "Unassigned",
      "Id": 5
    },
    "VoteCount": 1,
    "Id": 13279
  },
  "FileAttachments": [],
  "Comments": [
    {
      "Message": "There is no way to automatically change the height to fit the text. Excel doesn't provide this feature.",
      "PostedDate": "2014-12-17T14:57:35.003-08:00",
      "Id": -2147483648
    },
    {
      "Message": "",
      "PostedDate": "2014-12-17T14:57:44.573-08:00",
      "Id": -2147483648
    }
  ]
}