{
  "WorkItem": {
    "AffectedComponent": {
      "Name": "",
      "DisplayName": ""
    },
    "ClosedComment": "",
    "ClosedDate": "2014-07-27T23:52:54.79-07:00",
    "CommentCount": 0,
    "Custom": null,
    "Description": "hi i have an xslx format file but the user will upload it with an . xls extension.\n\nIN my code im checking the extension...\nif its .xlsx im using XssfWorkboox if its .xls im using HssfWorkbook...\nBUt its giving me an error .. \"Invalid header\".. pls help me with a solution...\nuser cannot change the extension...\n\n\n  if (fileExt.ToLower() == \".xls\")\n            {\n                isXlsxXSSFfFile = false;\n                //Use the NPOI Excel xls object\n                using (FileStream file = new FileStream(_pathAndFile, FileMode.Open, FileAccess.Read))\n                {\n                    hssfwb = new HSSFWorkbook(file);\n                }\n                if (string.IsNullOrEmpty(_sheetName))\n                {\n                    hssfSheet = (HSSFSheet)hssfwb.GetSheetAt(0);\n                }\n                else\n                {\n                    if (this.SheetExists(_sheetName))\n                        hssfSheet = (HSSFSheet)hssfwb.GetSheet(_sheetName);\n                    else\n                        throw new ObjectNotFoundException(\"Sheet name doesn't exist\");\n                }\n            }\n            else //.xlsx extension\n            {\n                isXlsxXSSFfFile = true;\n\n                //Use the NPOI Excel xlsx object\n                using (FileStream file = new FileStream(_pathAndFile, FileMode.Open, FileAccess.Read))\n                {\n                    xssfwb = new XSSFWorkbook(file);\n                }\n                if (string.IsNullOrEmpty(_sheetName))\n                {\n                    xssfSheet = (XSSFSheet)xssfwb.GetSheetAt(0);\n\n                }\n                else\n                {\n                    if (this.SheetExists(_sheetName))\n                        xssfSheet = (XSSFSheet)xssfwb.GetSheet(_sheetName);\n                    else\n                        throw new ObjectNotFoundException(\"Sheet name doesn't exist\");\n                }\n\n            }",
    "LastUpdatedDate": "2014-07-27T23:52:54.79-07:00",
    "PlannedForRelease": "",
    "ReleaseVisibleToPublic": false,
    "Priority": {
      "Name": "Unassigned",
      "Severity": 0,
      "Id": 0
    },
    "ProjectName": "npoi",
    "ReportedDate": "2014-07-22T15:03:51.79-07:00",
    "Status": {
      "Name": "Closed",
      "Id": 4
    },
    "ReasonClosed": {
      "Name": "Not a issue"
    },
    "Summary": "xlsx format file with xls extension issue",
    "Type": {
      "Name": "Unassigned",
      "Id": 5
    },
    "VoteCount": 1,
    "Id": 13153
  },
  "FileAttachments": [],
  "Comments": [
    {
      "Message": "If you have some budget on this, I can provide you a solution. For details, please contact support@neuzilla.com ",
      "PostedDate": "2014-07-22T16:22:37.837-07:00",
      "Id": -2147483648
    },
    {
      "Message": "",
      "PostedDate": "2014-07-27T23:52:54.79-07:00",
      "Id": -2147483648
    }
  ]
}