{
  "WorkItem": {
    "AffectedComponent": {
      "Name": "",
      "DisplayName": ""
    },
    "ClosedComment": "This is a discussion instead of an issue",
    "ClosedDate": "2013-11-17T00:56:32.12-08:00",
    "CommentCount": 0,
    "Custom": null,
    "Description": "Hi, \n     I am writing to find out when the current version (NPOI 2.0 beta 1) will become a full version?  \n\nRegards\n\nGuy",
    "LastUpdatedDate": "2013-11-17T00:56:32.12-08:00",
    "PlannedForRelease": "",
    "ReleaseVisibleToPublic": false,
    "Priority": {
      "Name": "Unassigned",
      "Severity": 0,
      "Id": 0
    },
    "ProjectName": "npoi",
    "ReportedDate": "2013-10-06T17:02:10.947-07:00",
    "Status": {
      "Name": "Closed",
      "Id": 4
    },
    "ReasonClosed": {
      "Name": "Unassigned"
    },
    "Summary": "When will the the current beta version become full version",
    "Type": {
      "Name": "Unassigned",
      "Id": 5
    },
    "VoteCount": 2,
    "Id": 12287
  },
  "FileAttachments": [],
  "Comments": [
    {
      "Message": "first quarter, 2014",
      "PostedDate": "2013-10-08T10:05:18.57-07:00",
      "Id": -2147483648
    },
    {
      "Message": "",
      "PostedDate": "2013-10-23T06:53:20.553-07:00",
      "Id": -2147483648
    },
    {
      "Message": "",
      "PostedDate": "2013-11-17T00:56:32.12-08:00",
      "Id": -2147483648
    }
  ]
}