{
  "WorkItem": {
    "AffectedComponent": {
      "Name": "",
      "DisplayName": ""
    },
    "ClosedComment": "",
    "ClosedDate": null,
    "CommentCount": 0,
    "Custom": null,
    "Description": "The \"HSSFCell.CELL_TYPE_DATE\" type doesn't exist.\n \nWhen I read an Excel file and I don’t know what kind of data are in this file. I need to know if the value is a number (HSSFCell.CELL_TYPE_NUMERIC) or a date.\nTherefore all my dates are considered like numbers.\n \nCould you add the \"HSSFCell.CELL_TYPE_DATE\" type ?\n \nThanks :)",
    "LastUpdatedDate": "2013-02-21T18:20:04.313-08:00",
    "PlannedForRelease": "",
    "ReleaseVisibleToPublic": false,
    "Priority": {
      "Name": "Low",
      "Severity": 50,
      "Id": 1
    },
    "ProjectName": "npoi",
    "ReportedDate": "2010-03-02T02:54:30.347-08:00",
    "Status": {
      "Name": "Proposed",
      "Id": 1
    },
    "ReasonClosed": {
      "Name": "Unassigned"
    },
    "Summary": "The \"HSSFCell.CELL_TYPE_DATE\" type doesn't exist.",
    "Type": {
      "Name": "Issue",
      "Id": 3
    },
    "VoteCount": 1,
    "Id": 5566
  },
  "FileAttachments": [],
  "Comments": [
    {
      "Message": "If someone has a solution, I have open a discussion : http://npoi.codeplex.com/Thread/View.aspx?ThreadId=203532",
      "PostedDate": "2010-03-02T02:56:10.71-08:00",
      "Id": -2147483648
    },
    {
      "Message": "",
      "PostedDate": "2013-02-21T18:20:04.313-08:00",
      "Id": -2147483648
    }
  ]
}