{
  "WorkItem": {
    "AffectedComponent": {
      "Name": "",
      "DisplayName": ""
    },
    "ClosedComment": "",
    "ClosedDate": null,
    "CommentCount": 0,
    "Custom": null,
    "Description": "Steps to reproduce:\n1. Create an Excel (xlsx/xlsm) file with a filter. Filter some values and save the file.\n2. Try to write and modify some of the lines in the filtered data (slected/unselected), using the NPOI  library \n3. Open the Excel file in MS Office Excel.\n \nExpected behaviour:\nThe Excel file should open properly.\n \nActual behaviour:\nCannot open the file and getting the error message:\nMicrosoft Excel\nExcel founf unreadable content in '<FILE-NAME>.xlsx'. Do you want to recover the contents of this workbook? If you trust the source of this workbook, click Yes.\n \nClicking Yes gives the error message:\nMicrosoft Excel\nExcel cannot open the file '<FILE-NAME>.xlsx'.  because the file format or file extension is not valid. Verify that the file has not been corrupted and that the file extension matches the format of the file.\n\n\n\n\n```\n    var fileInfo = new FileInfo(\"SheetNameContainsFilteredCells.xlsx\");\n            IWorkbook workbook;\n            \n            using (var fileStream = fileInfo.Open(FileMode.Open, FileAccess.Read, FileShare.ReadWrite))\n            {\n                workbook = WorkbookFactory.Create(fileStream);\n            }\n\n\n            using (var stream = fileInfo.OpenWrite())\n            {\n                workbook.Write(stream);\n            }\n```",
    "LastUpdatedDate": "2014-02-21T22:21:30.89-08:00",
    "PlannedForRelease": "",
    "ReleaseVisibleToPublic": false,
    "Priority": {
      "Name": "Unassigned",
      "Severity": 0,
      "Id": 0
    },
    "ProjectName": "npoi",
    "ReportedDate": "2014-02-18T01:50:48.77-08:00",
    "Status": {
      "Name": "Proposed",
      "Id": 1
    },
    "ReasonClosed": {
      "Name": "Unassigned"
    },
    "Summary": "Writing to Xlsx file having a filter causes the file to be corrupt",
    "Type": {
      "Name": "Unassigned",
      "Id": 5
    },
    "VoteCount": 2,
    "Id": 12753
  },
  "FileAttachments": [],
  "Comments": []
}