{
  "WorkItem": {
    "AffectedComponent": {
      "Name": "",
      "DisplayName": ""
    },
    "ClosedComment": "",
    "ClosedDate": null,
    "CommentCount": 0,
    "Custom": null,
    "Description": "Excel 2007使用SetDefaultColumnStyle设置列样式无法正常生效，需要设置任意样式后，使用GetColumnStyle获取到列样式，然后再修改该样式才能生效，代码描述如下：\n```\n    var columnIndex = i + startColumnIndex;\n    SetColumnWidth(sheet, columnIndex, headers[i].ColumnWidth);\n\n    ICellStyle columnStyle = sheet.Workbook.CreateCellStyle();\n    sheet.SetDefaultColumnStyle(columnIndex, columnStyle);\n\n    columnStyle = sheet.GetColumnStyle(columnIndex);\n    SetColumnDefaultStyle(sheet.Workbook, columnStyle);\n    SetCellStyleHorizontalAlignment(columnStyle, headers[i].HorizontalAlignment);\n    SetCellStyleDataFormat(sheet.Workbook, columnStyle, headers[i].DataFormat);\n```\n设置列样式之后，创建的新单元格，不设置单元格样式，单元格无法按所在列的列样式进行显示，需要进行再次设置（2003无改问题），代码描述如下：\n```\n    ICell cell = sheetRow.CreateCell(cellIndex);\n    cell.CellStyle = sheet.GetColumnStyle(cellIndex);\n```",
    "LastUpdatedDate": "2014-05-28T00:35:03.687-07:00",
    "PlannedForRelease": "",
    "ReleaseVisibleToPublic": false,
    "Priority": {
      "Name": "Unassigned",
      "Severity": 0,
      "Id": 0
    },
    "ProjectName": "npoi",
    "ReportedDate": "2014-05-28T00:35:03.687-07:00",
    "Status": {
      "Name": "Proposed",
      "Id": 1
    },
    "ReasonClosed": {
      "Name": "Unassigned"
    },
    "Summary": "Excel 2007 设置列样式问题",
    "Type": {
      "Name": "Unassigned",
      "Id": 5
    },
    "VoteCount": 1,
    "Id": 13049
  },
  "FileAttachments": [],
  "Comments": []
}