{
  "WorkItem": {
    "AffectedComponent": {
      "Name": "",
      "DisplayName": ""
    },
    "ClosedComment": "it will be fixed in NPOI 2.1",
    "ClosedDate": "2014-04-12T14:52:29.757-07:00",
    "CommentCount": 0,
    "Custom": null,
    "Description": "There is issue when using regional settings that use ',' as a separator for decimal places instead of \".\"\n\nExample from NPOI xml file:\n\n<pageMargins footer=\"0,3\" header=\"0,3\" bottom=\"0,75\" top=\"0,75\" right=\"0,7\" left=\"0,7\"/>\n\nThis produces error when trying to open the workbook:\n\n\"Excel found unreadable content.... \"\n\n\".InvariantCulture\" might fix this issue.",
    "LastUpdatedDate": "2014-04-12T14:52:29.757-07:00",
    "PlannedForRelease": "",
    "ReleaseVisibleToPublic": false,
    "Priority": {
      "Name": "Unassigned",
      "Severity": 0,
      "Id": 0
    },
    "ProjectName": "npoi",
    "ReportedDate": "2014-02-24T06:57:55.807-08:00",
    "Status": {
      "Name": "Closed",
      "Id": 4
    },
    "ReasonClosed": {
      "Name": "Fixed"
    },
    "Summary": "NPOI Regional settings issue",
    "Type": {
      "Name": "Unassigned",
      "Id": 5
    },
    "VoteCount": 2,
    "Id": 12768
  },
  "FileAttachments": [],
  "Comments": []
}