{
  "WorkItem": {
    "AffectedComponent": {
      "Name": "",
      "DisplayName": ""
    },
    "ClosedComment": "",
    "ClosedDate": null,
    "CommentCount": 0,
    "Custom": null,
    "Description": "I have an _xlsx_ file with several dates.\nOne cell appears in Excel 2007 (configured as Spanish, Spain, international) as \"01/02/2003  4:05\" (that is 1st February 2003). The cell format appears as \"dd/mm/aaaa h:mm\" in Excel. NPOI gets \"2/1/03 4:05\".\nWhat appears as \"01/12/2001\" is read by NPOI as \"12/1/01\". The cell format is \"*14/03/2001\" in Excel.\nWhat appears as \"23:05:00\" is read by NPOI as \"11:05:00 \". The cell format is \"*13:30:55\" in Excel.\n\nThe code I use to read the file is:\n```\nDataFormatter dataFormatter= new DataFormatter(CultureInfo.CurrentCulture);        // es-ES\n// ...\nobject cellValue= dataFormatter.FormatCellValue(ijCell);\n```\n\nIn some cases, I see that NPOI is applying the predefined formats from _NPOI.SS.UserModel.BuiltinFormats_, but they seem not to match what Spanish Excel does. \n\nIs there a way to make NPOI use the same format as Spanish Excel?",
    "LastUpdatedDate": "2015-03-06T02:45:12.03-08:00",
    "PlannedForRelease": "",
    "ReleaseVisibleToPublic": false,
    "Priority": {
      "Name": "Unassigned",
      "Severity": 0,
      "Id": 0
    },
    "ProjectName": "npoi",
    "ReportedDate": "2015-01-07T02:50:15.863-08:00",
    "Status": {
      "Name": "Proposed",
      "Id": 1
    },
    "ReasonClosed": {
      "Name": "Unassigned"
    },
    "Summary": "NPOI interprets date formats differently",
    "Type": {
      "Name": "Unassigned",
      "Id": 5
    },
    "VoteCount": 1,
    "Id": 13398
  },
  "FileAttachments": [],
  "Comments": [
    {
      "Message": "I am using an NPOI  version from 2.0 but it also happens with 2.1.1.",
      "PostedDate": "2015-01-07T02:53:10.587-08:00",
      "Id": -2147483648
    },
    {
      "Message": "I have to say this case is possible because there is an builtin convertion between Excel data formats to .NET datetime formatting. It's suggested you read the Date value from ICell.CellDateValue because this is the real DateTime value. Data formats is just a shell. ",
      "PostedDate": "2015-02-20T14:48:56.81-08:00",
      "Id": -2147483648
    },
    {
      "Message": "I'm having the same issue and it's quite bad situation..\nI've to convert the excel in txt and the dates are completly wrong\r\n\r\nThese are example of conversion:\r\n\r\n20/06/2012 -> 6/20/12\n05/07/2012 -> 7/5/12\r\n\r\nSometimes it makes impossible to understand the correct date.\r\n\r\nthe cell.CellStyle.DataFormat is 14\nthe excel format is DD/MM/YYYY en-UK\r\n\r\nIf there are no ways to get the correct vaue, I'm obligated to move to other excel library",
      "PostedDate": "2015-03-06T02:45:12.03-08:00",
      "Id": -2147483648
    }
  ]
}