{
  "WorkItem": {
    "AffectedComponent": {
      "Name": "",
      "DisplayName": ""
    },
    "ClosedComment": "",
    "ClosedDate": "2008-10-11T19:32:55.803-07:00",
    "CommentCount": 0,
    "Custom": null,
    "Description": "This task will be cancelled as I'm going to create a tool based on npoi.poifs.dev to test the feature",
    "LastUpdatedDate": "2013-05-16T05:28:07.34-07:00",
    "PlannedForRelease": "NPOI.POIFS 1.0",
    "ReleaseVisibleToPublic": true,
    "Priority": {
      "Name": "Unassigned",
      "Severity": 0,
      "Id": 0
    },
    "ProjectName": "npoi",
    "ReportedDate": "2008-09-15T19:18:47.59-07:00",
    "Status": {
      "Name": "Closed",
      "Id": 4
    },
    "ReasonClosed": {
      "Name": "Unassigned"
    },
    "Summary": "Test Cases - npoi.poifs.dev namespace",
    "Type": {
      "Name": "Task",
      "Id": 2
    },
    "VoteCount": 0,
    "Id": 93
  },
  "FileAttachments": [],
  "Comments": []
}