{
  "WorkItem": {
    "AffectedComponent": {
      "Name": "",
      "DisplayName": ""
    },
    "ClosedComment": "",
    "ClosedDate": "2009-05-08T00:00:55.663-07:00",
    "CommentCount": 0,
    "Custom": null,
    "Description": "Assert.AreEqual failed. Expected:<47120000>. Actual:<-8285749036536037376>.\nTestWriteWellknown.cs",
    "LastUpdatedDate": "2013-05-16T05:28:04.677-07:00",
    "PlannedForRelease": "NPOI.HPSF 1.0",
    "ReleaseVisibleToPublic": true,
    "Priority": {
      "Name": "Medium",
      "Severity": 100,
      "Id": 2
    },
    "ProjectName": "npoi",
    "ReportedDate": "2008-10-09T16:41:53.427-07:00",
    "Status": {
      "Name": "Closed",
      "Id": 4
    },
    "ReasonClosed": {
      "Name": "Unassigned"
    },
    "Summary": "[HPSF Bug] TestWriteWellKnown1:Incorrect date time conversion",
    "Type": {
      "Name": "Issue",
      "Id": 3
    },
    "VoteCount": 0,
    "Id": 537
  },
  "FileAttachments": [
    {
      "FileId": 302,
      "FileName": "tmp59.tmp.trx",
      "DownloadUrl": ".\\302"
    }
  ],
  "Comments": [
    {
      "Message": "Assert.AreEqual failed. Expected:. Actual:.",
      "PostedDate": "2008-10-09T16:41:53.427-07:00",
      "Id": -2147483648
    },
    {
      "Message": "",
      "PostedDate": "2008-10-09T16:42:16.88-07:00",
      "Id": -2147483648
    },
    {
      "Message": "",
      "PostedDate": "2008-10-09T16:45:44.83-07:00",
      "Id": -2147483648
    },
    {
      "Message": "",
      "PostedDate": "2009-05-08T00:00:55.663-07:00",
      "Id": -2147483648
    },
    {
      "Message": "",
      "PostedDate": "2013-02-21T18:20:14.383-08:00",
      "Id": -2147483648
    },
    {
      "Message": "",
      "PostedDate": "2013-05-16T05:28:04.677-07:00",
      "Id": -2147483648
    }
  ]
}