{
  "WorkItem": {
    "AffectedComponent": {
      "Name": "",
      "DisplayName": ""
    },
    "ClosedComment": "",
    "ClosedDate": null,
    "CommentCount": 0,
    "Custom": null,
    "Description": "Hi,\n\nI love the concept - build beautiful Excel templates - use NPOI to populate with data, then create a copy and return to user, but I have hit a bump. \n\nI have an Excel file, written to by NPOI (v2.0.6). The Excel file has a pivot table and formulas built into it. The formulas reference the data written by NPOI.\n\nMy code then exports a copy of the file with the fresh data in it and gives it to the user. When the user opens it using Excel 2010, the formulas have not refreshed, and even pressing F9 does not refresh them. I have to actually click into the formula and hit 'Enter' for it to refresh.\n\nAlso, my pivot table doesn't refresh upon opening the file, even after setting it to do so in the options for the pivot table.\n\nI am trying to build code that will work with any template I create - so using NPOI to create and / or refresh specific cells or pivot tables will not work for me - every template will be different. Is there a setting in either NPOI or Excel that will help me out here? Am I missing something?\n\nAnyone else with similar issues? \n\nThanks in advance for a great tool, Tony, and to anyone who is able to help!",
    "LastUpdatedDate": "2015-06-09T09:52:57.197-07:00",
    "PlannedForRelease": "",
    "ReleaseVisibleToPublic": false,
    "Priority": {
      "Name": "Unassigned",
      "Severity": 0,
      "Id": 0
    },
    "ProjectName": "npoi",
    "ReportedDate": "2015-04-22T06:08:36.357-07:00",
    "Status": {
      "Name": "Proposed",
      "Id": 1
    },
    "ReasonClosed": {
      "Name": "Unassigned"
    },
    "Summary": "Excel file not working as expected after NPOI edit",
    "Type": {
      "Name": "Unassigned",
      "Id": 5
    },
    "VoteCount": 2,
    "Id": 13554
  },
  "FileAttachments": [],
  "Comments": [
    {
      "Message": "Hi,\r\n\r\nFor what it's worth, the following page solved this for me:\r\n\r\nhttp://stackoverflow.com/questions/24088737/how-to-re-calculate-a-cells-formula\r\n\r\nSpecifically this code:\r\n\r\n\n```\nif(wb is XSSFWorkbook) {\n    XSSFFormulaEvaluator.EvaluateAllFormulaCells(wb);\n} else {\n    HSSFFormulaEvaluator.EvaluateAllFormulaCells(wb);\n}\r\n\r\n```",
      "PostedDate": "2015-06-09T09:52:57.197-07:00",
      "Id": -2147483648
    }
  ]
}