{
  "WorkItem": {
    "AffectedComponent": {
      "Name": "",
      "DisplayName": ""
    },
    "ClosedComment": "",
    "ClosedDate": "2015-01-01T19:13:48.987-08:00",
    "CommentCount": 0,
    "Custom": null,
    "Description": "运行代码：\n\nFileStream file = new FileStream(\"test.xlsx\", FileMode.Open, FileAccess.Read);//读入excel模板\nvar workbook = new XSSFWorkbook(file);\nMemoryStream ms = new MemoryStream();\nworkbook.Write(ms);//写入内存流\nbyte[] data = ms.ToArray();\nHttpResponse response = System.Web.HttpContext.Current.Response;\nresponse.Clear();\nresponse.Charset = \"UTF-8\";\nresponse.ContentType = \"application/vnd-excel\";\nSystem.Web.HttpContext.Current.Response.AddHeader(\"Content-Disposition\", string.Format(\"attachment; filename=abc.xlsx\"));\nSystem.Web.HttpContext.Current.Response.BinaryWrite(data);",
    "LastUpdatedDate": "2015-01-01T19:13:48.987-08:00",
    "PlannedForRelease": "",
    "ReleaseVisibleToPublic": false,
    "Priority": {
      "Name": "Unassigned",
      "Severity": 0,
      "Id": 0
    },
    "ProjectName": "npoi",
    "ReportedDate": "2014-12-11T21:26:08.093-08:00",
    "Status": {
      "Name": "Closed",
      "Id": 4
    },
    "ReasonClosed": {
      "Name": "Not a issue"
    },
    "Summary": "通过网页下载xlsx文件报错，丢失文件",
    "Type": {
      "Name": "Unassigned",
      "Id": 5
    },
    "VoteCount": 1,
    "Id": 13361
  },
  "FileAttachments": [
    {
      "FileId": 5114,
      "FileName": "error1.png",
      "DownloadUrl": ".\\5114"
    },
    {
      "FileId": 5115,
      "FileName": "error2.png",
      "DownloadUrl": ".\\5115"
    },
    {
      "FileId": 5116,
      "FileName": "abc.xlsx",
      "DownloadUrl": ".\\5116"
    },
    {
      "FileId": 5121,
      "FileName": "test.xlsx",
      "DownloadUrl": ".\\5121"
    }
  ],
  "Comments": [
    {
      "Message": "错误2",
      "PostedDate": "2014-12-11T21:26:47.07-08:00",
      "Id": -2147483648
    },
    {
      "Message": "只要使用NPOI打开任何一个xlsx文件通过网页下载到本地都会丢失文件。",
      "PostedDate": "2014-12-11T21:27:57.89-08:00",
      "Id": -2147483648
    },
    {
      "Message": "请问使用的NPOI版本是多少？建议用最新版2.1.3试试，如果还有问题，请把下载下来的xlsx文件传上来。",
      "PostedDate": "2014-12-13T03:45:35.713-08:00",
      "Id": -2147483648
    },
    {
      "Message": "",
      "PostedDate": "2014-12-14T04:40:30.01-08:00",
      "Id": -2147483648
    },
    {
      "Message": "您好，程序是使用的最新版本2.1.3，附件abc.xlsx是下载下来的xlsx文件",
      "PostedDate": "2014-12-14T04:40:31.023-08:00",
      "Id": -2147483648
    },
    {
      "Message": "你贴出来的代码似乎没有建立Sheet，那是肯定有问题的！请确保默认建一个Sheet",
      "PostedDate": "2014-12-17T14:55:18.473-08:00",
      "Id": -2147483648
    },
    {
      "Message": "另外ContentType也不对，应该是application/vnd.openxmlformats-officedocument.spreadsheetml.sheet，因为是xlsx格式。",
      "PostedDate": "2014-12-17T14:56:29.883-08:00",
      "Id": -2147483648
    },
    {
      "Message": "请提供test.xlsx（原文件），谢谢",
      "PostedDate": "2014-12-19T06:13:48.043-08:00",
      "Id": -2147483648
    },
    {
      "Message": "",
      "PostedDate": "2014-12-19T23:14:20.347-08:00",
      "Id": -2147483648
    },
    {
      "Message": "您好，我并不是没有操作文件，我对第一个单元格进行赋值了，只是我没贴出赋值代码，完整代码如下：\nFileStream file = new FileStream(\"test.xlsx\", FileMode.Open, FileAccess.Read);//读入excel模板\nvar workbook = new XSSFWorkbook(file);\n           \n ISheet sheet1 = workbook.GetSheetAt(0);\nIRow row = sheet1.GetRow(0);\n if (row == null) row = sheet1.CreateRow(0);\nICell cell = row.GetCell(0);\nif (cell == null) cell = row.CreateCell(0);\ncell.SetCellValue(\"测试文件\");\r\n\r\nMemoryStream ms = new MemoryStream();\nworkbook.Write(ms);//写入内存流\nbyte[] data = ms.ToArray();\nHttpResponse response = System.Web.HttpContext.Current.Response;\nresponse.Clear();\nresponse.Charset = \"UTF-8\";\nresponse.ContentType = \"application/vnd-excel\";\nSystem.Web.HttpContext.Current.Response.AddHeader(\"Content-Disposition\", string.Format(\"attachment; filename=abc.xlsx\"));\nSystem.Web.HttpContext.Current.Response.BinaryWrite(data);\r\n\r\n附件test.xlsx是源文件，附件abc.xlsx输出的文件。",
      "PostedDate": "2014-12-19T23:14:22.86-08:00",
      "Id": -2147483648
    },
    {
      "Message": "另外，ContentType = \"application/vnd-excel\"; 在前几个版本中下载xlsx也正常，网上资料也说是用这种方式。",
      "PostedDate": "2014-12-19T23:17:46.21-08:00",
      "Id": -2147483648
    },
    {
      "Message": "经测试，用2.1.3不能重现您的问题。请自行寻找原因，如果有预算，可以发邮件到support@neuzilla.com上个case，我们会提供远程协助，帮你排查问题。",
      "PostedDate": "2015-01-01T19:05:55.97-08:00",
      "Id": -2147483648
    },
    {
      "Message": "",
      "PostedDate": "2015-01-01T19:13:48.987-08:00",
      "Id": -2147483648
    }
  ]
}