{
  "WorkItem": {
    "AffectedComponent": {
      "Name": "",
      "DisplayName": ""
    },
    "ClosedComment": "",
    "ClosedDate": null,
    "CommentCount": 0,
    "Custom": null,
    "Description": "When you want to create more then 255 columns (as supported by excel) you get an error.\n\nThe method CreateCell expects an integer as it's first parameter but as soon as you go over 255 it throws an ArgumentException. \"Invalid column index (256). Allowable column range for BIFF8 is (0..255) or ('A'..'IV')\"",
    "LastUpdatedDate": "2013-07-12T02:14:45.053-07:00",
    "PlannedForRelease": "",
    "ReleaseVisibleToPublic": false,
    "Priority": {
      "Name": "Unassigned",
      "Severity": 0,
      "Id": 0
    },
    "ProjectName": "npoi",
    "ReportedDate": "2013-07-12T02:14:45.053-07:00",
    "Status": {
      "Name": "Proposed",
      "Id": 1
    },
    "ReasonClosed": {
      "Name": "Unassigned"
    },
    "Summary": "Invalid column index (256)",
    "Type": {
      "Name": "Unassigned",
      "Id": 5
    },
    "VoteCount": 1,
    "Id": 11934
  },
  "FileAttachments": [],
  "Comments": []
}