{
  "WorkItem": {
    "AffectedComponent": {
      "Name": "",
      "DisplayName": ""
    },
    "ClosedComment": "",
    "ClosedDate": null,
    "CommentCount": 0,
    "Custom": null,
    "Description": "We use NPOI to modify an existing template and save it as a new one. \nThe new Excel file created by NOPI is always corrupted. When the file is opened, it says' We found a problem with some content in 'FileName.xlsx'.Do you want us to try to recover as much as we can? If you trust the source of this workbook, Click Yes\" (发现FileName.xlsx 中部分内容有问题。是否让我们尽量尝试恢复？如果您信任次工作簿的源，请单击是)\nWe narrow down the condition, just use NPOI to open it and then save as a new file. The file will be corrupted.\nWe try the newest version 2.2.0, but in vain.",
    "LastUpdatedDate": "2016-04-18T03:07:13.913-07:00",
    "PlannedForRelease": "",
    "ReleaseVisibleToPublic": false,
    "Priority": {
      "Name": "Unassigned",
      "Severity": 0,
      "Id": 0
    },
    "ProjectName": "npoi",
    "ReportedDate": "2016-01-04T20:18:15.2-08:00",
    "Status": {
      "Name": "Proposed",
      "Id": 1
    },
    "ReasonClosed": {
      "Name": "Unassigned"
    },
    "Summary": "2007 format Excel file corrupted",
    "Type": {
      "Name": "Unassigned",
      "Id": 5
    },
    "VoteCount": 2,
    "Id": 13809
  },
  "FileAttachments": [
    {
      "FileId": 6276,
      "FileName": "Original.xlsx",
      "DownloadUrl": ".\\6276"
    },
    {
      "FileId": 6286,
      "FileName": "MPSVAttendanceSummary.xlsx",
      "DownloadUrl": ".\\6286"
    }
  ],
  "Comments": [
    {
      "Message": "Same problem here",
      "PostedDate": "2016-03-12T02:14:07.913-08:00",
      "Id": -2147483648
    },
    {
      "Message": "",
      "PostedDate": "2016-03-12T02:14:22.217-08:00",
      "Id": -2147483648
    },
    {
      "Message": "Hi\r\n\r\ntry maybe this 2 small examples: \r\n\r\nReading example:\r\n\r\n```\nprivate IWorkbook InitializeIWorkbook(string path)\n        {\n            try\n            {\n                IWorkbook workbook = null;\n                using (FileStream file = new FileStream(path, FileMode.Open, FileAccess.Read, FileShare.ReadWrite))\n                {\n                    FileInfo fileInfo = new FileInfo(path);                   \n                    if (fileInfo.Extension.ToLower() == \".xlsx\" || fileInfo.Extension.ToLower() == \".xlsm\")\n                    {\n                        // Excel 2007+\n                        workbook = new XSSFWorkbook(file);\n                    }\n                    if (fileInfo.Extension.ToLower() == \".xls\" || fileInfo.Extension.ToLower() == \".xlm\")\n                    {\n                        // Excel 2003\n                        workbook = new HSSFWorkbook(file);\n                    }\n                }\n                return workbook;\n            }\n            catch (IOException e)\n            {\n                MessageBox.Show(e.Message, \"Error\", MessageBoxButtons.OK, MessageBoxIcon.Error);\n                return null;\n            }\n        }\n```\nWriting example:\r\n\r\n```\npublic void FileStreamToExcel()\n        {\n            try\n            {\n                // speichern\n                using (var fs = new FileStream(path, FileMode.Create, FileAccess.Write, FileShare.ReadWrite))\n                {                    \n                    workbook.Write(fs);\n                }\n            }\n            catch (IOException e)\n            {\n                MessageBox.Show(e.Message, \"Error\", MessageBoxButtons.OK, MessageBoxIcon.Error);\n            }\n        }\n```\r\n\r\nIn the most cases it is a problem of FileStream...",
      "PostedDate": "2016-04-18T03:07:13.913-07:00",
      "Id": -2147483648
    }
  ]
}