{
  "WorkItem": {
    "AffectedComponent": {
      "Name": "",
      "DisplayName": ""
    },
    "ClosedComment": "",
    "ClosedDate": null,
    "CommentCount": 0,
    "Custom": null,
    "Description": "Hello\n\nI ran into an issue using the RemoveRow method.. it corrupts my xlsx files every time.\n\nI'm using NPOI 2.3.1 stable, same behaviour in NPOI 2.1.1 stable which makes me think the bug might be on my side. \n\nCan anyone confirm this behaviour? \n\nHere's my code to delete a row:\n\n```\n        public static void DeleteRow(ISheet sheet, int rowIndex)\n        {           \n            int lastRowNum = sheet.LastRowNum;\n\n            if (rowIndex >= 0 && rowIndex < lastRowNum)\n            {\n                sheet.ShiftRows(rowIndex + 1, lastRowNum, -1);\n            }\n\n            if (rowIndex == lastRowNum)\n            {\n                var removingRow = sheet.GetRow(rowIndex);\n                if (removingRow != null)\n                {\n                    sheet.RemoveRow(removingRow); // BUG: causes the xlsx to be currupt!\n                }\n            }\n        }\n```\n\nThanks for any feedback",
    "LastUpdatedDate": "2015-07-04T06:36:51.167-07:00",
    "PlannedForRelease": "",
    "ReleaseVisibleToPublic": false,
    "Priority": {
      "Name": "Unassigned",
      "Severity": 0,
      "Id": 0
    },
    "ProjectName": "npoi",
    "ReportedDate": "2015-07-04T06:34:48.327-07:00",
    "Status": {
      "Name": "Proposed",
      "Id": 1
    },
    "ReasonClosed": {
      "Name": "Unassigned"
    },
    "Summary": "ISheet.RemoveRow(IRow) causes corrupt xlsx",
    "Type": {
      "Name": "Unassigned",
      "Id": 5
    },
    "VoteCount": 1,
    "Id": 13639
  },
  "FileAttachments": [],
  "Comments": []
}