{
  "WorkItem": {
    "AffectedComponent": {
      "Name": "",
      "DisplayName": ""
    },
    "ClosedComment": "",
    "ClosedDate": null,
    "CommentCount": 0,
    "Custom": null,
    "Description": "I want to know how to create variable length comment box using NPOI.\n\nCode that we are using to insert comment is this:-\n\nComment c = drawing.createCellComment (new HSSFClientAnchor(0, 0, 0, 0, 0, 0, 6, 5));\nin this case it will span the number of columns and rows mentioned in the constructor.\n\nHowever if the string length inside comment box can vary for each cell and Comments should be inserted dynamically for each cell then we do not know before hand how many columns or rows the comment box should span.\n\nAny help in this would be greatly appreciated.\n\nThanks \nAshwinee",
    "LastUpdatedDate": "2014-09-04T00:43:52.463-07:00",
    "PlannedForRelease": "",
    "ReleaseVisibleToPublic": false,
    "Priority": {
      "Name": "Unassigned",
      "Severity": 0,
      "Id": 0
    },
    "ProjectName": "npoi",
    "ReportedDate": "2014-09-04T00:43:52.463-07:00",
    "Status": {
      "Name": "Proposed",
      "Id": 1
    },
    "ReasonClosed": {
      "Name": "Unassigned"
    },
    "Summary": "Variable length comment in excel file cell using NPOI",
    "Type": {
      "Name": "Unassigned",
      "Id": 5
    },
    "VoteCount": 1,
    "Id": 13238
  },
  "FileAttachments": [],
  "Comments": []
}