[
  {
    "Id": "406694",
    "ThreadId": "198180",
    "Html": "<p>Hello !</p>\r\n<p>I want to protect a sheet with a password to protect some cells but I would like to allow users to insert and delete rows. It is possible this scenario using NPOI library ? I don't found the solution how to set this level of protect - as in Excel app user can check/uncheck what is possible for the user even if the worksheet is protected.&nbsp;</p>\r\n<p>Thanks a lot for your answer and for this great library !</p>\r\n<p>&nbsp;</p>\r\n<p>&nbsp;</p>",
    "PostedDate": "2010-02-25T13:39:55.12-08:00",
    "UserRole": null,
    "MarkedAsAnswerDate": null
  }
]