[
  {
    "Id": "412266",
    "ThreadId": "203227",
    "Html": "<p>My first post.</p>\r\n<p>Hi,</p>\r\n<p>I had some &quot;security exception&quot; problem using NPOI in web scenarios and so I rebuild all the project, adding in all six AssemblyInfo.cs the following lines</p>\r\n<p>&nbsp;</p>\r\n<p>using System.Security;</p>\r\n<p>....</p>\r\n<p>[assembly: AllowPartiallyTrustedCallers]</p>\r\n<p>...</p>\r\n<p>&nbsp;</p>\r\n<p>Is it a good idea?</p>\r\n<p>Donato</p>\r\n<div id=\"_mcePaste\" style=\"overflow:hidden;left:-10000px;top:26px;width:1px;height:1px\"><span>&nbsp;</span>\r\n<h2><em><em>Security Exception</em></em></h2>\r\n</div>",
    "PostedDate": "2010-02-27T14:30:49.32-08:00",
    "UserRole": null,
    "MarkedAsAnswerDate": null
  },
  {
    "Id": "412535",
    "ThreadId": "203227",
    "Html": "<p>It's good, man! In NPOI 1.2.2 I have fixed this bug. so please use NPOI 1.2.2 instead. If you meet the issue in NPOI 1.2.2, please don't hesitate to let me know.</p>",
    "PostedDate": "2010-02-28T16:51:41.583-08:00",
    "UserRole": "Owner",
    "MarkedAsAnswerDate": null
  }
]