[
  {
    "Id": "413697",
    "ThreadId": "203675",
    "Html": "<p>Hello,</p>\r\n<p>I've just discovered NPOI and have immediately fallen in love.&nbsp; However, I have one need that I can't find.&nbsp; If it's available, please point me in the right direction.&nbsp; Otherwise, consider this a feature request.&nbsp;</p>\r\n<p>I'm creating a generic class called ExcelDump that will be used to dump the data in a DataTable to an Excel file using NPOI.&nbsp; Basically, I want to be able to pass a datatable and have the class parse out the column names to create a header with and then fill in the cells below the header with data from the DadtaTable.&nbsp; I would also like to be able to let the style of the header and table body to be defined by the calling class (before the workbook is created) using properties on the ExcelDump class.&nbsp; It seems that the only cell style class is HSSFCellStyle which requires some advance knowledge of the workbook.&nbsp; If we had just a generic CellStyle class that allowed me to define all the fonts, colors, borders, etc. that could later be copied into an HSSFCellStyle class it would be very helpful.&nbsp; Of course, I can create this class manually but it seems useful enough that it should be included.&nbsp; Or perhaps a better implementation would be to create a parameterless constructor for HSSFCellStyle.</p>\r\n<p>Thanks,</p>\r\n<p>Ian</p>",
    "PostedDate": "2010-03-03T07:55:20.403-08:00",
    "UserRole": null,
    "MarkedAsAnswerDate": null
  },
  {
    "Id": "413920",
    "ThreadId": "203675",
    "Html": "<p>I suggest you have a look at this: http://www.cnblogs.com/coolite/articles/NPOI_01.html. Although it's in Chinese, the code can be used to generate a xls from a dataset very easily. Hope it's helpful for you.</p>",
    "PostedDate": "2010-03-03T17:49:05.183-08:00",
    "UserRole": "Owner",
    "MarkedAsAnswerDate": null
  }
]