[
  {
    "Id": "415473",
    "ThreadId": "204190",
    "Html": "<p>Does anyone know if NPOI works with 64-bit processor?&nbsp;</p>\r\n<p>Thank you,</p>\r\n<p>AP</p>",
    "PostedDate": "2010-03-08T07:08:19.903-08:00",
    "UserRole": null,
    "MarkedAsAnswerDate": null
  },
  {
    "Id": "930294",
    "ThreadId": "204190",
    "Html": "<p>yes,i think</p>",
    "PostedDate": "2012-10-22T00:39:29.037-07:00",
    "UserRole": null,
    "MarkedAsAnswerDate": null
  },
  {
    "Id": "930676",
    "ThreadId": "204190",
    "Html": "<p>Are you talking about 64bit processor or 64bit OS?</p>",
    "PostedDate": "2012-10-22T13:29:40.62-07:00",
    "UserRole": "Owner",
    "MarkedAsAnswerDate": null
  },
  {
    "Id": "940102",
    "ThreadId": "204190",
    "Html": "<p>Dear tonyqus,</p>\r\n<p>May I know how to get pure NOPI 64bit NET Framework library?</p>\r\n<p>thanks!</p>",
    "PostedDate": "2012-11-11T20:32:40.633-08:00",
    "UserRole": null,
    "MarkedAsAnswerDate": null
  },
  {
    "Id": "942463",
    "ThreadId": "204190",
    "Html": "\r\n<p>Does NOPI work with 32bit <span>or 64bit&nbsp;<span>processor on 64bit OS?</span></span></p>\r\n",
    "PostedDate": "2012-11-15T19:00:47.857-08:00",
    "UserRole": null,
    "MarkedAsAnswerDate": null
  },
  {
    "Id": "945871",
    "ThreadId": "204190",
    "Html": "\r\n<blockquote style=\"padding-bottom:0px; font-style:italic; margin:0.25em 1em 0px; padding-left:0.25em; padding-right:0.25em; padding-top:0px; border:#ccc 0.1em solid\">\r\n<strong>jwhwang wrote:</strong><br>\r\n<p>Dear tonyqus,</p>\r\n<p>May I know how to get pure NOPI 64bit NET Framework library?</p>\r\n<p>thanks!</p>\r\n</blockquote>\r\n<p><br>\r\nThere is no pure 64bit version.</p>\r\n",
    "PostedDate": "2012-11-22T14:04:38.97-08:00",
    "UserRole": "Owner",
    "MarkedAsAnswerDate": null
  }
]