[
  {
    "Id": "419632",
    "ThreadId": "205352",
    "Html": "<p>I looking for something that gives me the &quot;name&quot; of a cell:</p>\r\n<p>&nbsp;</p>\r\n<div style=\"color:Black;background-color:White\">\r\n<pre><span style=\"color:Blue\">string</span> fromCell = CellName(2, 2); <span style=\"color:Green\">// C3 cell</span><br><span style=\"color:Blue\">string</span> toCell = CellName(2, 32); <span style=\"color:Green\">// AG3 cell</span><br><br>cell.SetCellFormula(<span style=\"color:#A31515\">&quot;SUM(&quot;</span> + fromCell + <span style=\"color:#A31515\">&quot;:&quot;</span> + toCell + <span style=\"color:#A31515\">&quot;)&quot;</span>); <span style=\"color:Green\">// SUM(C3:AG3) formula</span><br></pre>\r\n</div>\r\n<p>&nbsp;</p>\r\n<p>Maybe I'm not so good with search tool but... I can't find! So, let's code!</p>\r\n<p>&nbsp;</p>\r\n<div style=\"color:Black;background-color:White\">\r\n<pre>    <span style=\"color:Blue\">public</span> <span style=\"color:Blue\">string</span> CellName(<span style=\"color:Blue\">int</span> row, <span style=\"color:Blue\">int</span> column)<br>    {<br>        <span style=\"color:Blue\">string</span> cellName = <span style=\"color:#A31515\">&quot;A1&quot;</span>;<br>        <span style=\"color:Blue\">try</span><br>        {<br>            <span style=\"color:Blue\">string</span> letter = <span style=\"color:#A31515\">&quot;&quot;</span>;<br>            <span style=\"color:Blue\">string</span> number = <span style=\"color:#A31515\">&quot;&quot;</span>;<br><br>            <span style=\"color:Blue\">if</span> (column &lt;= 25)<br>                letter = Convert.ToString((<span style=\"color:Blue\">char</span>)(<span style=\"color:#A31515\">'A'</span> + column));<br>            <span style=\"color:Blue\">else</span> <span style=\"color:Blue\">if</span> (column &gt; 25 &amp;&amp; column &lt;= 51)<br>            {<br>                <span style=\"color:Blue\">int</span> columnT = column - (26 * 1);<br>                letter = <span style=\"color:#A31515\">&quot;A&quot;</span>;<br>                <span style=\"color:Blue\">string</span> secondLetter = Convert.ToString((<span style=\"color:Blue\">char</span>)(<span style=\"color:#A31515\">'A'</span> + columnT));<br>                letter += secondLetter;<br>            }<br>            <span style=\"color:Blue\">else</span> <span style=\"color:Blue\">if</span> (column &gt; 51 &amp;&amp; column &lt;= 77)<br>            {<br>                <span style=\"color:Blue\">int</span> columnT = column - (26 * 1);<br>                letter = <span style=\"color:#A31515\">&quot;B&quot;</span>;<br>                <span style=\"color:Blue\">string</span> secondLetter = Convert.ToString((<span style=\"color:Blue\">char</span>)(<span style=\"color:#A31515\">'A'</span> + columnT));<br>                letter += secondLetter;<br>            }<br><br>            number = Convert.ToString(row + 1);<br><br>            cellName = letter + number;<br>        }<br>        <span style=\"color:Blue\">catch</span><br>        {<br><br>        }<br>        <span style=\"color:Blue\">return</span> cellName;<br>    }<br></pre>\r\n</div>\r\n<p>&nbsp;</p>\r\n<p>Hoping will be useful!</p>",
    "PostedDate": "2010-03-18T02:54:56.683-07:00",
    "UserRole": null,
    "MarkedAsAnswerDate": null
  }
]