[
  {
    "Id": "437662",
    "ThreadId": "211175",
    "Html": "<p>Can i use this library for free?</p>\r\n<p>&nbsp;</p>\r\n<p>Nitharsan</p>",
    "PostedDate": "2010-04-30T12:28:53.153-07:00",
    "UserRole": null,
    "MarkedAsAnswerDate": null
  },
  {
    "Id": "439047",
    "ThreadId": "211175",
    "Html": "<p>Yes. It uses Apache license. However, any donation to&nbsp;the project is greatly appreciated!</p>",
    "PostedDate": "2010-05-04T16:55:19.967-07:00",
    "UserRole": "Owner",
    "MarkedAsAnswerDate": null
  }
]