[
  {
    "Id": "438050",
    "ThreadId": "211300",
    "Html": "<p>Hai</p>\r\n<p>How to draw outside border to selected range of cells?</p>\r\n<p>(and for merged cells also)</p>\r\n<p>I tried to draw border &nbsp;by considering each cells&nbsp;separetely.</p>\r\n<p>But it deleted the contents of cells.</p>\r\n<p>any solution for this problem?</p>\r\n<p>Nitharsan</p>",
    "PostedDate": "2010-05-02T09:10:02.57-07:00",
    "UserRole": null,
    "MarkedAsAnswerDate": null
  }
]