[
  {
    "Id": "459251",
    "ThreadId": "217132",
    "Html": "Are there any plans to support Word .doc file formats?  The whole of the library seems to be centered around Excel files, which is useful in its own right, but is of limited use when the need arises to work with data from/to files that aren't Excel.",
    "PostedDate": "2010-06-23T20:52:39.853-07:00",
    "UserRole": null,
    "MarkedAsAnswerDate": null
  },
  {
    "Id": "464039",
    "ThreadId": "217132",
    "Html": "<p>Word 2003 file format in POI is not stable yet. Anyway, we are planning to support Word 2007.</p>",
    "PostedDate": "2010-07-06T20:07:27.08-07:00",
    "UserRole": "Owner",
    "MarkedAsAnswerDate": null
  }
]