[
  {
    "Id": "465977",
    "ThreadId": "219070",
    "Html": "<p>Hi!</p>\r\n<p>Can You add links to Resource1 in HSSF.csproj because it creates an error in VS2010. I do not know why, but it does not cause problems in VS2008.</p>\r\n<p>&nbsp; &lt;ItemGroup&gt;<br>&nbsp;&nbsp;&nbsp; &lt;Compile Include=&quot;Resource1.Designer.cs&quot;&gt;<br>&nbsp;&nbsp;&nbsp;&nbsp;&nbsp; &lt;AutoGen&gt;True&lt;/AutoGen&gt;<br>&nbsp;&nbsp;&nbsp;&nbsp;&nbsp; &lt;DesignTime&gt;True&lt;/DesignTime&gt;<br>&nbsp;&nbsp;&nbsp;&nbsp;&nbsp; &lt;DependentUpon&gt;Resource1.resx&lt;/DependentUpon&gt;<br>&nbsp;&nbsp;&nbsp; &lt;/Compile&gt;<br>&nbsp; &lt;/ItemGroup&gt;<br>&nbsp; &lt;ItemGroup&gt;<br>&nbsp;&nbsp;&nbsp; &lt;EmbeddedResource Include=&quot;Resource1.resx&quot;&gt;<br>&nbsp;&nbsp;&nbsp;&nbsp;&nbsp; &lt;SubType&gt;Designer&lt;/SubType&gt;<br>&nbsp;&nbsp;&nbsp;&nbsp;&nbsp; &lt;Generator&gt;ResXFileCodeGenerator&lt;/Generator&gt;<br>&nbsp;&nbsp;&nbsp;&nbsp;&nbsp; &lt;LastGenOutput&gt;Resource1.Designer.cs&lt;/LastGenOutput&gt;<br>&nbsp;&nbsp;&nbsp; &lt;/EmbeddedResource&gt;<br>&nbsp; &lt;/ItemGroup&gt;</p>\r\n<p>Please fix it.</p>\r\n<p>Thanks.</p>",
    "PostedDate": "2010-07-11T07:57:46.05-07:00",
    "UserRole": null,
    "MarkedAsAnswerDate": null
  },
  {
    "Id": "466671",
    "ThreadId": "219070",
    "Html": "<p>Ups, NPOI dont work in VS 2010 after upgrade&nbsp;:(</p>",
    "PostedDate": "2010-07-13T02:08:35.08-07:00",
    "UserRole": null,
    "MarkedAsAnswerDate": null
  }
]