[
  {
    "Id": "473402",
    "ThreadId": "221619",
    "Html": "<p>Hello,</p>\r\n<p>I have picked up a project at work from a some other programmers that no longer work on the project. The project is using ASP.Net 3.5 and MVC 1.0 in C#. I have used NPOI a bit for another similar project to convert some data into an Excel document, but was wondering if it is possible to convert a typed List of datatypes to an Excel document.</p>\r\n<p>Currently, the web app does something simliar to this:</p>\r\n<p>string out = List&lt;T&gt;.SerializeToString();</p>\r\n<p>The string &quot;out&quot; is then a long string in xml representing the data in the List&lt;T&gt;. When the file is saved, it's saved as a .xml file and the users are bothered that they can't quickly and easily (in one step) open the file in Excel. They have to right click and go to Open With and click a number of dialoge boxes that popup in Excel.</p>\r\n<p>Is it possible to convert the &quot;out&quot; string (which is in xml) directly to an Excel file using NPOI?</p>\r\n<p>In the other project, there was only one format for a report, so I could easily by hand make the rows and columns, but this project has three to four different reports with three to four different data types (or models to use&nbsp;a MVC term) and the method that creates the reports uses Generics so that it can operate on the different models and report types.</p>\r\n<p>Thanks for any help you can give.</p>",
    "PostedDate": "2010-07-27T15:50:44.24-07:00",
    "UserRole": null,
    "MarkedAsAnswerDate": null
  }
]