[
  {
    "Id": "481991",
    "ThreadId": "223996",
    "Html": "<p>Hi all!</p>\r\n<p>I'm having a problem using NPOI to generate Excel files. Before I started to use NPOI, I was using the interop lib and a certain excel was generated with 1.5mb. Now, with NPOI, the same excel has 2.23mb. In that case it is not a problem, but I'm generating some files with 50mb!</p>\r\n<p>What I do is:</p>\r\n<p>\r\n<pre>FileStream fs = new FileStream(path, FileMode.Open, FileAccess.Read);\r\n\t\t\t\tHSSFWorkbook npoiWb = new HSSFWorkbook(fs, true);\r\n\t\t\t\tHSSFSheet npoiSheet = npoiWb.GetSheetAt(0);\r\nHSSFRow row = npoiSheet .CreateRow(i);\r\nHSSFCell cell = row.CreateCell((short)j);</pre>\r\n</p>\r\n<p>Is something wrong?</p>\r\n<p>Thanks!</p>",
    "PostedDate": "2010-08-18T11:48:43.633-07:00",
    "UserRole": null,
    "MarkedAsAnswerDate": null
  }
]