[
  {
    "Id": "484885",
    "ThreadId": "224855",
    "Html": "<p>I'm creating a spreadsheet from scratch and I can't seem to control the formatting in any way. All cells end up with a &quot;custom&quot; format that is &quot;d-mmm-yy&quot; which makes all numbers appear as a date of course.</p>\r\n<p>Code basically looks like below. The function &quot;HSSFDataType&quot; returns CellType based on the data types for my &quot;FieldBase&quot; object, and it works fine.</p>\r\n<p>If I look at the contents of a cell object after the whole loop is finished, everything looks absolutely fine. An example is after the code -- no changes are made to the spreadsheet after that point. &nbsp;Yet still, no formatting seems to take hold when I open the spreadsheet in Excel. (The output shown is for a cell with numeric value &quot;6&quot;)</p>\r\n<p>Any ideas?</p>\r\n<p>&nbsp;</p>\r\n<div style=\"color:black;background-color:white\">\r\n<pre><span style=\"white-space:pre\">\t</span>wkbOut = <span style=\"color:blue\">new</span> HSSFWorkbook();\r\n<span style=\"white-space:pre\">\t</span> shtOut = wkbOut.CreateSheet(SheetName);\r\n         <span style=\"color:blue\">int</span> rowNumber = 0;</pre>\r\n</div>\r\n<p>&nbsp;</p>\r\n<p>&nbsp;</p>\r\n<div style=\"color:black;background-color:white\">\r\n<pre>            Row outRow;\r\n            <span style=\"color:blue\">while</span> (ListObject.NextItem())\r\n            {\r\n                ItemBase curItem = ListObject.GetItemFromDataReader();\r\n\r\n                outRow = GetRow(shtOut, rowNumber);\r\n\r\n               \r\n                <span style=\"color:blue\">for</span> (<span style=\"color:blue\">int</span> colNumber = 0; colNumber &lt; EffectiveFieldList.Count; colNumber++)\r\n                {\r\n                    FieldBase curField = curItem.Fields[EffectiveFieldList[colNumber]];\r\n                    <span style=\"color:blue\">if</span> (curField.IsReadable)\r\n                    {\r\n                        Cell outCell = outRow.CreateCell(colNumber);</pre>\r\n</div>\r\n<p>&nbsp;</p>\r\n<p>&nbsp;</p>\r\n<div style=\"color:black;background-color:white\">\r\n<pre>                        SetHSSFCellValue(outCell, curField);</pre>\r\n<pre><div style=\"color:black;background-color:white\"><pre>                       outCell.SetCellType(HSSFDataType(curField));\r\n</pre>\r\n</div>\r\n}                     }                 rowNumber++;</pre>\r\n<pre>}</pre>\r\n<pre><br></pre>\r\n<pre><pre>?wkbOut.GetSheet(SheetName).GetRow(1).GetCell(0)\r\n{6-Jan-00}\r\n    [NPOI.HSSF.UserModel.HSSFCell]: {6-Jan-00}\r\n    BooleanCellValue: 'wkbOut.GetSheet(SheetName).GetRow(1).GetCell(0).BooleanCellValue' threw an exception of type 'System.InvalidOperationException'\r\n    CachedFormulaResultType: 'wkbOut.GetSheet(SheetName).GetRow(1).GetCell(0).CachedFormulaResultType' threw an exception of type 'System.InvalidOperationException'\r\n    CellComment: null\r\n    CellErrorValue: 'wkbOut.GetSheet(SheetName).GetRow(1).GetCell(0).CellErrorValue' threw an exception of type 'System.InvalidOperationException'\r\n    CellFormula: &quot;&quot;\r\n    CellStyle: {NPOI.HSSF.UserModel.HSSFCellStyle}\r\n    CellType: NUMERIC\r\n    ColumnIndex: 0\r\n    DateCellValue: {1/6/1900 12:00:00 AM}\r\n    ErrorCellValue: 'wkbOut.GetSheet(SheetName).GetRow(1).GetCell(0).ErrorCellValue' threw an exception of type 'System.InvalidOperationException'\r\n    Hyperlink: null\r\n    NumericCellValue: 6.0\r\n    RichStringCellValue: 'wkbOut.GetSheet(SheetName).GetRow(1).GetCell(0).RichStringCellValue' threw an exception of type 'System.InvalidOperationException'\r\n    Row: {NPOI.HSSF.UserModel.HSSFRow}\r\n    RowIndex: 1\r\n    Sheet: {NPOI.HSSF.UserModel.HSSFSheet}\r\n    StringCellValue: 'wkbOut.GetSheet(SheetName).GetRow(1).GetCell(0).StringCellValue' threw an exception of type 'System.InvalidOperationException'\r\n</pre>\r\n<br></pre>\r\n</div>\r\n<p>&nbsp;</p>\r\n<p>&nbsp;</p>\r\n<p>&nbsp;</p>",
    "PostedDate": "2010-08-25T15:20:01.167-07:00",
    "UserRole": null,
    "MarkedAsAnswerDate": null
  },
  {
    "Id": "485825",
    "ThreadId": "224855",
    "Html": "<div style=\"color:black;background-color:white\">\r\n<pre>It sounds like your style object probably isn't correct.</pre>\r\n<pre>\r\nCellStyle style;\r\nstyle = _thisBook.CreateCellStyle();\r\nDataFormat dataformat = _thisBook.CreateDataFormat();\r\nstyle.DataFormat = dataformat.GetFormat(<span style=\"color:#a31515\">&quot;d-mmm-yy&quot;</span>);\r\ncell.CellStyle = style;</pre>\r\n<pre>_thisBook is your NPOI.SS.UserModel.Workbook object.  </pre>\r\n<pre>That should work.&nbsp;</pre>\r\n</div>",
    "PostedDate": "2010-08-27T13:39:19.983-07:00",
    "UserRole": null,
    "MarkedAsAnswerDate": null
  }
]