[
  {
    "Id": "487382",
    "ThreadId": "225570",
    "Html": "<p>Hello!</p>\r\n<p>Is it possible to rename file main.csproj to NPOI.csproj and add lost reference to file NPOI\\HSSF\\Record\\Formula\\Functions\\Days360.cs?</p>\r\n<p>Thank you.</p>",
    "PostedDate": "2010-09-01T00:02:23.593-07:00",
    "UserRole": null,
    "MarkedAsAnswerDate": null
  },
  {
    "Id": "489926",
    "ThreadId": "225570",
    "Html": "<p>What do you mean? Is something missed in the last checkin?</p>",
    "PostedDate": "2010-09-06T22:26:18.03-07:00",
    "UserRole": "Owner",
    "MarkedAsAnswerDate": null
  },
  {
    "Id": "490493",
    "ThreadId": "225570",
    "Html": "<p>1. Then I use NPOI as a part of my progect (added as source code) then &quot;main&quot; is not a good name for understand that is NPOI project in solution tree.</p>\r\n<p>2. Then I update NPOI from SVN and open it in Visual Studio 2010, then I get error like not found Days360.cs. For resolve this problem, I manually add referense to this file. After this project can be compiled without any problems. I think, this is problem on SVN.</p>",
    "PostedDate": "2010-09-07T23:28:06.193-07:00",
    "UserRole": null,
    "MarkedAsAnswerDate": null
  },
  {
    "Id": "494309",
    "ThreadId": "225570",
    "Html": "<p>Up!</p>",
    "PostedDate": "2010-09-16T01:29:06.017-07:00",
    "UserRole": null,
    "MarkedAsAnswerDate": null
  },
  {
    "Id": "501350",
    "ThreadId": "225570",
    "Html": "<p>This issue is fixed. I refreshed the release package of 1.2.3.</p>",
    "PostedDate": "2010-10-01T21:51:21.61-07:00",
    "UserRole": "Owner",
    "MarkedAsAnswerDate": null
  }
]