[
  {
    "Id": "490477",
    "ThreadId": "226406",
    "Html": "<p>I have tested the cell , row, col styles. They all are great !! What about the default style and range style ?</p>\r\n<p>I understand that these can be done using multiple cells, however, when I open the file with older version of Excel, I receive &quot;Too many cells format&quot; error.</p>\r\n<p>Any ideas ?</p>\r\n<p>&nbsp;</p>",
    "PostedDate": "2010-09-07T21:34:25.34-07:00",
    "UserRole": null,
    "MarkedAsAnswerDate": null
  },
  {
    "Id": "514362",
    "ThreadId": "226406",
    "Html": "\r\n<p>I second this question.</p>\r\n<p>I have a sheet with thousands of rows and many date columns. I get&nbsp;&quot;Too many different cell formats&quot; error too.</p>\r\n<p>I have no knowledge of the BIFF format, but i thought it worked a bit like the xlsx format (and html/css) where there can be a global styles list, then each of the cells can just reference the one little list.</p>\r\n<p>Ideas anyone?</p>\r\n",
    "PostedDate": "2010-10-28T22:27:46.22-07:00",
    "UserRole": null,
    "MarkedAsAnswerDate": null
  },
  {
    "Id": "519012",
    "ThreadId": "226406",
    "Html": "\r\n<p>Hi, it is exactly like you described, there is a global list of styles,&nbsp;all Versions of Excel have a limit of possible Styles, i assume the limit for 2003 is 128 or 256 (test it!).</p>\r\n<p>If you create a style you can find it in the list of styles of the workbook (you can access them via several methods of hssfworkbook or hold your reference list). Do not create the same style over and over again:</p>\r\n<p>&nbsp;</p>\r\n<pre>Wrong :\r\n\r\n\r\nfor (int i = 0; i &lt; 10000; i&#43;&#43;) {\r\n\r\nRow row = sheet.createRow(i);\r\n\r\nCell cell = row.createCell((short) 0);\r\n\r\nCellStyle style = workbook.createCellStyle();\r\n\r\nFont font = workbook.createFont();\r\n\r\nfont.setBoldweight(Font.BOLDWEIGHT_BOLD);\r\n\r\nstyle.setFont(font);\r\n\r\ncell.setCellStyle(style);\r\n\r\n}\r\n\r\n\r\n\r\nCorrect:\r\n\r\n\r\nCellStyle style = workbook.createCellStyle();\r\n\r\nFont font = workbook.createFont();\r\n\r\nfont.setBoldweight(Font.BOLDWEIGHT_BOLD);\r\n\r\nstyle.setFont(font);\r\n\r\nfor (int i = 0; i &lt; 10000; i&#43;&#43;)&nbsp;</pre>\r\n<pre>{\r\n\r\n<span style=\"white-space:pre\">\t</span>Row row = sheet.createRow(i);\r\n\r\n<span style=\"white-space:pre\">\t</span>Cell cell = row.createCell((short) 0);\r\n\r\n<span style=\"white-space:pre\">\t</span>cell.setCellStyle(style);\r\n\r\n}</pre>\r\n<p>&nbsp;</p>\r\n<p>Sample from:&nbsp;<br>\r\nhttp://www.eggheadcafe.com/software/aspnet/33364876/getting-maximum-number-of-fonts-have-been-exceeded-error.aspx&nbsp;</p>\r\n<p>&nbsp;</p>\r\n",
    "PostedDate": "2010-11-08T14:12:39.27-08:00",
    "UserRole": null,
    "MarkedAsAnswerDate": null
  },
  {
    "Id": "520289",
    "ThreadId": "226406",
    "Html": "\r\n<p>I've seen this problem a million times, people creating tons of style because they were created per/cell versus per/workbook or worksheet.&nbsp; If you are going to reuse a rule multiple times, create it once and reference that exact same rule each time.&nbsp;\r\n You can cause this exact same error if you like to do lots of formatting in Excel.</p>\r\n",
    "PostedDate": "2010-11-10T16:32:08.577-08:00",
    "UserRole": null,
    "MarkedAsAnswerDate": null
  }
]