[
  {
    "Id": "494759",
    "ThreadId": "227556",
    "Html": "<p>I am creating a program that performs calculations on hundreds of input variables and outputs them in thousands of output variables.</p>\r\n<p>Each variable is declared as an instance of the&nbsp;VariableType class.&nbsp; One of the members of VariableType is name, and the other is value.&nbsp;</p>\r\n<p>All of the variables get stored in a master list of type List&lt;VariableType&gt;,&nbsp; As a result, there are thousands of objects in the list.&nbsp; For any given object, I would like to be able to see which variable it was created from.&nbsp; How can I do this in Visual C# 2010?</p>\r\n<p>Thanks</p>",
    "PostedDate": "2010-09-16T21:24:34.77-07:00",
    "UserRole": null,
    "MarkedAsAnswerDate": null
  }
]