[
  {
    "Id": "517201",
    "ThreadId": "233518",
    "Html": "\r\n<p>POI?</p>\r\n<p>DDF?</p>\r\n<p>HPSF?</p>\r\n<p>HSSF?</p>\r\n<p>SS?</p>\r\n<p>I want to better understand the intent behind these namespaces.&nbsp; Knowing what the abbreviations are should help.</p>\r\n",
    "PostedDate": "2010-11-04T10:36:58.6-07:00",
    "UserRole": null,
    "MarkedAsAnswerDate": null
  },
  {
    "Id": "518330",
    "ThreadId": "233518",
    "Html": "\r\n<p>I suggest you take a look at poi document. These names are copied from POI project.</p>\r\n",
    "PostedDate": "2010-11-07T01:37:59.73-08:00",
    "UserRole": "Owner",
    "MarkedAsAnswerDate": null
  },
  {
    "Id": "518370",
    "ThreadId": "233518",
    "Html": "\r\n<p>POI - Poor Obfuscation Implementation</p>\r\n<p>POIFS - Poor Obfuscation Implementation File System</p>\r\n<p>DDF - Dreadful Drawing Format</p>\r\n<p>HPSF - Horrible Property Set Format</p>\r\n<p>HSSF - Horrible Spreadsheet Format</p>\r\n<p>HWPF&nbsp;- Horrible Word Processor Format</p>\r\n<p>HSLF - Horrible Slide Layout Format</p>\r\n<p>HDGF - Horrible Diagram Format</p>\r\n<p>HPBF - Horrible Publisher Format</p>\r\n<p>HSMF - Horrible Stupid Message Format</p>\r\n<p>SS - Spreadsheet</p>\r\n<p>XSSF - XML Spreadsheet Format</p>\r\n<p>Ref: <a href=\"http://en.wikipedia.org/wiki/Apache_POI\">http://en.wikipedia.org/wiki/Apache_POI</a></p>\r\n<p>&nbsp;</p>\r\n",
    "PostedDate": "2010-11-07T06:36:41.627-08:00",
    "UserRole": null,
    "MarkedAsAnswerDate": null
  }
]