[
  {
    "Id": "533041",
    "ThreadId": "237633",
    "Html": "\r\n<p>I know it should have been fixed in&nbsp;</p>\r\n<p><a href=\"http://npoi.codeplex.com/SourceControl/changeset/changes/49152\">http://npoi.codeplex.com/SourceControl/changeset/changes/49152</a></p>\r\n<p>&nbsp;</p>\r\n<p>The radio button in the page setup -&gt; page tab is not changing from the Scaling -&gt; Adjust to: 100% normal size &nbsp;to fit to 1 page wide by &quot;&quot; tall.</p>\r\n<p>Any Ideas?</p>\r\n<p>&nbsp;</p>\r\n<p>&nbsp;</p>\r\n<div style=\"color:black; background-color:white\">\r\n<pre>            Workbook hssfworkbook = <span style=\"color:blue\">new</span> HSSFWorkbook();\r\n            Sheet sheet1 = hssfworkbook.CreateSheet(<span style=\"color:#a31515\">&quot;Physical Inventory - &quot;</span>&#43; _readableName);\r\n\r\n            <span style=\"color:green\">//Header and Footer</span>\r\n            sheet1.Header.Center = <span style=\"color:#a31515\">&quot;Physical Inventory - &quot;</span> &#43; _readableName;\r\n            sheet1.Footer.Right = HSSFFooter.Page;\r\n\r\n            <span style=\"color:green\">//Print Settings</span>\r\n            sheet1.PrintSetup.Copies = 1;\r\n            sheet1.PrintSetup.NoColor = <span style=\"color:blue\">true</span>;\r\n            sheet1.PrintSetup.Landscape = <span style=\"color:blue\">true</span>;\r\n            sheet1.PrintSetup.PaperSize = (<span style=\"color:blue\">short</span>)PaperSizeType.A4;\r\n\r\n            sheet1.FitToPage = <span style=\"color:blue\">true</span>;\r\n            sheet1.PrintSetup.FitHeight = 0;\r\n            sheet1.PrintSetup.FitWidth = 1;\r\n            sheet1.IsPrintGridlines = <span style=\"color:blue\">true</span>;\r\n\r\n\r\n\r\n            <span style=\"color:green\">//Styles</span>\r\n            CellStyle style = hssfworkbook.CreateCellStyle();\r\n            style.FillForegroundColor = NPOI.HSSF.Util.HSSFColor.GREY_40_PERCENT.index;\r\n            style.FillPattern = FillPatternType.SOLID_FOREGROUND;\r\n            style.FillBackgroundColor = NPOI.HSSF.Util.HSSFColor.GREY_40_PERCENT.index;\r\n            style.Alignment = HorizontalAlignment.CENTER;\r\n</pre>\r\n</div>\r\n<p>&nbsp;</p>\r\n<div style=\"color:black; background-color:white\">\r\n<pre><br></pre>\r\n</div>\r\n<p>&nbsp;</p>\r\n",
    "PostedDate": "2010-12-08T11:31:29.607-08:00",
    "UserRole": null,
    "MarkedAsAnswerDate": null
  },
  {
    "Id": "542623",
    "ThreadId": "237633",
    "Html": "\r\n<p>You are right. This WSBoolRecord is not merged correctly in AllinOne release. This fix will be released in NPOI 1.2.4</p>\r\n",
    "PostedDate": "2010-12-31T23:21:26.48-08:00",
    "UserRole": "Owner",
    "MarkedAsAnswerDate": null
  },
  {
    "Id": "547508",
    "ThreadId": "237633",
    "Html": "\r\n<p>Hi by when the next release of NPOI is planned..</p>\r\n",
    "PostedDate": "2011-01-11T12:03:12.033-08:00",
    "UserRole": null,
    "MarkedAsAnswerDate": null
  }
]