[
  {
    "Id": "537615",
    "ThreadId": "238812",
    "Html": "\r\n<p>I use new version of NPOI and I coded in my application like that</p>\r\n<p>(reading an exits excel file, does not create new one)</p>\r\n<p>Dim row As HSSFRow<br>\r\nrow = sheet.GetRow(currentRowIndex)<br>\r\n<br>\r\n&nbsp;Dim oCell As HSSFCell<br>\r\n&nbsp;oCell = row.CreateCell(columnIndex)<br>\r\n<br>\r\nif Cell at (currentRowIndex, columnIndex) has already exits it will through an error like this<br>\r\n<br>\r\n&quot;An entry with the same key already exists.&quot;<br>\r\n<br>\r\nError in Detail:</p>\r\n<p>&nbsp;&nbsp; at System.ThrowHelper.ThrowArgumentException(ExceptionResource resource)<br>\r\n&nbsp;&nbsp; at System.Collections.Generic.TreeSet`1.Add(T item)<br>\r\n&nbsp;&nbsp; at System.Collections.Generic.SortedDictionary`2.Add(TKey key, TValue value)<br>\r\n&nbsp;&nbsp; at NPOI.HSSF.UserModel.HSSFRow.AddCell(Cell cell)<br>\r\n&nbsp;&nbsp; at NPOI.HSSF.UserModel.HSSFRow.CreateCell(Int32 columnIndex, CellType type)<br>\r\n&nbsp;&nbsp; at NPOI.HSSF.UserModel.HSSFRow.CreateCell(Int32 column)<br>\r\n<br>\r\n<br>\r\n&nbsp;&nbsp; at Inct.ExportReport.GenerateDataTemplate(DataView dvSource, Int32 iSheet, Int32 iCurrentDataRow) in D:\\CongViec\\DU_AN\\Export to Excel\\Excel_Report7_Inct\\ExportReport.vb:line 422<br>\r\n&nbsp;&nbsp; at Inct.ExportReport.InitExport(String autoZip, ExportType&amp; _exportType) in D:\\CongViec\\DU_AN\\Export to Excel\\Excel_Report7_Inct\\ExportReport.vb:line 150<br>\r\n&nbsp;&nbsp; at Inct.ExportReport.Export(String xml_path, String form_id, Dictionary`2 list_para, String autoZip, ExportType&amp; _exportType) in D:\\CongViec\\DU_AN\\Export to Excel\\Excel_Report7_Inct\\ExportReport.vb:line 73<br>\r\n&nbsp;&nbsp; at Inct.WebForm1.cmdExport3_Click(Object sender, EventArgs e) in D:\\CongViec\\DU_AN\\Export to Excel\\Excel_Report7_Inct\\AppPage\\WebForm1.aspx.vb:line 49<br>\r\n&nbsp;&nbsp; at System.Web.UI.WebControls.Button.OnClick(EventArgs e)<br>\r\n&nbsp;&nbsp; at System.Web.UI.WebControls.Button.RaisePostBackEvent(String eventArgument)<br>\r\n&nbsp;&nbsp; at System.Web.UI.WebControls.Button.System.Web.UI.IPostBackEventHandler.RaisePostBackEvent(String eventArgument)<br>\r\n&nbsp;&nbsp; at System.Web.UI.Page.RaisePostBackEvent(IPostBackEventHandler sourceControl, String eventArgument)<br>\r\n&nbsp;&nbsp; at System.Web.UI.Page.RaisePostBackEvent(NameValueCollection postData)<br>\r\n&nbsp;&nbsp; at System.Web.UI.Page.ProcessRequestMain(Boolean includeStagesBeforeAsyncPoint, Boolean includeStagesAfterAsyncPoint)</p>\r\n<p>&nbsp;</p>\r\n<p>---------------------------</p>\r\n<p>I solved this problem provisionally with this</p>\r\n<p>&quot;IsNot Nothing&quot; in VB.Net means &quot;!= null&quot; in C#</p>\r\n<p>&nbsp;&nbsp;&nbsp;&nbsp;&nbsp;&nbsp;&nbsp;&nbsp;&nbsp;&nbsp;&nbsp;&nbsp;&nbsp;&nbsp;&nbsp;&nbsp;&nbsp;&nbsp;&nbsp;&nbsp;&nbsp;&nbsp; Dim oCell As HSSFCell<br>\r\n&nbsp;&nbsp;&nbsp;&nbsp;&nbsp;&nbsp;&nbsp;&nbsp;&nbsp;&nbsp;&nbsp;&nbsp;&nbsp;&nbsp;&nbsp;&nbsp;&nbsp;&nbsp;&nbsp;&nbsp;&nbsp;&nbsp;&nbsp; If (row.GetCell(columnIndex) IsNot Nothing) Then&nbsp;\r\n<br>\r\n&nbsp;&nbsp;&nbsp;&nbsp;&nbsp;&nbsp;&nbsp;&nbsp;&nbsp;&nbsp;&nbsp;&nbsp;&nbsp;&nbsp;&nbsp;&nbsp;&nbsp;&nbsp;&nbsp;&nbsp;&nbsp;&nbsp;&nbsp;&nbsp;&nbsp;&nbsp;&nbsp; oCell = row.GetCell(columnIndex)<br>\r\n&nbsp;&nbsp;&nbsp;&nbsp;&nbsp;&nbsp;&nbsp;&nbsp;&nbsp;&nbsp;&nbsp;&nbsp;&nbsp;&nbsp;&nbsp;&nbsp;&nbsp;&nbsp;&nbsp;&nbsp;&nbsp;&nbsp;&nbsp; Else<br>\r\n&nbsp;&nbsp;&nbsp;&nbsp;&nbsp;&nbsp;&nbsp;&nbsp;&nbsp;&nbsp;&nbsp;&nbsp;&nbsp;&nbsp;&nbsp;&nbsp;&nbsp;&nbsp;&nbsp;&nbsp;&nbsp;&nbsp;&nbsp;&nbsp;&nbsp;&nbsp;&nbsp; oCell = row.CreateCell(columnIndex)<br>\r\n&nbsp;&nbsp;&nbsp;&nbsp;&nbsp;&nbsp;&nbsp;&nbsp;&nbsp;&nbsp;&nbsp;&nbsp;&nbsp;&nbsp;&nbsp;&nbsp;&nbsp;&nbsp;&nbsp;&nbsp;&nbsp;&nbsp;&nbsp; End If</p>\r\n<p>&nbsp;</p>\r\n<p>Thanks for the good project</p>\r\n",
    "PostedDate": "2010-12-17T19:09:02.093-08:00",
    "UserRole": null,
    "MarkedAsAnswerDate": null
  }
]