[
  {
    "Id": "540475",
    "ThreadId": "239556",
    "Html": "\r\n<p>It is a best practice to create <a href=\"http://msdn.microsoft.com/en-us/library/bhc3fa7f.aspx\">\r\nCLS-compliant </a>class libraries, where possible. NPOI follows CLS requirements, so there is no reason for it not to be CLS-compliant - can this enhancement be provided in the next release? Thanks for a great library.</p>\r\n<p>1. Open AssemblyInfo.cs in the NPOI project</p>\r\n<p>2. Insert the following at the top of the file:</p>\r\n<p>&nbsp;&nbsp; <span style=\"color:blue\">using</span> System;</p>\r\n<div style=\"color:black; background-color:white\">3. Insert the following at the end of the file:</div>\r\n<div style=\"color:black; background-color:white\">\r\n<pre><p>&nbsp;[<span style=\"color:blue\">assembly</span>: CLSCompliant(true)]</p><div style=\"color:black; background-color:white\">\r\n</div>\r\n4. Recompile NPOI</pre>\r\n</div>\r\n",
    "PostedDate": "2010-12-25T19:20:59.323-08:00",
    "UserRole": null,
    "MarkedAsAnswerDate": null
  },
  {
    "Id": "541984",
    "ThreadId": "239556",
    "Html": "\r\n<p>I may not understand the tag well. So what will happen without this tag? Compile error?</p>\r\n",
    "PostedDate": "2010-12-29T19:39:22.23-08:00",
    "UserRole": "Owner",
    "MarkedAsAnswerDate": null
  },
  {
    "Id": "542695",
    "ThreadId": "239556",
    "Html": "\r\n<p>A CLS-compliant library should only refer to other CLS-compliant libraries. So if I try to make my own library CLS-compliant, I get a compiler warning when I refer to NPOI. This is unnecessary as NPOI can easily be made CLS-compliant.</p>\r\n<p>Thanks.</p>\r\n",
    "PostedDate": "2011-01-01T10:18:20.3-08:00",
    "UserRole": null,
    "MarkedAsAnswerDate": null
  }
]