[
  {
    "Id": "551242",
    "ThreadId": "242251",
    "Html": "\r\n<p>I need to export data into Excel, but need to use a template (.xls file) that has other content as well.</p>\r\n<p>When I insert rows into the excel file (in between where i need to set the data that i'm exporting) and try to set the borders for the rows (cellstyle), I just don't see the borders for the rows that I set the style to, but instead entire generated excel\r\n has the cellstyle changed to the border that I'm setting. Following is my code.</p>\r\n<p></p>\r\n<div style=\"color:black; background-color:white\">\r\n<pre> myPath = <span style=\"color:blue\">string</span>.Concat(Server.MapPath(<span style=\"color:#a31515\">&quot;~&quot;</span>), myPath, <span style=\"color:#a31515\">&quot;RFQ_Costed_BOM.xls&quot;</span>);\r\n\r\n            NPOI.HSSF.UserModel.HSSFWorkbook workbook = <span style=\"color:blue\">new</span> NPOI.HSSF.UserModel.HSSFWorkbook();\r\n            HSSFSheet worksheet;\r\n            \r\n            FileStream fs = <span style=\"color:blue\">new</span> FileStream(myPath, FileMode.Open, FileAccess.Read);\r\n            workbook = <span style=\"color:blue\">new</span> HSSFWorkbook(fs, <span style=\"color:blue\">true</span>);\r\n            worksheet = (HSSFSheet)workbook.GetSheetAt(0);\r\n\r\n         \r\n            <span style=\"color:blue\">for</span> (<span style=\"color:blue\">int</span> j = iExcelRow; j &lt; iExcelRow &#43; iRows; j&#43;&#43;)\r\n            {\r\n                HSSFRow row = (HSSFRow)worksheet.CreateRow(j);\r\n                <span style=\"color:blue\">for</span> (<span style=\"color:blue\">int</span> l = 0; l &lt; 12; l&#43;&#43;)\r\n                { \r\n                    HSSFCell cell =  (HSSFCell)row.CreateCell(l);\r\n                    cell.CellStyle.BorderBottom = NPOI.SS.UserModel.CellBorderType.THIN;\r\n                }\r\n            \r\n            }\r\n</pre>\r\n<pre>Keen to know what might be going wrong.</pre>\r\n</div>\r\n<p></p>\r\n",
    "PostedDate": "2011-01-18T06:45:44.843-08:00",
    "UserRole": null,
    "MarkedAsAnswerDate": null
  }
]