[
  {
    "Id": "553005",
    "ThreadId": "242700",
    "Html": "\r\n<p>printsetup</p>\r\n<p>Macro1 Macro:ActiveSheet.PageSetup.PrintTitleRows = &quot;$3:$4&quot;</p>\r\n<p>---</p>\r\n<p>Sheet sheet1=hssfworkbook.CreateSheet(&quot;Sheet1&quot;);<br>\r\nsheet1.PrintSetup.?&nbsp;&nbsp; ------no PageSetup.PrintTitleRows function</p>\r\n<p>can new ver add this function?</p>\r\n",
    "PostedDate": "2011-01-20T23:12:18.603-08:00",
    "UserRole": null,
    "MarkedAsAnswerDate": null
  }
]