[
  {
    "Id": "566929",
    "ThreadId": "246227",
    "Html": "\r\n<p>Hello Tony,</p>\r\n<p>I notice that the FilePass record class exists.&nbsp; But I didn't find any code to invoke it.&nbsp; Can NPOI generate an xls file with open password(not write protected)?</p>\r\n<p>Thanks,</p>\r\n",
    "PostedDate": "2011-02-15T22:27:15.513-08:00",
    "UserRole": null,
    "MarkedAsAnswerDate": null
  },
  {
    "Id": "567706",
    "ThreadId": "246227",
    "Html": "<p>Resolved this problem myself.</p>",
    "PostedDate": "2011-02-17T01:29:55.637-08:00",
    "UserRole": null,
    "MarkedAsAnswerDate": null
  }
]