[
  {
    "Id": "583498",
    "ThreadId": "250476",
    "Html": "\r\n<p>Has anyone successfully set new custom colours in the Excel palette? It seems to accept the change, but does not save it into the workbook. Below is my function. The return Short data is stored in the font style or fill foreground. I have no problem setting\r\n one of the predefined colours or using HSSFPalette.FindSimilarColor.</p>\r\n<div style=\"color:black; background-color:white\">\r\n<pre><span style=\"color:blue\">Private</span> <span style=\"color:blue\">Function</span> GetXLColour(<span style=\"color:blue\">ByVal</span> SystemColour <span style=\"color:blue\">As</span> System.Drawing.Color) <span style=\"color:blue\">As</span> <span style=\"color:blue\">Short</span>\r\n    <span style=\"color:blue\">Dim</span> XlPalette <span style=\"color:blue\">As</span> HSSFPalette = xlWorkbook.GetCustomPalette()\r\n    <span style=\"color:blue\">Dim</span> XlColour <span style=\"color:blue\">As</span> NPOI.HSSF.Util.HSSFColor = XlPalette.FindColor(SystemColour.R, SystemColour.G, SystemColour.B)\r\n    <span style=\"color:blue\">If</span> IsNothing(XlColour) <span style=\"color:blue\">Then</span>\r\n        XlLastCustomColour &#43;= 1\r\n        XlPalette.SetColorAtIndex(XlLastCustomColour, SystemColour.R, SystemColour.G, SystemColour.B)\r\n        <span style=\"color:blue\">Return</span> XlLastCustomColour\r\n    <span style=\"color:blue\">Else</span>\r\n        <span style=\"color:blue\">Return</span> XlColour.GetIndex()\r\n    <span style=\"color:blue\">End</span> <span style=\"color:blue\">If</span>\r\n<span style=\"color:blue\">End</span> <span style=\"color:blue\">Function</span>\r\n</pre>\r\n</div>\r\n<div style=\"color:black; background-color:white\">\r\n<pre>example call: xlFont.Color = GetXLColour(TableCell.ForeColor)</pre>\r\n<pre>example call: xlStyle.FillForegroundColor = GetXLColour(TableCell.BackColor)\r\n</pre>\r\n</div>\r\n<p>I initially set&nbsp;<span style=\"font-family:Consolas,'Courier New',Courier,monospace; white-space:pre\">XlLastCustomColour = 64</span> so to avoid the standard palette (custom palette indexes: 65 to 32766). Even if i overwrite the palette from index 0,\r\n nothing happens (it uses the predefined colours).</p>\r\n",
    "PostedDate": "2011-03-20T21:42:01.43-07:00",
    "UserRole": null,
    "MarkedAsAnswerDate": null
  },
  {
    "Id": "585009",
    "ThreadId": "250476",
    "Html": "<p>I found a solution. SetColorAtIndex still doesn't work, but i found AddColour. The palette size it set to 56 (i think it should be 64), so i had to patch that to +1 so i can add a colour. Strangely, It only accepts a Byte index where it should be Int32. Anyway, at least i can add almost 200 colours now.</p>\r\n<p>\r\n<div style=\"color: black; background-color: white;\">\r\n<pre>        <span style=\"color: blue;\">Private</span> <span style=\"color: blue;\">Function</span> GetXLColour(<span style=\"color: blue;\">ByVal</span> SystemColour <span style=\"color: blue;\">As</span> System.Drawing.Color) <span style=\"color: blue;\">As</span> <span style=\"color: blue;\">Short</span>\r\n            <span style=\"color: green;\">'Lookup RGB from .NET system colour in Excel pallete - or create a new entry (get nearest if palette full). Return the XL palette index.</span>\r\n            <span style=\"color: blue;\">Dim</span> XlPalette <span style=\"color: blue;\">As</span> HSSFPalette = xlWorkbook.GetCustomPalette()\r\n            <span style=\"color: blue;\">Dim</span> XlColour <span style=\"color: blue;\">As</span> NPOI.HSSF.Util.HSSFColor = XlPalette.FindColor(SystemColour.R, SystemColour.G, SystemColour.B)\r\n            <span style=\"color: blue;\">If</span> IsNothing(XlColour) <span style=\"color: blue;\">Then</span>\r\n                <span style=\"color: green;\">'Available colour palette entries: 65 to 32766 (0-64=standard palette; 64=auto, 32767=unspecified)</span>\r\n                <span style=\"color: blue;\">If</span> NPOI.HSSF.Record.PaletteRecord.STANDARD_PALETTE_SIZE &lt; 255 <span style=\"color: blue;\">Then</span>\r\n                    <span style=\"color: blue;\">If</span> NPOI.HSSF.Record.PaletteRecord.STANDARD_PALETTE_SIZE &lt; 64 <span style=\"color: blue;\">Then</span> NPOI.HSSF.Record.PaletteRecord.STANDARD_PALETTE_SIZE = 64\r\n                    NPOI.HSSF.Record.PaletteRecord.STANDARD_PALETTE_SIZE += 1\r\n                    XlColour = XlPalette.AddColor(SystemColour.R, SystemColour.G, SystemColour.B)\r\n                <span style=\"color: blue;\">Else</span>\r\n                    XlColour = XlPalette.FindSimilarColor(SystemColour.R, SystemColour.G, SystemColour.B)\r\n                <span style=\"color: blue;\">End</span> <span style=\"color: blue;\">If</span>\r\n                <span style=\"color: blue;\">Return</span> XlColour.GetIndex()\r\n            <span style=\"color: blue;\">Else</span>\r\n                <span style=\"color: blue;\">Return</span> XlColour.GetIndex()\r\n            <span style=\"color: blue;\">End</span> <span style=\"color: blue;\">If</span>\r\n        <span style=\"color: blue;\">End</span> <span style=\"color: blue;\">Function</span>\r\n</pre>\r\n</div>\r\n</p>",
    "PostedDate": "2011-03-23T06:38:52.487-07:00",
    "UserRole": null,
    "MarkedAsAnswerDate": null
  },
  {
    "Id": "630760",
    "ThreadId": "250476",
    "Html": "<p>The first color that you add doesn't seem to work (returns the automatic color which is all black). &nbsp;So if you are just worried about one color, like I happened to be, add a dummy color first and then add your color and it should work OK. &nbsp;Unless I just did something incorrectly the first time.</p>",
    "PostedDate": "2011-06-21T13:27:31.16-07:00",
    "UserRole": null,
    "MarkedAsAnswerDate": null
  },
  {
    "Id": "768137",
    "ThreadId": "250476",
    "Html": "<p>Thanks for the above suggestion</p>",
    "PostedDate": "2012-02-15T12:02:52.47-08:00",
    "UserRole": null,
    "MarkedAsAnswerDate": null
  },
  {
    "Id": "800056",
    "ThreadId": "250476",
    "Html": "<p>Since xls only support 56+8 colors, you have to change the default pallette generated by NPOI.</p>",
    "PostedDate": "2012-02-26T03:26:59.343-08:00",
    "UserRole": "Owner",
    "MarkedAsAnswerDate": null
  },
  {
    "Id": "1164847",
    "ThreadId": "250476",
    "Html": "Good morning, I sorry if don't must write in this post, but when I try this sample, I obtain an error in the lines POI.HSSF.Record.PaletteRecord.STANDARD_PALETTE_SIZE = 64 and NPOI.HSSF.Record.PaletteRecord.STANDARD_PALETTE_SIZE += 1 because STANDARD_PALETTE_SIZE is a constant.\r<br />\n<br />\nWhat I must do for add a new color?\r<br />\n<br />\nThank you.\r<br />\n<br />\nJavier.<br />\n",
    "PostedDate": "2014-01-14T04:54:37.843-08:00",
    "UserRole": null,
    "MarkedAsAnswerDate": null
  },
  {
    "Id": "1228495",
    "ThreadId": "250476",
    "Html": "<strong>tonyqus wrote:</strong><br />\n<blockquote>\nSince xls only support 56+8 colors, you have to change the default pallette generated by NPOI.<br />\n</blockquote>\nHi! How to change the default pallete? please write the sample code<br />\n",
    "PostedDate": "2014-03-31T01:37:03.87-07:00",
    "UserRole": null,
    "MarkedAsAnswerDate": null
  }
]