[
  {
    "Id": "592141",
    "ThreadId": "252610",
    "Html": "\r\n<p>Why I am here? : I have developed a small application to format the Excel files in a specific format in order to import them into another third party application. The formatting tasks includes Adding rows &amp;\r\n<span style=\"color:black; font-size:10pt\">columns</span>, rearranging the cols, removing un-<span style=\"color:black; font-size:10pt\">necessary\r\n</span>words, changing the data formats, checking the duplicate row etc. I am using Microsoft.Office.Interop.Excel objects in C# to do these tasks. Everything is running fine. However, when this program runs, the user cannot&nbsp;work or open&nbsp;another Excel\r\n workbook or&nbsp;Excel&nbsp;application.&nbsp;Whenever user&nbsp;try to&nbsp;open or work on another Excel file, this application is throwing an exception error. The core reason of the problem is Excel.Application&nbsp;object is not capable&nbsp;to handle\r\n multiple instances.&nbsp;If the program&nbsp;start work on this object it&nbsp;expects 'exclusive access' to this object. This becoming a major issue and need to find a good solution</p>\r\n<p>I have posted few questions on MSDN to get some solution, but many of them pointed NPOI</p>\r\n<p>My Questions</p>\r\n<p>1. I am using Visual Studio 2010. Does NPOI current version supports .Net 4?</p>\r\n<p>2. Most of our users having Office 2007; Does NPOI supports office 2007 and or .XLSX format files?</p>\r\n<p>3. Can NPOI handle multiple instances of the Excel?</p>\r\n<p>Please help me to find the answers for these question before I start to spend time on NPOI</p>\r\n<p>&nbsp;</p>\r\n<p>Thanks a lot</p>\r\n<p>&nbsp;</p>\r\n",
    "PostedDate": "2011-04-05T09:02:39.373-07:00",
    "UserRole": null,
    "MarkedAsAnswerDate": null
  },
  {
    "Id": "592191",
    "ThreadId": "252610",
    "Html": "<p>I only have experience with item #1. I have a test project running perfectly under .NET 4 with VS2010. I am still testing and have not learned to use all functions yet, but there doesn't seem to be any problem.</p>\r\n<p>Regarding #3, I think you should have no problem because NPOI doesn't use Excel at all. Everything is done through raw file accesses rather than using Excel as an interface, so I think there won't be an issue.</p>\r\n<p>Hope this helps.</p>",
    "PostedDate": "2011-04-05T09:58:49.457-07:00",
    "UserRole": null,
    "MarkedAsAnswerDate": null
  },
  {
    "Id": "592237",
    "ThreadId": "252610",
    "Html": "<p>Thanks brimars for the reply. I wll try to do a small test project on this using VS2010 and Office 2007</p>\r\n<p>&nbsp;</p>",
    "PostedDate": "2011-04-05T11:11:53.367-07:00",
    "UserRole": null,
    "MarkedAsAnswerDate": null
  },
  {
    "Id": "592578",
    "ThreadId": "252610",
    "Html": "<p>So far, NPOI only supports Office 2003 formats, which is compatible with Office 2007.</p>",
    "PostedDate": "2011-04-06T00:19:02.533-07:00",
    "UserRole": "Owner",
    "MarkedAsAnswerDate": null
  }
]