[
  {
    "Id": "607016",
    "ThreadId": "256302",
    "Html": "\r\n<p>I would like to know if it is possible to move or to insert worksheets?&nbsp; I have a template with 2 spreadsheets and I want to add more sheets to it but I would like the second (original spreadsheet) moved to the end of the final document.<br>\r\n<br>\r\nTemplate: Sheet1, Sheet2<br>\r\n<br>\r\nEnd result; Sheet1, Sheet3, Sheet4, Sheet2</p>\r\n<p>&nbsp;</p>\r\n<p>Can this be done?</p>\r\n",
    "PostedDate": "2011-05-04T04:47:17.083-07:00",
    "UserRole": null,
    "MarkedAsAnswerDate": null
  },
  {
    "Id": "608683",
    "ThreadId": "256302",
    "Html": "<p>@jpretorius: if you haven't already come across the answer, here is a VB.NET sample that will open an existing file, create 2 new sheets, move the 2nd created sheet to the second sheet position in the file and move the 1st created sheet to the next-to-last  sheet position, then save the entire workbook to a new file. If you need a C# example, let me know. It's very similar...</p>\n<p>Edit: I meant to mention that due to the similarities of NPOI with the original Java-based POI project, you can often search Google (for example, POI Change Sheet Index) and find something that might give a hint to the correct method or property.</p>\n<pre>            Dim FS as IO.FileStream<br />            FS = <span style=\"color: blue;\">New</span> IO.FileStream(\"C:\\Test.xls\", IO.FileMode.Open)\n            <span style=\"color: blue;\">Me</span>.MessageLabel.Text = sStep\n            WorkBook = <span style=\"color: blue;\">New</span> HSSFWorkbook(FS)\n            WorkBook.CreateSheet(<span style=\"color: #a31515;\">\"Test\"</span>)\n            WorkBook.CreateSheet(<span style=\"color: #a31515;\">\"Test2\"</span>)\n            WorkBook.SetSheetOrder(<span style=\"color: #a31515;\">\"Test2\"</span>, 1)\n            WorkBook.SetSheetOrder(<span style=\"color: #a31515;\">\"Test\"</span>, WorkBook.NumberOfSheets - 1)\n            FS = <span style=\"color: blue;\">New</span> IO.FileStream(<span style=\"color: #a31515;\">\"C:\\TestNew.xls\"</span>, IO.FileMode.Create)\n            WorkBook.Write(FS)\n            FS.Close()<br /><br /></pre>",
    "PostedDate": "2011-05-06T12:46:02.313-07:00",
    "UserRole": null,
    "MarkedAsAnswerDate": null
  },
  {
    "Id": "613960",
    "ThreadId": "256302",
    "Html": "<p>Thank you brimars!</p>\r\n<p>&nbsp;</p>\r\n<p>That is so easy!&nbsp; Many thanks for your help!</p>\r\n<p>&nbsp;</p>",
    "PostedDate": "2011-05-17T07:38:18.18-07:00",
    "UserRole": null,
    "MarkedAsAnswerDate": null
  }
]