[
  {
    "Id": "609766",
    "ThreadId": "256962",
    "Html": "\r\n<p>@Tony (mainly): Is there a plan to try to migrate users and existing discussions to GoogleCode, or is the plan to release 1.2.4 and simply start &quot;fresh&quot; with a new base source code package and discussions? I wasn't sure if there was any mechanism to move\r\n the existing discussions, but several of them provide good insight into the .NET issues and concerns.</p>\r\n<p>Regards, Brian.</p>\r\n",
    "PostedDate": "2011-05-09T13:49:48.857-07:00",
    "UserRole": null,
    "MarkedAsAnswerDate": null
  }
]