[
  {
    "Id": "616387",
    "ThreadId": "258537",
    "Html": "\r\n<p>Given a worksheet with an embedded picture, how can I copy the picture and paste another one below the original?</p>\r\n",
    "PostedDate": "2011-05-22T07:06:50.43-07:00",
    "UserRole": null,
    "MarkedAsAnswerDate": null
  }
]