[
  {
    "Id": "619241",
    "ThreadId": "259244",
    "Html": "\r\n<p>Hello,</p>\r\n<p>I want that first row of excel should have vertical texts for that I had write below code then i get excel sheet with vertical texts.</p>\r\n<p><strong>Style.Rotation = (short)90</strong></p>\r\n<p>But I also want Auto size column command for all columns in excel sheets. Then it gives me exception as below.<strong>&nbsp;</strong></p>\r\n<p style=\"padding-left:30px\">&nbsp;</p>\r\n<p style=\"padding-left:30px\"><strong>Base Error Description: </strong>System.NotImplementedException: The method or operation is not implemented. at NPOI.HSSF.UserModel.HSSFSheet.AutoSizeColumn(Int32 column, Boolean useMergedCells) at NPOI.HSSF.UserModel.HSSFSheet.AutoSizeColumn(Int32\r\n column) at TalentnowReportsLibrary.Excel.FillSheet(HSSFWorkbook oHSSFWorkbook, HSSFSheet oSheet, DataTable dt) at TalentnowReportsLibrary.Excel.GenerateExcel(DataSet oDstTalentNowJobPortal, String savePath, String&amp; fileName)</p>\r\n<p style=\"padding-left:30px\"><strong>Base Error Message: </strong>The method or operation is not implemented.</p>\r\n<p style=\"padding-left:30px\"><strong>Base Error Source: </strong>NPOI</p>\r\n<p style=\"padding-left:30px\"><strong>Base Error StackTrace: </strong>at NPOI.HSSF.UserModel.HSSFSheet.AutoSizeColumn(Int32 column, Boolean useMergedCells) at NPOI.HSSF.UserModel.HSSFSheet.AutoSizeColumn(Int32 column) at TalentnowReportsLibrary.Excel.FillSheet(HSSFWorkbook\r\n oHSSFWorkbook, HSSFSheet oSheet, DataTable dt) at TalentnowReportsLibrary.Excel.GenerateExcel(DataSet oDstTalentNowJobPortal, String savePath, String&amp; fileName)</p>\r\n<p style=\"padding-left:30px\"><strong>Last Error Description: </strong>System.NotImplementedException: The method or operation is not implemented. at NPOI.HSSF.UserModel.HSSFSheet.AutoSizeColumn(Int32 column, Boolean useMergedCells) at NPOI.HSSF.UserModel.HSSFSheet.AutoSizeColumn(Int32\r\n column) at TalentnowReportsLibrary.Excel.FillSheet(HSSFWorkbook oHSSFWorkbook, HSSFSheet oSheet, DataTable dt) at TalentnowReportsLibrary.Excel.GenerateExcel(DataSet oDstTalentNowJobPortal, String savePath, String&amp; fileName)</p>\r\n<p>Provide me the solution for that as soon as possible.</p>\r\n<p>&nbsp;</p>\r\n<p>Thanks,</p>\r\n<p>Saharsh</p>\r\n",
    "PostedDate": "2011-05-27T04:24:32.963-07:00",
    "UserRole": null,
    "MarkedAsAnswerDate": null
  },
  {
    "Id": "620496",
    "ThreadId": "259244",
    "Html": "<p>The width calculation of text rotation is never supported. This is a known issue. Sorry for that.</p>",
    "PostedDate": "2011-05-30T16:52:48.57-07:00",
    "UserRole": "Owner",
    "MarkedAsAnswerDate": null
  }
]