[
  {
    "Id": "619986",
    "ThreadId": "259432",
    "Html": "\r\n<p>I tried using&nbsp;<span style=\"color:#0000ff\">CellRangeAddress </span>to create ranges, then using\r\n<span style=\"color:#0000ff\">SetBorderTopOfRegion </span>to set the 4 borders of this region. But i found it really slow when running the program. Without setting the borders, my program can finish in seconds, but creating regions and setting the borders of\r\n the region can cost a dozen minutes.</p>\r\n<p>Is there a better way to set the borders of a certain region?</p>\r\n",
    "PostedDate": "2011-05-29T09:03:55.133-07:00",
    "UserRole": null,
    "MarkedAsAnswerDate": null
  }
]