[
  {
    "Id": "635221",
    "ThreadId": "263366",
    "Html": "\r\n<p>I was using 1.2.1 version of the library for over a year, and everything worked like a charm.</p>\r\n<p>Recently I have updated the library references to version 1.2.3 - I needed some new features that were introduced.</p>\r\n<p>After fixing some names in the project, everything compiled well, but when I tried to export data to an excel sheet, I got only the last columns visible in every sheet. I'v tried opening excel document with Excel 2003, Excel 2007 and 2010 - result was the\r\n same.</p>\r\n<p>I also opened the generated document in Notepad&#43;&#43; and on my surprise all columns names(headers) and values were there. But when I resave the document from Excel, all invisible columns/rows dissapear from the document(previosly seen through Notepad&#43;&#43;).</p>\r\n<p>I have tried with 1.2.2 and 1.2.4 versions of the library as well, but with no&nbsp;change in the result.</p>\r\n<p>I need help correcting this problem ...</p>\r\n<p>&nbsp;</p>\r\n",
    "PostedDate": "2011-06-29T23:52:19.667-07:00",
    "UserRole": null,
    "MarkedAsAnswerDate": null
  }
]