[
  {
    "Id": "647126",
    "ThreadId": "266459",
    "Html": "\r\n<p>Hello,</p>\r\n<p>I am facing an issue when creating an excel sheet using Template.</p>\r\n<p>I found an issue when Auto filter is applying this error comes on opening an excel file.</p>\r\n<p><strong>Microsoft Office Excel File Repair Log</strong><br>\r\n<br>\r\n<strong>Errors were detected in file 'C:\\Documents and Settings\\saharsh.shah\\Desktop\\Candidates_Jul-25-2011-180818.xls'</strong><br>\r\n<strong>The following is a list of repairs:</strong><br>\r\n<br>\r\n<strong>Damage to the file was so extensive that repairs were not possible. Excel attempted to recover your formulas and values, but some data may have been lost or corrupted.</strong></p>\r\n<p>&nbsp;</p>\r\n<p>For that I had use this code:</p>\r\n<p>&nbsp;&nbsp;&nbsp;&nbsp;&nbsp;&nbsp;&nbsp;&nbsp;&nbsp;&nbsp;&nbsp;&nbsp;&nbsp;&nbsp;&nbsp; FileStream fs = new FileStream(templatePath, FileMode.Open, FileAccess.Read);<br>\r\n&nbsp;&nbsp;&nbsp;&nbsp;&nbsp;&nbsp;&nbsp;&nbsp;&nbsp;&nbsp;&nbsp;&nbsp;&nbsp;&nbsp;&nbsp; HSSFWorkbook oHSSFWorkbook = new HSSFWorkbook(fs);<br>\r\n&nbsp;&nbsp;&nbsp;&nbsp;&nbsp;&nbsp;&nbsp;&nbsp;&nbsp;&nbsp;&nbsp;&nbsp;&nbsp;&nbsp;&nbsp; HSSFSheet oSheet = (HSSFSheet)oHSSFWorkbook.GetSheet(dt.TableName);</p>\r\n<p>&nbsp;&nbsp;&nbsp;&nbsp;&nbsp;&nbsp;&nbsp;&nbsp;&nbsp;&nbsp;&nbsp;&nbsp;&nbsp;&nbsp;&nbsp; oSheet.SetAutoFilter(new CellRangeAddress(m, m &#43; dt.Rows.Count - 1, 0, dt.Columns.Count - 1));</p>\r\n<p>where m stands for Last row number before adding data to sheet from data table, and dt stands for data table.</p>\r\n<p>Please provide me solution as soon as possible.</p>\r\n<p>Best Regards,</p>\r\n<p>Saharsh</p>\r\n",
    "PostedDate": "2011-07-25T06:23:06.82-07:00",
    "UserRole": null,
    "MarkedAsAnswerDate": null
  }
]