[
  {
    "Id": "690858",
    "ThreadId": "277568",
    "Html": "<p>I am new to NPOI and am having an issue getting the proper cell formatting when reading in from a worksheet. &nbsp;The information I am reading in will only be accurate when the cell format is set to \"text\" instead of the default of \"general.\" &nbsp;I need to verify  that when a file is imported, the cells are formatted to \"text\" and if not, an error message is generated. &nbsp;I am using:</p>\n<p>string&nbsp;strColTest = sheet.GetRow(0).GetCell(0).CellType.ToString();</p>\n<p>and get a return of \"STRING\" whether the cell is formatted as general or text. &nbsp;Is there another way that I am missing?</p>\n<p>I am also attempting this using:&nbsp;</p>\n<p>strColTest = sheet.GetRow(0).GetCell(0).CellStyle.ToString();&nbsp;</p>\n<p>This is returning \"NPOI.HSSF.UserModel.HSSFCellStyle\"</p>\n<p>Any help would be greatly appreciated, thanks!</p>",
    "PostedDate": "2011-10-28T08:33:53.08-07:00",
    "UserRole": null,
    "MarkedAsAnswerDate": null
  }
]