[
  {
    "Id": "714227",
    "ThreadId": "283466",
    "Html": "\r\n<p>Hello,</p>\r\n<p>I'm probably missing something very obvious but how do I compile just one single NPOI.dll when I build right now I get all the separate dlls built rather than one just one large NPOI.dll</p>\r\n<p>Thanks!</p>\r\n<p>Fdomain</p>\r\n",
    "PostedDate": "2011-12-19T06:48:36.49-08:00",
    "UserRole": null,
    "MarkedAsAnswerDate": null
  },
  {
    "Id": "714241",
    "ThreadId": "283466",
    "Html": "<p>Please get the latest code from svn. NPOI's assemblies&nbsp;have been&nbsp;merged into one assembly since NPOI 1.2.3.</p>",
    "PostedDate": "2011-12-19T07:06:17.96-08:00",
    "UserRole": "Owner",
    "MarkedAsAnswerDate": null
  },
  {
    "Id": "714244",
    "ThreadId": "283466",
    "Html": "<p>I actually have the latest version, however I was opening the solution under NPOI instead of the \"AllInOne\". All good now thanks for the really quick response. Great library by the way I have been using it for about 6 months, keep up the great work!</p>",
    "PostedDate": "2011-12-19T07:10:14.007-08:00",
    "UserRole": null,
    "MarkedAsAnswerDate": null
  }
]