[
  {
    "Id": "720757",
    "ThreadId": "285071",
    "Html": "\r\n<p>Hi,</p>\r\n<p>I export the data into sheet1 call &quot;POB&quot; &nbsp;using my excel template. All exported data are showing correctly in &quot;POB&quot; sheet.</p>\r\n<p>But in sheet2 I used formula =PROPER(POB!B3) at cell A1 of Sheet 2 but nothing is showing.&nbsp;</p>\r\n<p>If I open the template manually and enter the data in cell B3 of Sheet1, it is working.</p>\r\n<p>Please let me know why all of my formula are gone.&nbsp;</p>\r\n<p>&nbsp;</p>\r\n<p>Thanks</p>\r\n<p>Alex</p>\r\n",
    "PostedDate": "2012-01-05T04:20:49.1-08:00",
    "UserRole": null,
    "MarkedAsAnswerDate": null
  }
]