[
  {
    "Id": "726156",
    "ThreadId": "286377",
    "Html": "\r\n<p>We have specific requirement to merge two xls files each having few sheets. We would like to know how to copy a sheet from one workbook to another using NPOI.</p>\r\n",
    "PostedDate": "2012-01-16T22:22:59.863-08:00",
    "UserRole": null,
    "MarkedAsAnswerDate": null
  }
]