[
  {
    "Id": "803616",
    "ThreadId": "346833",
    "Html": "\r\n<p>Hi,</p>\r\n<p>it's possible to set current view?</p>\r\n<p>Current view can be Normal, Page Layout, or Page Break Preview.</p>\r\n<p>Thanks</p>\r\n",
    "PostedDate": "2012-03-01T01:23:37.08-08:00",
    "UserRole": null,
    "MarkedAsAnswerDate": null
  }
]