[
  {
    "Id": "806092",
    "ThreadId": "347463",
    "Html": "\r\n<p>Hello I saw that the library supports these formats but I really can't find any example how to read from these extensions</p>\r\n<p>Thanks for the help</p>\r\n<p>All the best</p>\r\n<p>Dimitar</p>\r\n",
    "PostedDate": "2012-03-06T02:12:37.477-08:00",
    "UserRole": null,
    "MarkedAsAnswerDate": null
  },
  {
    "Id": "832451",
    "ThreadId": "347463",
    "Html": "<p>.doc is supported. But NPOI only supports reading Word files. ppt is not supported yet.</p>\r\n<p>To get the code of Word, you can download from googlecode svn. It's in ScratchPad folder.</p>",
    "PostedDate": "2012-05-05T00:54:14.267-07:00",
    "UserRole": "Owner",
    "MarkedAsAnswerDate": null
  }
]