[
  {
    "Id": "814091",
    "ThreadId": "349631",
    "Html": "<p>Hi,</p>\n<p>How can we set FontName for a cell. Is there any available list for the fontnames out of which I can select any of them.</p>\n<p>Looking around forums I could only find out that the FontName is just set like a string. If we have choice to select for any available font that would be really helping(such as like TimesNewRoman, Arial, verdana etc).</p>",
    "PostedDate": "2012-03-22T08:08:18.907-07:00",
    "UserRole": null,
    "MarkedAsAnswerDate": null
  }
]