[
  {
    "Id": "846464",
    "ThreadId": "358830",
    "Html": "\r\n<p>Good day,</p>\r\n<p>I want to use conditional formatting to format a cell if the value is either Fail or Pass. I tried the following:</p>\r\n<p>&nbsp;</p>\r\n<div style=\"color:black; background-color:white\">\r\n<pre>InitializeWorkbook();\r\nISheet sheet1 = hssfworkbook.CreateSheet(<span style=\"color:#a31515\">&quot;Test&quot;</span>);\r\nISheetConditionalFormatting hscf = sheet1.SheetConditionalFormatting;\r\n\r\nIConditionalFormattingRule cfrFail = hscf.CreateConditionalFormattingRule(\r\n    ComparisonOperator.EQUAL, <span style=\"color:#a31515\">&quot;Fail&quot;</span>);\r\n\r\nIConditionalFormattingRule cfrPass = hscf.CreateConditionalFormattingRule(\r\n    ComparisonOperator.EQUAL, <span style=\"color:#a31515\">&quot;Pass&quot;</span>);\r\n\r\nIConditionalFormattingRule[] rules = { cfrPass, cfrFail };\r\n\r\nIPatternFormatting pfRed = cfrFail.CreatePatternFormatting();\r\npfRed.FillBackgroundColor = NPOI.HSSF.Util.HSSFColor.RED.index;\r\n\r\nIPatternFormatting pfGreen = cfrPass.CreatePatternFormatting();\r\npfGreen.FillBackgroundColor = NPOI.HSSF.Util.HSSFColor.GREEN.index;\r\n\r\nCellRangeAddress[] regions = {\r\n    <span style=\"color:blue\">new</span> CellRangeAddress(0, 65535,0,1)\r\n};\r\n\r\nhscf.AddConditionalFormatting(regions, rules);\r\n</pre>\r\n</div>\r\n<p>&nbsp;</p>\r\n<p>It gives a run time error: &quot;Unhandled Exception: NPOI.SS.Formula.FormulaParseException: Specified named range 'Fail' does not exist in the current workbook.&quot;</p>\r\n<p>So my question is, how do I test for a string value?</p>\r\n<p>Thank you</p>\r\n",
    "PostedDate": "2012-06-08T01:59:56.037-07:00",
    "UserRole": null,
    "MarkedAsAnswerDate": null
  }
]