[
  {
    "Id": "852034",
    "ThreadId": "360441",
    "Html": "\r\n<p>Please, give me tutorial by using NPOI with Word.</p>\r\n<p>I cannot find this.&nbsp;</p>\r\n<p>Kind Regards</p>\r\n",
    "PostedDate": "2012-06-21T03:25:48.9-07:00",
    "UserRole": null,
    "MarkedAsAnswerDate": null
  },
  {
    "Id": "892009",
    "ThreadId": "360441",
    "Html": "<p>The Word part (HWPF) is not stable as expected. It's not recommended to use it. Sorry for any inconvenience.</p>",
    "PostedDate": "2012-07-26T16:05:01.397-07:00",
    "UserRole": "Owner",
    "MarkedAsAnswerDate": null
  }
]