[
  {
    "Id": "852634",
    "ThreadId": "360607",
    "Html": "\r\n<p>I'm using the following code to read Word file :</p>\r\n<p>Dim fStream As New FileStream(name, FileMode.Open, FileAccess.Read)<br>\r\nDim doc As HWPFDocument<br>\r\ndoc = New HWPFDocument(fStream)</p>\r\n<p>but i'm getting the&nbsp;following error :&nbsp;</p>\r\n<p>Method not found: 'NPOI.POIFS.FileSystem.POIFSDocumentReader NPOI.POIFS.FileSystem.DirectoryNode.CreatePOIFSDocumentReader(System.String)'.</p>\r\n<p>&nbsp;</p>\r\n<p>Could you please help ASAP ?</p>\r\n",
    "PostedDate": "2012-06-22T08:35:58.1-07:00",
    "UserRole": null,
    "MarkedAsAnswerDate": null
  },
  {
    "Id": "892008",
    "ThreadId": "360607",
    "Html": "<p>which version are you using?</p>",
    "PostedDate": "2012-07-26T16:03:53.947-07:00",
    "UserRole": "Owner",
    "MarkedAsAnswerDate": null
  }
]