[
  {
    "Id": "867454",
    "ThreadId": "368678",
    "Html": "\r\n<p>Hi,</p>\r\n<p>I want to set font for header different to bold. I use</p>\r\n<p>&nbsp;&nbsp;&nbsp;&nbsp;&nbsp;&nbsp;&nbsp;&nbsp;&nbsp;&nbsp;&nbsp; HSSFCellStyle style = (HSSFCellStyle)workbook.CreateCellStyle();<br>\r\n&nbsp;&nbsp;&nbsp;&nbsp;&nbsp;&nbsp;&nbsp;&nbsp;&nbsp;&nbsp;&nbsp; HSSFFont font = (HSSFFont)workbook.CreateFont();<br>\r\n&nbsp;&nbsp;&nbsp;&nbsp;&nbsp;&nbsp;&nbsp;&nbsp;&nbsp;&nbsp;&nbsp; font.Boldweight = HSSFFont.BOLDWEIGHT_BOLD;<br>\r\n&nbsp;&nbsp;&nbsp;&nbsp;&nbsp;&nbsp;&nbsp;&nbsp;&nbsp;&nbsp;&nbsp; style.SetFont(font);</p>\r\n<p><span>But on line 3 it gives error &quot;</span>Error&nbsp;&nbsp;&nbsp; 7&nbsp;&nbsp;&nbsp; 'NPOI.HSSF.UserModel.HSSFFont' does not contain a definition for 'BOLDWEIGHT_BOLD'\r\n<span>&quot;. Please help. Thanks.<br>\r\n</span></p>\r\n<p><span><br>\r\n</span></p>\r\n",
    "PostedDate": "2012-07-14T22:54:22.953-07:00",
    "UserRole": null,
    "MarkedAsAnswerDate": null
  },
  {
    "Id": "903717",
    "ThreadId": "368678",
    "Html": "\r\n<div style=\"background-color:white; color:black\">If you're using v1.2.5, try this:</div>\r\n<pre>font.Boldweight = (<span style=\"color:blue\">short</span>)NPOI.SS.UserModel.FontBoldWeight.BOLD;\r\n</pre>\r\n",
    "PostedDate": "2012-08-24T11:07:01.65-07:00",
    "UserRole": null,
    "MarkedAsAnswerDate": null
  }
]