[
  {
    "Id": "903003",
    "ThreadId": "392802",
    "Html": "\r\n<p>Hello</p>\r\n<p>We want to generate more than 256 columns in excel using NPOI. Is there any solution? Is there any licenced version of NPOI, which supports more than 256 columns?</p>\r\n<p>Thanks,</p>\r\n<p>Ram</p>\r\n<p>&nbsp;</p>\r\n",
    "PostedDate": "2012-08-23T05:51:02.897-07:00",
    "UserRole": null,
    "MarkedAsAnswerDate": null
  },
  {
    "Id": "903846",
    "ThreadId": "392802",
    "Html": "<p>You must use xlsx instead because it's a limitation in Excel 2003 formats instead of NPOI. Even if NPOI can help you write more than 256 columns into the sheet, Excel will throw error. To generate xlsx,&nbsp; you can try NPOI 2.0 alpha or EPPlus.</p>",
    "PostedDate": "2012-08-24T18:26:34.843-07:00",
    "UserRole": "Owner",
    "MarkedAsAnswerDate": null
  },
  {
    "Id": "910282",
    "ThreadId": "392802",
    "Html": "<p>i am using Excel 2010</p>\r\n<p>i have downloaded and added NPOI 2.0</p>\r\n<p>Please help me to create an excel file with more than 500 columns ( ie .xlsx file)</p>",
    "PostedDate": "2012-09-09T23:07:07.533-07:00",
    "UserRole": null,
    "MarkedAsAnswerDate": null
  },
  {
    "Id": "916235",
    "ThreadId": "392802",
    "Html": "<p>Which namespace are you using? XSSF or HSSF? If it's HSSF, that's wrong. You shoud use XSSF instead.</p>",
    "PostedDate": "2012-09-23T02:28:04.77-07:00",
    "UserRole": "Owner",
    "MarkedAsAnswerDate": null
  }
]