[
  {
    "Id": "906341",
    "ThreadId": "393758",
    "Html": "\r\n<p>Hi all i have the following code&nbsp;</p>\r\n<p>&nbsp;public string ReadAllTextFromWordDocFile(string fileName) &nbsp; &nbsp; &nbsp;&nbsp;<br>\r\n{&nbsp; &nbsp; &nbsp; &nbsp; &nbsp; &nbsp; <br>\r\n<span style=\"white-space:pre\"></span>using (StreamReader streamReader = new StreamReader(fileName))<br>\r\n<span style=\"white-space:pre\"></span>{ &nbsp; &nbsp; &nbsp; &nbsp; &nbsp; &nbsp; &nbsp;<br>\r\n<span style=\"white-space:pre\"></span>var document = new HWPFDocument(streamReader.BaseStream);&nbsp; &nbsp; &nbsp; &nbsp; &nbsp; &nbsp;\r\n<br>\r\n<span style=\"white-space:pre\"></span>//var document2 = new XWPFDocument(streamReader.BaseStream);&nbsp; &nbsp; &nbsp; &nbsp; &nbsp; &nbsp;\r\n<br>\r\n<span style=\"white-space:pre\"></span>var wordExtractor = new WordExtractor(document);&nbsp; &nbsp; &nbsp; &nbsp;\r\n<br>\r\n<span style=\"white-space:pre\"></span>var docText = new StringBuilder()<br>\r\n<span style=\"white-space:pre\"></span>foreach (string text in wordExtractor.ParagraphText)&nbsp; &nbsp; &nbsp; &nbsp;\r\n<br>\r\n<span style=\"white-space:pre\"></span>{&nbsp; &nbsp; &nbsp; &nbsp; &nbsp; &nbsp; <br>\r\n<span style=\"white-space:pre\"></span>docText.AppendLine(text.Trim());&nbsp; &nbsp; &nbsp; &nbsp;\r\n<br>\r\n<span style=\"white-space:pre\"></span>}&nbsp; &nbsp; &nbsp; &nbsp; <br>\r\n<span style=\"white-space:pre\"></span>streamReader.Close();&nbsp; &nbsp; &nbsp; &nbsp;\r\n<br>\r\n<span style=\"white-space:pre\"></span>return docText.ToString();&nbsp; &nbsp; <br>\r\n<span style=\"white-space:pre\"></span>}<br>\r\n}</p>\r\n<p>I have also referenced the following</p>\r\n<p>using NPOI;using <br>\r\nNPOI.POIFS.FileSystem;</p>\r\n<p>but I get the error&nbsp;The type or namespace name 'HWPFDocument' could not be found</p>\r\n<p>can anyone explain where im going wrong?</p>\r\n<p>thanks</p>\r\n",
    "PostedDate": "2012-08-30T07:47:39.39-07:00",
    "UserRole": null,
    "MarkedAsAnswerDate": null
  },
  {
    "Id": "913134",
    "ThreadId": "393758",
    "Html": "<p>HWPFDocument is not included in any official release because HWPF is very unstable so far. Anyway, you can find the source code from ScratchPad and compile by yourself.</p>",
    "PostedDate": "2012-09-15T15:14:14.213-07:00",
    "UserRole": "Owner",
    "MarkedAsAnswerDate": null
  },
  {
    "Id": "1063461",
    "ThreadId": "393758",
    "Html": "not included? \r<br />\nIt is mentioned in a post at <a href=\"http://stackoverflow.com/questions/9672461/trying-to-read-an-ms-office-document\" rel=\"nofollow\">http://stackoverflow.com/questions/9672461/trying-to-read-an-ms-office-document</a>\r<br />\ncan't understand what is meant by following &quot;Anyway, you can find the source code from ScratchPad and compile by yourself.&quot;\r<br />\nIs the library supports these or not<br />\n",
    "PostedDate": "2013-07-02T00:22:54.287-07:00",
    "UserRole": null,
    "MarkedAsAnswerDate": null
  },
  {
    "Id": "1125691",
    "ThreadId": "393758",
    "Html": "It supports it but not in official release. ScratchPad namespace is for test purpose. Any source code in it is not stable. <br />\n",
    "PostedDate": "2013-11-17T16:20:58.663-08:00",
    "UserRole": "Owner",
    "MarkedAsAnswerDate": null
  },
  {
    "Id": "1234293",
    "ThreadId": "393758",
    "Html": "Hi, is HWPFDocument going to be included in the official release at some point, or is there another way we can use NPOI to extract text from word 2003 documents?<br />\n",
    "PostedDate": "2014-04-15T06:37:03.94-07:00",
    "UserRole": null,
    "MarkedAsAnswerDate": null
  },
  {
    "Id": "1236894",
    "ThreadId": "393758",
    "Html": "We are going to include it in NPOI 2.3. But we need to make it stabler first.<br />\n",
    "PostedDate": "2014-04-22T22:53:19.613-07:00",
    "UserRole": "Owner",
    "MarkedAsAnswerDate": null
  },
  {
    "Id": "1454358",
    "ThreadId": "393758",
    "Html": "Any idea when 2.3 is coming?<br />\n",
    "PostedDate": "2015-12-02T20:25:04.583-08:00",
    "UserRole": null,
    "MarkedAsAnswerDate": null
  }
]