[
  {
    "Id": "918148",
    "ThreadId": "397069",
    "Html": "\r\n<p>Is it possible to extract an embedded visio object from Excel using NPOI?</p>\r\n<p>Is it possible to save a .xls spreadsheet to .xlsx using NPOI?</p>\r\n",
    "PostedDate": "2012-09-26T16:47:52.28-07:00",
    "UserRole": null,
    "MarkedAsAnswerDate": null
  }
]