[
  {
    "Id": "931232",
    "ThreadId": "400497",
    "Html": "\r\n<p>Hi! &nbsp;NPOI is working great for me so far. &nbsp;I do have one issue that I haven't been able to solve yet, regarding inserting rows and chart behavior.</p>\r\n<p>&nbsp;</p>\r\n<p>I am creating a dynamic report from a template .xls file. &nbsp;At the bottom of one of my worksheets are some charts that reference data ranges in the same sheet. &nbsp;In the middle, above the charts, is a section where I dynamically insert rows (using\r\n ShiftRows()/CreateRow()). &nbsp;The problem is, the charts are not moved downwards when the rows are inserted, so that my charts end up sitting on top of the data.</p>\r\n<p>&nbsp;</p>\r\n<p>Is there a way to move the charts? &nbsp;I tried getting HSSFChart objects for each of the charts, but the ChartY values are always zero for each of the charts, and changing the value doesn't seem to do anything. &nbsp;I may have missed something here. &nbsp;Alternatively,\r\n is there a way to get ShiftRows() to move the charts automatically? &nbsp;The latter solution would be the easiest I suppose, but I haven't been able to make it work yet.</p>\r\n<p>&nbsp;</p>\r\n<p>Any suggestions are greatly appreciated! &nbsp;Everything else about NPOI is working great!</p>\r\n",
    "PostedDate": "2012-10-23T10:57:07.567-07:00",
    "UserRole": null,
    "MarkedAsAnswerDate": null
  },
  {
    "Id": "939294",
    "ThreadId": "400497",
    "Html": "<p>Thank you for using NPOI. You are not the first one to request chart operation feature. The team is considering including chart part. But it's not determined yet. HSSFChart is in alpha version though it's included in the release.</p>\r\n<p>ShiftRows cannot do what you want because it never operates chart records even the chart&nbsp;would have been&nbsp;supported. For now, I have to say sorry for chart part. There is no workaround for that. The only way I'm think is that you may operate the internal chart records by yourself directly. But it's really hard to make sure everything works. NPOI looks easy to use because it&nbsp;hides the details of these internal operations and we&nbsp;test almost everything&nbsp;in unit test to make sure the quality.</p>\r\n<p>Anyway,&nbsp;if time is enough, we may include the chart part in NPOI 2.0.</p>",
    "PostedDate": "2012-11-09T11:18:04.157-08:00",
    "UserRole": "Owner",
    "MarkedAsAnswerDate": null
  },
  {
    "Id": "939305",
    "ThreadId": "400497",
    "Html": "<p>Hi Tony,</p>\r\n<p>We ended up moving the charts in the template above the data, so that we could insert rows without worrying about overlap. &nbsp;So at least in my case, there was a workaround =)</p>\r\n<p>Thanks for the response! NPOI worked out great for our project, and I'll definitely use it again if we have a similar project come up. &nbsp;I look forward to chart support whenever that becomes available!</p>",
    "PostedDate": "2012-11-09T11:32:54.23-08:00",
    "UserRole": null,
    "MarkedAsAnswerDate": null
  }
]