[
  {
    "Id": "936600",
    "ThreadId": "401916",
    "Html": "\r\n<p>Hi i like this API for excel automation. I want save my excel workbooks in .xls as well as .xlsx. Now i am using NPOI 2.0 for creating .xlsx. I would like to know when is release panning for beta/stable version for 2.0</p>\r\n",
    "PostedDate": "2012-11-05T02:01:04.727-08:00",
    "UserRole": null,
    "MarkedAsAnswerDate": null
  },
  {
    "Id": "937454",
    "ThreadId": "401916",
    "Html": "<p>NPOI 2.0 stable version will be released before March, 2013 as long as the Earth is not re-formatting :p</p>",
    "PostedDate": "2012-11-06T12:12:10.177-08:00",
    "UserRole": "Owner",
    "MarkedAsAnswerDate": null
  }
]