[
  {
    "Id": "945668",
    "ThreadId": "404230",
    "Html": "\r\n<p>I am using NPOI 1.2.4 and have noticed that I cannot retrieve a custom cell style by name as the UserStyleName property always returns null.</p>\r\n<p>Having looked through the NPOI source, it appears that a newly create HSSFCellStyle object (created using HSSFWorkbook.CreateCellStyle) will always have an internal StyleRecord that has its IsBuiltin flag set to true.&nbsp; When this is the case, the get\r\n for UserStyleName will always return null, even though it is not a built in style.</p>\r\n<p>A workaround for this might be to change the get to:</p>\r\n<p><span style=\"font-size:x-small\"></p>\r\n<div style=\"color:black; background-color:white\">\r\n<pre><span style=\"color:blue\">get</span>\r\n            {\r\n                StyleRecord sr = workbook.GetStyleRecord(index);\r\n                <span style=\"color:blue\">if</span> (sr == <span style=\"color:blue\">null</span>)\r\n                {\r\n                    <span style=\"color:blue\">return</span> <span style=\"color:blue\">null</span>;\r\n                }\r\n                <span style=\"color:green\">//if (sr.IsBuiltin)</span>\r\n                <span style=\"color:blue\">if</span> (sr.IsBuiltin && sr.Name == <span style=\"color:blue\">null</span>)\r\n                {\r\n                    <span style=\"color:blue\">return</span> <span style=\"color:blue\">null</span>;\r\n                }\r\n                <span style=\"color:blue\">return</span> sr.Name;\r\n            }\r\n</pre>\r\n</div>\r\n</span>\r\n<p></p>\r\n<p>However, for objects created with HSSFWorkbook.CreateCellStyle, would it not be more sensible for the default for IsBuiltin to be false, as you've just asked for it to be created?</p>\r\n<p>Or, am I missing something obvious?</p>\r\n",
    "PostedDate": "2012-11-22T06:28:56.417-08:00",
    "UserRole": null,
    "MarkedAsAnswerDate": null
  },
  {
    "Id": "945870",
    "ThreadId": "404230",
    "Html": "\r\n<p>Have you tried 1.2.5?</p>\r\n",
    "PostedDate": "2012-11-22T14:04:00.27-08:00",
    "UserRole": "Owner",
    "MarkedAsAnswerDate": null
  },
  {
    "Id": "957712",
    "ThreadId": "404230",
    "Html": "\r\n<p>I tried 1.2.5 a while ago&nbsp;but reverted back to 1.2.4 for other reasons.&nbsp; The code in 1.2.5 looks like it behaves in the same way as 1.2.4?&nbsp; If not, please could you point me in the direction of what has been changed?&nbsp; Thanks.</p>\r\n",
    "PostedDate": "2012-12-18T07:58:23.573-08:00",
    "UserRole": null,
    "MarkedAsAnswerDate": null
  }
]