[
  {
    "Id": "949276",
    "ThreadId": "405079",
    "Html": "\r\n<p>I see NPOI.SS.Format.CellFormat*, but failed to find it in the source code - what's going on?</p>\r\n",
    "PostedDate": "2012-11-29T16:17:24.803-08:00",
    "UserRole": null,
    "MarkedAsAnswerDate": null
  },
  {
    "Id": "949278",
    "ThreadId": "405079",
    "Html": "\r\n<p>Also, are the CellFormat* classes supported? I ran a quick test and it didn't work at all.</p>\r\n",
    "PostedDate": "2012-11-29T16:24:06.473-08:00",
    "UserRole": null,
    "MarkedAsAnswerDate": null
  },
  {
    "Id": "949638",
    "ThreadId": "405079",
    "Html": "\r\n<p>The latest code is in googlecode svn: &lt;cite&gt;npoi.googlecode.com&lt;/cite&gt;</p>\r\n",
    "PostedDate": "2012-11-30T10:38:50.743-08:00",
    "UserRole": "Owner",
    "MarkedAsAnswerDate": null
  }
]