[
  {
    "Id": "967478",
    "ThreadId": "415230",
    "Html": "\r\n<p>I cannot properly format the&nbsp;cell with currency symbol (<span>&euro; or $) obtaining a correct result in the spreadsheet (I mean the currency symbol in the formatted cell but not only &quot;0.00&quot;).</span></p>\r\n<p><span>I tried in many ways (</span></p>\r\n<p><span>stylecel.DataFormat = HSSFDataFormat.GetBuiltinFormat(&quot;&euro;0.00&quot;), stylecel.DataFormat = HSSFDataFormat.GetBuiltinFormat(&quot;&euro; 0.00&quot;),&nbsp;stylecel.DataFormat = HSSFDataFormat.GetBuiltinFormat(&quot;&euro;#.##&quot;)&nbsp;,stylecel.DataFormat = HSSFDataFormat.GetBuiltinFormat(&quot;&euro;\r\n #.##&quot;)</span></p>\r\n<p><span>)</span></p>\r\n<p>What am I doing wrong?</p>\r\n<p>Thanks for support</p>\r\n<p>&nbsp;</p>\r\n<p>P.S. I solved with&nbsp;GetFormat that really Format Currency symbol. GetBuiltinFormat is not doing the same&nbsp;</p>\r\n",
    "PostedDate": "2012-12-22T14:25:16.92-08:00",
    "UserRole": null,
    "MarkedAsAnswerDate": null
  }
]