[
  {
    "Id": "988051",
    "ThreadId": "429886",
    "Html": "\r\n<p>Hi, first of all, thanks for this amazing library, good work.</p>\r\n<p>Sometime ago, i downloaded source for NPOI 1.2.5 and there was a project called&nbsp;NPOI.ScratchPad.sln, in that project there was an amazing class for convert excel to html, what happened with it?. I downloaded the code again and i can't find it.</p>\r\n<p>&nbsp;</p>\r\n<p>Is there any other class that can help me to convert .xls files to .html?.</p>\r\n<p>&nbsp;</p>\r\n<p>&nbsp;</p>\r\n<p>Thanks in advance.</p>\r\n",
    "PostedDate": "2013-01-17T03:26:17.963-08:00",
    "UserRole": null,
    "MarkedAsAnswerDate": null
  },
  {
    "Id": "988947",
    "ThreadId": "429886",
    "Html": "\r\n<p>It's moved to main branch and will be released as a feature of NPOI 2.0. Btw, the latest code is in github.</p>\r\n",
    "PostedDate": "2013-01-18T12:53:12.043-08:00",
    "UserRole": "Owner",
    "MarkedAsAnswerDate": null
  }
]