[
  {
    "Id": "991915",
    "ThreadId": "430822",
    "Html": "\r\n<p>Dear NG,</p>\r\n<p>I'm trying to remove a hyperlink from a cell, but assigning null to a cell.hyperlink will raise an &quot;System.NullReferenceException&quot;</p>\r\n<p>I also tried to assign a new hyperlink with adress value as an empty string, but this also leads to the same error. By now I set an URL-type hyperlink with the address &quot;#&quot;, but it's not exactly what I wanted to do. Is there any other way to remove\r\n the hyperlink?</p>\r\n<p>Kind regards, Thomas</p>\r\n",
    "PostedDate": "2013-01-25T00:52:29.51-08:00",
    "UserRole": null,
    "MarkedAsAnswerDate": null
  }
]