[
  {
    "Id": "1000438",
    "ThreadId": "432935",
    "Html": "Hi all, is any way to block an excel makro's execution or VBA formulas that check (or calculate) cells. I have to work with not my own excel file that is protected by password. I can open file, add data and save it. Finally the file has 0 byte and I can not open it by Excel.\r<br />\n<br />\n// C# code\r<br />\nusing System;\r<br />\nusing System.Linq;\r<br />\nusing System.Text;\r<br />\nusing System.IO;\r<br />\nusing NPOI.HSSF.UserModel;\r<br />\nusing NPOI.HPSF;\r<br />\nusing NPOI.POIFS.FileSystem;\r<br />\nusing NPOI.SS.UserModel;\r<br />\n<br />\n//open file\r<br />\nFileStream fs;\r<br />\nfs = new FileStream(&quot;Invoice list - Form.xls&quot;, FileMode.Open, FileAccess.Read);\r<br />\n<br />\nthis.wb = new HSSFWorkbook(fs, true);\r<br />\nthis.ws = wb.GetSheet(&quot;Form 1&quot;);\r<br />\n<br />\n// fill out a cell\r<br />\nws.GetRow(4).GetCell(6).SetCellValue(&quot;Invoice number&quot;);\r<br />\n<br />\n//save file\r<br />\nFileStream fsw = new FileStream(&quot;Invoice list.xls&quot;, FileMode.Create, FileAccess.Write);\r<br />\nthis.wb.Write(fsw);\r<br />\nfsw.Close();<br />\n",
    "PostedDate": "2013-02-13T00:19:09.507-08:00",
    "UserRole": null,
    "MarkedAsAnswerDate": null
  }
]