[
  {
    "Id": "1011957",
    "ThreadId": "435806",
    "Html": "Hi, \r<br />\n<br />\nI tried using Sheet.PrintSetup.Scale with 1.2.5 and even with the beta released yesterday, it doesn't seem to change the page setup settings in Excel. \r<br />\n<br />\nAm I missing something?\r<br />\n<br />\nThanks. <br />\n",
    "PostedDate": "2013-03-07T12:00:02.487-08:00",
    "UserRole": null,
    "MarkedAsAnswerDate": null
  }
]