[
  {
    "Id": "1025349",
    "ThreadId": "439089",
    "Html": "I've a serious problem copying this formula with NPOI 1.2.5 from one cell to another with C#:\r<br />\n<br />\nThe original cell contain this:<br />\n<pre><code>=IF(H21&gt;(H23*0.9997);IF(H21&lt;(H23*1.0003);&quot;OK&quot;;&quot;Errore&quot;);&quot;Errore&quot;)</code></pre>\n\nThe resulting cell reports exactly this formula, but with the decimal separator stripped. So I get this:<br />\n<pre><code>=IF(H21&gt;(H23*9997);IF(H21&lt;(H23*10003);&quot;OK&quot;;&quot;Errore&quot;);&quot;Errore&quot;)</code></pre>\n\nThis is my debugger view right after the setFormula():\r<br />\n<br />\n<img src=\"http://imageshack.us/a/img718/9522/zscreenshot1.jpg\" alt=\"Image\" />\r<br />\n<br />\nAny help would be greatly appreciated.<br />\n",
    "PostedDate": "2013-04-04T05:30:40.58-07:00",
    "UserRole": null,
    "MarkedAsAnswerDate": null
  },
  {
    "Id": "1132239",
    "ThreadId": "439089",
    "Html": "I found the same problem whith NPOI 2.0.1.\r<br />\n<br />\nIf I use sheet.SetCellFormula(&quot;10 * 0.015&quot;), the result is &quot;10 * 15&quot; when the correct is &quot;10 * 1,5&quot;.<br />\n",
    "PostedDate": "2013-12-05T10:12:58.613-08:00",
    "UserRole": null,
    "MarkedAsAnswerDate": null
  },
  {
    "Id": "1132287",
    "ThreadId": "439089",
    "Html": "Hi All,\r<br />\n<br />\nSince 2.0.5 is just released, can you try the latest version? And let me know if it still exists.<br />\n",
    "PostedDate": "2013-12-05T12:25:05.213-08:00",
    "UserRole": "Owner",
    "MarkedAsAnswerDate": null
  },
  {
    "Id": "1142544",
    "ThreadId": "439089",
    "Html": "Hi tonyqus,\r<br />\nI just migrated my app to 2.0.5. I can confirm 100% that the same problem <strong>is still present and not fixed</strong>.\r<br />\n<br />\nThanks,<br />\n",
    "PostedDate": "2013-12-27T06:29:45.473-08:00",
    "UserRole": null,
    "MarkedAsAnswerDate": null
  },
  {
    "Id": "1144288",
    "ThreadId": "439089",
    "Html": "This discussion has been copied to a work item. Click <a href=\"https://npoi.codeplex.com/workitem/12626\" rel=\"nofollow\">here</a> to go to the work item and continue the discussion.<br />\n",
    "PostedDate": "2013-12-31T11:45:09.967-08:00",
    "UserRole": "Owner",
    "MarkedAsAnswerDate": null
  },
  {
    "Id": "1151564",
    "ThreadId": "439089",
    "Html": "Can you donate some money to cover my efforts on fixing this issue :-) <br />\n",
    "PostedDate": "2014-01-09T15:40:30.757-08:00",
    "UserRole": "Owner",
    "MarkedAsAnswerDate": null
  }
]