[
  {
    "Id": "1026249",
    "ThreadId": "439282",
    "Html": "Hello,<br />\n<br />\nWe use NPOI HSSF to make an Excel of 50K rows in 9 seconds.<br />\nBut when changed to use the XSSF (IWorkbook interface), the time needed increase until 3 minutes.<br />\nOur code for both tests is the same, we only change the constructor and some type definition.<br />\n<br />\nAlso, it is remarkable that, the performance gets worst in time.<br />\nFor 30k, it takes 25 seconds.<br />\nFor 70k, it takes 4 minutes.<br />\nFor 300k, it takes 80 minutes!!!!<br />\n<br />\nWe need to use XSSF to support more than 65K rows.<br />\n<br />\nIs there any problem with the performance for XSSF?<br />\nWhy is the performance degrading when more rows are created?<br />\n<br />\n<strong>[EDITED]</strong><br />\nWe have use a NPOI example to see this.<br />\nJust change the new XSSFWorkbook() to new HSSFWorkbook(), and you can see that the HSSF takes 1 second, and the XSSF takes 1 minute!!!<br />\n<br />\nusing System;<br />\nusing System.Collections.Generic;<br />\nusing System.Text;<br />\nusing NPOI.SS.UserModel;<br />\nusing NPOI.HSSF.UserModel;<br />\nusing NPOI.XSSF.UserModel;<br />\nusing System.IO;<br />\nusing System.Diagnostics;<br />\n<br />\nnamespace NPOI.Examples.XSSF.SetCellValuesInXlsx<br />\n{<br />\n<pre><code>class Program\n{\n    static void Main(string[] args)\n    {\n        IWorkbook workbook = new XSSFWorkbook();\n        ISheet sheet1 = workbook.CreateSheet(&quot;Sheet1&quot;);\n        sheet1.CreateRow(0).CreateCell(0).SetCellValue(&quot;This is a Sample&quot;);\n        int x = 1;\n\n        Debug.WriteLine(&quot;Start at &quot; + DateTime.Now.ToString());\n        for (int i = 1; i &lt;= 30000; i++)\n        {\n            IRow row = sheet1.CreateRow(i);\n            for (int j = 0; j &lt; 15; j++)\n            {\n                row.CreateCell(j).SetCellValue(x++);\n            }\n        }\n        Debug.WriteLine(&quot;End at &quot; + DateTime.Now.ToString());\n\n        FileStream sw = File.Create(&quot;test.xls&quot;);\n        workbook.Write(sw);\n        sw.Close();\n    }\n}</code></pre>\n\n}<br />\n<br />\n<br />\nThanks in advance!<br />\nRaúl.<br />\n",
    "PostedDate": "2013-04-05T10:48:13.023-07:00",
    "UserRole": null,
    "MarkedAsAnswerDate": null
  },
  {
    "Id": "1027841",
    "ThreadId": "439282",
    "Html": "Ths is a known issue in OOXML library. Since the team is busy implementing features, the performance issue may not be fixed in 2.0.1 final release.\r<br />\n<br />\nThe main reason of the issue is because XSSF uses XmlSerializer as the serializer for OOXML document. However, XmlSerializer is not working as fast as expected. It's always slow. To fix this issue, we have to find a alternative way of serializing OOXML document.<br />\n",
    "PostedDate": "2013-04-09T06:29:33.857-07:00",
    "UserRole": "Owner",
    "MarkedAsAnswerDate": null
  },
  {
    "Id": "1028663",
    "ThreadId": "439282",
    "Html": "Thanks for your answer, tonyqus.\r<br />\nThe software is great, but with this issue we can use it.\r<br />\nI wish we can use it in the future.\r<br />\n<br />\nRegards!<br />\n",
    "PostedDate": "2013-04-10T13:24:48.957-07:00",
    "UserRole": null,
    "MarkedAsAnswerDate": null
  },
  {
    "Id": "1106477",
    "ThreadId": "439282",
    "Html": "Is a new version going to be released anytime soon? I'm experiencing major performance issues when using XSSF to generate a xlsx spreadsheet. \r<br />\n<br />\nThanks.<br />\n",
    "PostedDate": "2013-10-11T09:32:19.613-07:00",
    "UserRole": null,
    "MarkedAsAnswerDate": null
  },
  {
    "Id": "1116900",
    "ThreadId": "439282",
    "Html": "Please try the latest source code in github. The performance of XSSF is greatly improved after removing XmlSerializer.<br />\n",
    "PostedDate": "2013-11-03T01:04:40.58-08:00",
    "UserRole": "Owner",
    "MarkedAsAnswerDate": null
  },
  {
    "Id": "1116918",
    "ThreadId": "439282",
    "Html": "May I know when next version release?<br />\n",
    "PostedDate": "2013-11-03T03:15:08.547-08:00",
    "UserRole": null,
    "MarkedAsAnswerDate": null
  },
  {
    "Id": "1128362",
    "ThreadId": "439282",
    "Html": "The next version is NPOI 2.0 beta 2. It's planned to be released next month (Dec, 2013)<br />\n",
    "PostedDate": "2013-11-24T04:49:16.703-08:00",
    "UserRole": "Owner",
    "MarkedAsAnswerDate": null
  },
  {
    "Id": "1128371",
    "ThreadId": "439282",
    "Html": "Btw, I ran your program based on the latest code in github just now. Here is the latest result.<br />\n<br />\nStart at 2013/11/24 21:51:59<br />\nEnd at 2013/11/24 21:52:01<br />\n<br />\nI switched to Stopwatch to get more precious result. On my computer, it's 1830ms. Much shorter than 1 minute :)<br />\n",
    "PostedDate": "2013-11-24T05:55:28.8-08:00",
    "UserRole": "Owner",
    "MarkedAsAnswerDate": null
  }
]