[
  {
    "Id": "1033111",
    "ThreadId": "440935",
    "Html": "HI all,\r<br />\nI've a problem with NPOI. I need to change the print options of my worksheet so that Openoffice can print it reading  Scaling mode: Reduce/Enlarge printout (last option in the following screenshot):\r<br />\n<br />\n<img src=\"http://img109.imageshack.us/img109/3099/zscreenshot5.jpg\" alt=\"Image\" />\r<br />\n<br />\nNo matter what I try, I always obtain this:\r<br />\n<br />\n<img src=\"http://img32.imageshack.us/img32/9438/zscreenshot4.jpg\" alt=\"Image\" /><br />\n",
    "PostedDate": "2013-04-19T09:03:53.697-07:00",
    "UserRole": null,
    "MarkedAsAnswerDate": null
  },
  {
    "Id": "1142524",
    "ThreadId": "440935",
    "Html": "Sorry to bother but I'm still swamped. Can someone give a hint?\r<br />\n<br />\nThanks!<br />\n",
    "PostedDate": "2013-12-27T05:28:53.847-08:00",
    "UserRole": null,
    "MarkedAsAnswerDate": null
  },
  {
    "Id": "1142561",
    "ThreadId": "440935",
    "Html": "<pre><code>myWorksheet.FitToPage = false;</code></pre>\n\ndid the trick!<br />\n",
    "PostedDate": "2013-12-27T07:30:30.227-08:00",
    "UserRole": null,
    "MarkedAsAnswerDate": null
  }
]