[
  {
    "Id": "1059099",
    "ThreadId": "447672",
    "Html": "Hi,\r<br />\n<br />\nI just want to know that, dose NPOI support WinRT and WindowsPhone?\r<br />\nif not, what can be other alternatives\r<br />\n<br />\nThanks\r<br />\n<br />\nJZ<br />\n",
    "PostedDate": "2013-06-20T04:17:47.227-07:00",
    "UserRole": null,
    "MarkedAsAnswerDate": null
  },
  {
    "Id": "1064824",
    "ThreadId": "447672",
    "Html": "I didn't get a chance to use WinRT or WindowsPhone because I'm still using Win7. I have no answer for this. Maybe you can try to reference NPOI and write some application to test if it's supported.<br />\n",
    "PostedDate": "2013-07-05T02:27:12.137-07:00",
    "UserRole": "Owner",
    "MarkedAsAnswerDate": null
  }
]