[
  {
    "Id": "1077095",
    "ThreadId": "452516",
    "Html": "when I export all data to excel file, how can I change the long date format to short date format?<br />\n<br />\ni.e., exported date format is 4/23/2013 12:00:00 AM,  good format is 4/23/2013<br />\n<br />\nCode as below:<br />\n<pre><code>        HSSFWorkbook workbook = new HSSFWorkbook();\n        HSSFSheet sheet = (HSSFSheet)workbook.CreateSheet(&quot;Sheet1&quot;);\n        HSSFRow headerRow = (HSSFRow)sheet.CreateRow(0);\n\n        // handling header.\n        foreach (DataColumn column in srcTable.Columns)\n            headerRow.CreateCell(column.Ordinal).SetCellValue(column.ColumnName);\n\n        // handling value.\n        int rowIndex = 1;\n        foreach (DataRow row in srcTable.Rows)\n        {\n            HSSFRow dataRow = (HSSFRow)sheet.CreateRow(rowIndex);\n            foreach (DataColumn column in srcTable.Columns)\n            {\n                dataRow.CreateCell(column.Ordinal).SetCellValue(row[column].ToString());\n            }\n            rowIndex++;\n        }</code></pre>\n\nYour help was greately appreciated.<br />\n",
    "PostedDate": "2013-08-06T00:29:21.073-07:00",
    "UserRole": null,
    "MarkedAsAnswerDate": null
  },
  {
    "Id": "1078796",
    "ThreadId": "452516",
    "Html": "I have the same question. Has anyone forced the Excel export to format the date without the time? \r<br />\n<br />\nI know that it's possible by casting the date as a string, but this solution is not ideal because it results in improper sorting.<br />\n",
    "PostedDate": "2013-08-09T10:14:21.787-07:00",
    "UserRole": null,
    "MarkedAsAnswerDate": null
  },
  {
    "Id": "1086881",
    "ThreadId": "452516",
    "Html": "This is working well for me, using your code I added date formatting. The date is stored in Excel as the dateserial value so should behave correctly when sorting rather than pretending to be a date.<br />\n<pre><code>            HSSFWorkbook workbook = new HSSFWorkbook();\n            HSSFSheet sheet = (HSSFSheet)workbook.CreateSheet(&quot;Sheet1&quot;);\n            HSSFRow headerRow = (HSSFRow)sheet.CreateRow(0);\n\n            // handling header.\n            foreach (DataColumn column in srcTable.Columns)\n                headerRow.CreateCell(column.Ordinal).SetCellValue(column.ColumnName);\n\n            //Create date format    \n            ICellStyle cellDateStyle = workbook.CreateCellStyle();\n            cellDateStyle.DataFormat = workbook.CreateDataFormat().GetFormat(&quot;dd/mm/yyyy&quot;);\n\n            // handling value.\n            int rowIndex = 1;\n            foreach (DataRow row in srcTable.Rows)\n            {\n                HSSFRow dataRow = (HSSFRow)sheet.CreateRow(rowIndex);\n                foreach (DataColumn column in srcTable.Columns)\n                {\n                    if (!System.DBNull.Value.Equals(row[column]) &amp;&amp; column.DataType == typeof(DateTime))\n                    {\n                        dataRow.CreateCell(column.Ordinal).SetCellValue(Convert.ToDateTime(row[column]));\n                        dataRow.GetCell(column.Ordinal).CellStyle = cellDateStyle;\n                    }\n                    else\n                        dataRow.CreateCell(column.Ordinal).SetCellValue(row[column].ToString());\n                }\n                rowIndex++;\n            }</code></pre>\n\n",
    "PostedDate": "2013-08-31T03:19:14.607-07:00",
    "UserRole": null,
    "MarkedAsAnswerDate": null
  },
  {
    "Id": "1090992",
    "ThreadId": "452516",
    "Html": "Thanks 540YMX\r<br />\n<br />\nit works fine for me.<br />\n",
    "PostedDate": "2013-09-10T22:22:35.64-07:00",
    "UserRole": null,
    "MarkedAsAnswerDate": null
  },
  {
    "Id": "1492748",
    "ThreadId": "452516",
    "Html": "It works fine for me. But date format always shows like dd-mm-yyyy format in Excel sheet. How to change to dd/mm/yyyy. Please reply<br />\n",
    "PostedDate": "2017-02-15T21:32:32.27-08:00",
    "UserRole": null,
    "MarkedAsAnswerDate": null
  }
]