[
  {
    "Id": "1077709",
    "ThreadId": "452688",
    "Html": "Hi \r<br />\n<br />\nI am a newbie. I would like a simple example of how to read a number value from a cell.\r<br />\n<br />\nThanks\r<br />\nHerman<br />\n",
    "PostedDate": "2013-08-07T05:46:18.067-07:00",
    "UserRole": null,
    "MarkedAsAnswerDate": null
  }
]