[
  {
    "Id": "1080870",
    "ThreadId": "453489",
    "Html": "Hi,\r<br />\n<br />\nI am using NPOI for Export to .xls file. After Export to .xls when I open all the cell should be in &quot;Text&quot; Numberformat instead of &quot;General&quot;. All the cells in the .xls file should take example if I enter 0098 it should stay it shouldn't change to 98.\r<br />\n<br />\nPlease let me know how can I set this in C# using NPOI.\r<br />\n<br />\nThanks....<br />\n",
    "PostedDate": "2013-08-15T01:55:07.137-07:00",
    "UserRole": null,
    "MarkedAsAnswerDate": null
  },
  {
    "Id": "1084345",
    "ThreadId": "453489",
    "Html": "I dont know if this is what you're looking for, but you can set the Format of cells to Text like this:<br />\n<pre><code>//quick example\nvar cell = sheet.GetRow(3).GetCell(2);\ncell.CellStyle.DataFormat = HSSFDataFormat.GetBuiltinFormat(&quot;@&quot;);</code></pre>\n\nyou can do the same thing at the Row level if you like.\r<br />\n<br />\nHope it helps<br />\n",
    "PostedDate": "2013-08-23T14:47:18.237-07:00",
    "UserRole": null,
    "MarkedAsAnswerDate": "2013-11-17T16:23:30.467-08:00"
  }
]