[
  {
    "Id": "1082057",
    "ThreadId": "453798",
    "Html": "Hi ,\r<br />\n<br />\ni want to convert the excel workbook which has images, chart and more than 200 columns and 1000 rows. Can anyone please provide the sample code to get it done . i have tried the solutions but images and tables are not getting converted properly. it converts only the text and produce the PDF documents.<br />\n",
    "PostedDate": "2013-08-19T02:31:58.43-07:00",
    "UserRole": null,
    "MarkedAsAnswerDate": null
  },
  {
    "Id": "1093859",
    "ThreadId": "453798",
    "Html": "PDF is totally out of scope of NPOI. sorry<br />\n",
    "PostedDate": "2013-09-17T22:39:53.377-07:00",
    "UserRole": "Owner",
    "MarkedAsAnswerDate": null
  },
  {
    "Id": "1478436",
    "ThreadId": "453798",
    "Html": "@tonyqus you just killed my dreams :'( <br />\n",
    "PostedDate": "2016-07-08T07:38:18.243-07:00",
    "UserRole": null,
    "MarkedAsAnswerDate": null
  },
  {
    "Id": "1479804",
    "ThreadId": "453798",
    "Html": "iTextSharp is great for doing that<br />\n",
    "PostedDate": "2016-07-26T01:24:47.01-07:00",
    "UserRole": null,
    "MarkedAsAnswerDate": null
  }
]