[
  {
    "Id": "1092078",
    "ThreadId": "456756",
    "Html": "HI.........<br />\n<br />\nI have a active-x checkbox control in my excel. I need to read the value of the active-x control i.e. the checkbox on the server...on my local machine as excel component is installed there is no issue to read the same but at the server there is no excel component installed.<br />\n<br />\n<br />\nIs there any way i can read the active-x check control without using ole-db or excel component at the server...<br />\n<br />\nFollowing is the code i am using<br />\n<pre><code>        DataTable dt = new DataTable();\n        HSSFWorkbook hssfworkbook;\n        StringBuilder sb = new StringBuilder();\n        using (FileStream file = new FileStream(FileName, FileMode.Open, FileAccess.Read))\n        {\n            hssfworkbook = new HSSFWorkbook(file);\n        }\n        int SheetCount = hssfworkbook.NumberOfSheets;\n\n        for (int Loopvar = 0; Loopvar &lt; 4; Loopvar++)\n        {\n            ISheet sheet = hssfworkbook.GetSheetAt(Loopvar);\n            System.Collections.IEnumerator rows = sheet.GetRowEnumerator();\n            while (rows.MoveNext())\n            {\n                IRow row = (HSSFRow)rows.Current;\n                for (int i = 0; i &lt; row.LastCellNum; i++)\n                {\n                    ICell cell = row.GetCell(i);\n                    if (cell == null)\n                    {\n                        sb.Append(&quot;&quot;);\n                        sb.Append(&quot;Æ&quot;);\n                    }\n                    else\n                    {\n                        sb.Append(cell.ToString());\n                        sb.Append(&quot;Æ&quot;);\n                    }\n                }\n                sb.AppendLine();\n                //sheet = null;\n            }\n        }    \n        return sb.ToString();\n</code></pre>\n\nBut when check box is there in the cell it is returning null value.....<br />\n<br />\n<br />\nThanks in advance.....<br />\n",
    "PostedDate": "2013-09-12T21:24:23.62-07:00",
    "UserRole": null,
    "MarkedAsAnswerDate": null
  },
  {
    "Id": "1093860",
    "ThreadId": "456756",
    "Html": "ActiveX control is not supported in NPOI<br />\n",
    "PostedDate": "2013-09-17T22:40:22.377-07:00",
    "UserRole": "Owner",
    "MarkedAsAnswerDate": null
  }
]