[
  {
    "Id": "1098018",
    "ThreadId": "458795",
    "Html": "Hi All!\r<br />\n<br />\nISheet has ShiftRow, RemoveRow method.\r<br />\nHSSFSheet after each row operation recalc LastRowNum value.\r<br />\nXSSFSHeet recalc LastRowNum only after CreateRow operation triggers.\r<br />\n<br />\nHow manualy recalc LastRowNum in XSSFSheet?\r<br />\n<br />\nThat's needed when new RowNumber &gt; LastRowNumber. In HSSFSheet use can compare LastRowNum with new RowNum to prevent error. In XSSFSHeet can't.\r<br />\n<br />\nNPOI 2.0 beta 1\r<br />\n.Net 4.0\r<br />\n<br />\nThanks.<br />\n",
    "PostedDate": "2013-09-23T06:44:49.263-07:00",
    "UserRole": null,
    "MarkedAsAnswerDate": null
  },
  {
    "Id": "1105810",
    "ThreadId": "458795",
    "Html": "It's a bug in XSSFSheet.ShiftRow. <br />\n",
    "PostedDate": "2013-10-09T21:38:19.78-07:00",
    "UserRole": "Owner",
    "MarkedAsAnswerDate": "2013-10-09T21:38:23.96-07:00"
  }
]