[
  {
    "Id": "1111101",
    "ThreadId": "463280",
    "Html": "What kind of formulas can be evaluated?.<br />\n",
    "PostedDate": "2013-10-23T07:47:55.537-07:00",
    "UserRole": null,
    "MarkedAsAnswerDate": null
  },
  {
    "Id": "1111403",
    "ThreadId": "463280",
    "Html": "As long as the funtion used in the formula is implemented in NPOI. <br />\n",
    "PostedDate": "2013-10-23T23:27:34.453-07:00",
    "UserRole": "Owner",
    "MarkedAsAnswerDate": null
  }
]