[
  {
    "Id": "1113350",
    "ThreadId": "463989",
    "Html": "Hi Everyone.\r<br />\n<br />\nI have upgraded the .net framework of an existing website from 3.5 to 4.5\r<br />\n<br />\nI am now getting an &quot;PageRequestManagerParserErrorException&quot; on all the previous working exports.\r<br />\n<br />\nI have tried updating the NPOI.dll to the latest release using the 4.0 dll but a few of the classes are not usable (for instance, I can use see the Sheet Interface but not class).\r<br />\n<br />\nMy questions are as follows:\r<br />\n   What could be causing the PageRequestManagerParserErrorException?\r<br />\n   Why can't I instantiate the Sheet class but i can use ISheet in the new dll?\r<br />\n<br />\nThanks.<br />\n",
    "PostedDate": "2013-10-28T13:05:30.5-07:00",
    "UserRole": null,
    "MarkedAsAnswerDate": null
  },
  {
    "Id": "1113408",
    "ThreadId": "463989",
    "Html": "I Figured it out...\r<br />\n<br />\nThe problem wasn't related to the dlls or anything server side.  For some reason, calling the __doPostBack on the onclick event embedded on an html control broke it.<br />\n<pre><code> &lt;li runat=&quot;server&quot; id=&quot;liExport&quot; onclick=&quot;__doPostBack('ExportMyStuff', 0);&quot; ClientIDMode=&quot;Static&quot;&gt;Export Results&lt;/li&gt;</code></pre>\n\nI ended up wrapping the onClick call in jquery and everything works fine now.<br />\n<pre><code>$(document).on('click','#liExport',function () {\n                __doPostBack('ExportMyStuff', 0);\n            });</code></pre>\n\n",
    "PostedDate": "2013-10-28T14:31:40.853-07:00",
    "UserRole": null,
    "MarkedAsAnswerDate": null
  }
]