[
  {
    "Id": "1137026",
    "ThreadId": "474344",
    "Html": "Hi I have two pdf files. I want to add each pdf file into worksheet.\r<br />\n<br />\nIs it possible?\r<br />\n<br />\nRegards,\r<br />\nAlex<br />\n",
    "PostedDate": "2013-12-17T00:59:37.957-08:00",
    "UserRole": null,
    "MarkedAsAnswerDate": null
  },
  {
    "Id": "1151561",
    "ThreadId": "474344",
    "Html": "Never heard that.... weird requirement.<br />\n",
    "PostedDate": "2014-01-09T15:37:04.55-08:00",
    "UserRole": "Owner",
    "MarkedAsAnswerDate": null
  },
  {
    "Id": "1272006",
    "ThreadId": "474344",
    "Html": "I met the same situation too,Dose NPOI have this function?I just saw addPicture,But I need to Add Object.\r<br />\n<br />\nthe tranditional way is ：<br />\n<pre><code>            public void AddObj(string objPath, float incrementLeft, float incrementTop, float height)\n    {\n        try\n        {\n            OLEObjects objs = (OLEObjects)workSheet.OLEObjects(Type.Missing);\n\n            OLEObject obj = objs.Add(Type.Missing, objPath, false, false, false, Type.Missing, Type.Missing, incrementLeft, incrementTop, 21, height);\n\n            obj.ShapeRange.Height = height;\n\n        }\n        catch (Exception e)\n        {\n            this.KillExcelProcess();\n            throw e;\n        }\n    }\n\n</code></pre>\n\nHow should I implement it by NPOI?<br />\n",
    "PostedDate": "2014-07-16T23:44:32.533-07:00",
    "UserRole": null,
    "MarkedAsAnswerDate": null
  },
  {
    "Id": "1273835",
    "ThreadId": "474344",
    "Html": "I don't think it's supported.<br />\n",
    "PostedDate": "2014-07-18T00:31:23.21-07:00",
    "UserRole": "Owner",
    "MarkedAsAnswerDate": null
  },
  {
    "Id": "1489538",
    "ThreadId": "474344",
    "Html": "Is there any plans to support it in future releases?<br />\n",
    "PostedDate": "2016-12-09T05:59:01.613-08:00",
    "UserRole": null,
    "MarkedAsAnswerDate": null
  }
]