[
  {
    "Id": "1151090",
    "ThreadId": "484115",
    "Html": "I need NPOI to do what I would think is a simple task, but I am finding nothing documented on how to do this, Google is failing me. I need NPOI to open an Excel file and change the OleDB connection, that is all. I know I can do this through Interop but from what I hear, I want to stay away from Interop at all cost. Plus I also hear you have to install it on the server, which may be a huge roadblock from my employer.<br />\n",
    "PostedDate": "2014-01-08T14:08:17.06-08:00",
    "UserRole": null,
    "MarkedAsAnswerDate": null
  },
  {
    "Id": "1151558",
    "ThreadId": "484115",
    "Html": "I don't understand what you mean. What's the relationship between Excel, NPOI and OleDB? If you read/write Excel via NPOI, there is no need to use OleDB connection. Please clarify.<br />\n",
    "PostedDate": "2014-01-09T15:33:30.83-08:00",
    "UserRole": "Owner",
    "MarkedAsAnswerDate": null
  },
  {
    "Id": "1151570",
    "ThreadId": "484115",
    "Html": "I figured out a different way of handling the issue, basically something like what you mentioned.<br />\n",
    "PostedDate": "2014-01-09T16:09:44.447-08:00",
    "UserRole": null,
    "MarkedAsAnswerDate": null
  }
]