[
  {
    "Id": "1184511",
    "ThreadId": "514618",
    "Html": "Hi!\r<br />\nI'm trying to run some examples and when I open excel files, occurs an error: &quot;Excel found unreadable content in filename.xls&quot;\r<br />\n<br />\nI compiled the example: &quot;CreateEmptyWorkbook&quot;\r<br />\n<br />\nthanks!<br />\n",
    "PostedDate": "2014-01-20T06:55:19.25-08:00",
    "UserRole": null,
    "MarkedAsAnswerDate": null
  },
  {
    "Id": "1193265",
    "ThreadId": "514618",
    "Html": "Hi!\r<br />\nI'm experiencing the same issue, with example &quot;ScatterChart&quot; excel 2010.\r<br />\n<br />\nHere is <a href=\"https://dl.dropboxusercontent.com/u/19416353/test.xlsx\" rel=\"nofollow\">link</a> on result file.\r<br />\n<br />\nIs there any workaround?<br />\n",
    "PostedDate": "2014-01-23T08:08:37.78-08:00",
    "UserRole": null,
    "MarkedAsAnswerDate": null
  },
  {
    "Id": "1193309",
    "ThreadId": "514618",
    "Html": "Yes, thekg, there is a workaround. \r<br />\n<br />\nThe worksheet XML that is being written has the wrong decimal separator (&quot;,&quot; instead of &quot;.&quot;). (Unzip the xlsx and find the xl\\worksheets\\worksheet1.xml file, find the pagemargin info)\r<br />\n<br />\nSeems like your Windows on a locale other than EN. As is mentioned in the post <a href=\"https://npoi.codeplex.com/discussions/434134\" rel=\"nofollow\">here</a>, setting your culture info to EN... before writing the xml streams will make sure that all decimal numbers are being written in the correct format, i.e. with a &quot;.&quot; as a decimal separator. \r<br />\n<br />\n@tonyqus: \r<br />\nIs there another way to make sure the XML is being written correctly on any international system? Not many countries use &quot;.&quot; as a decimal separator. <br />\n",
    "PostedDate": "2014-01-23T08:57:00.353-08:00",
    "UserRole": null,
    "MarkedAsAnswerDate": null
  },
  {
    "Id": "1195728",
    "ThreadId": "514618",
    "Html": "This discussion has been copied to a work item. Click <a href=\"https://npoi.codeplex.com/workitem/12686\" rel=\"nofollow\">here</a> to go to the work item and continue the discussion.<br />\n",
    "PostedDate": "2014-01-24T08:52:32.427-08:00",
    "UserRole": "Owner",
    "MarkedAsAnswerDate": null
  },
  {
    "Id": "1248915",
    "ThreadId": "514618",
    "Html": "Hello\r<br />\n<br />\nI thing I've found the origin of the issue, I've spend one day comparing why an application was giving an error and another now\r<br />\n<br />\nI was even testing with a close to empty workshhhet having just one row with one column and a little &quot;Test&quot; as content\r<br />\n<br />\nThe issue was coming from the culture !!!!!\r<br />\n<br />\nThe workaround is to fix the culture to US BEFORE the use of NPOI :-(<br />\n<pre><code>  CultureInfo ci = new CultureInfo(&quot;en-US&quot;);\n  Thread.CurrentThread.CurrentCulture = ci;\n  Thread.CurrentThread.CurrentUICulture = ci;</code></pre>\n\n",
    "PostedDate": "2014-05-23T07:29:27.353-07:00",
    "UserRole": null,
    "MarkedAsAnswerDate": null
  },
  {
    "Id": "1262651",
    "ThreadId": "514618",
    "Html": "This bug is fixed in NPOI 2.1.1. Please help test again.<br />\n",
    "PostedDate": "2014-07-03T21:27:16.143-07:00",
    "UserRole": "Owner",
    "MarkedAsAnswerDate": null
  }
]