[
  {
    "Id": "1199939",
    "ThreadId": "528044",
    "Html": "Hi guys,\r<br />\n<br />\nwhen i  have a template in XLS and then i create a new file with SSIS component , when i opened  the file, it's have a protected view. Is it possible to do it withouth this?\r<br />\n<br />\nBest regards.<br />\n",
    "PostedDate": "2014-01-28T07:47:26.53-08:00",
    "UserRole": null,
    "MarkedAsAnswerDate": null
  },
  {
    "Id": "1206268",
    "ThreadId": "528044",
    "Html": "Nobody can help me?, any idea or clues?<br />\n",
    "PostedDate": "2014-02-10T03:45:28.66-08:00",
    "UserRole": null,
    "MarkedAsAnswerDate": null
  }
]