[
  {
    "Id": "1206257",
    "ThreadId": "531138",
    "Html": "I am creating excel ie xlsx file. The sheet is password protected so that user can not edit few columns, but once password protected user is not able to filter data in sheet. \r<br />\ncan i have sheet with password protected with auto filter option enabled.\r<br />\n<br />\nthanks in advance.<br />\n",
    "PostedDate": "2014-02-10T03:29:31.133-08:00",
    "UserRole": null,
    "MarkedAsAnswerDate": null
  }
]