[
  {
    "Id": "1206783",
    "ThreadId": "531307",
    "Html": "Hi.\r<br />\n<br />\nIs there a way to hide the markers in a series of the scatter chart (make a smooth line)?\r<br />\n<br />\nThank you.<br />\n",
    "PostedDate": "2014-02-11T05:08:44.573-08:00",
    "UserRole": null,
    "MarkedAsAnswerDate": null
  }
]