[
  {
    "Id": "1213677",
    "ThreadId": "534809",
    "Html": "Dont work xlsx for russian windows regional settings <br />\nProbably blame decimal separator<br />\nYou must use XmlConvert before recording a numerical value<br />\n<br />\nYou create an invalid xml<br />\n<pre><code>&lt;?xml version=&quot;1.0&quot; encoding=&quot;utf-8&quot; standalone=&quot;yes&quot;?&gt;\n&lt;worksheet xmlns=&quot;http://schemas.openxmlformats.org/spreadsheetml/2006/main&quot; xmlns:r=&quot;http://schemas.openxmlformats.org/officeDocument/2006/relationships&quot;&gt;\n   &lt;dimension ref=&quot;A1&quot;&gt;&lt;/dimension&gt;\n   &lt;sheetViews&gt;\n      &lt;sheetView tabSelected=&quot;1&quot; showRuler=&quot;1&quot; showOutlineSymbols=&quot;1&quot; defaultGridColor=&quot;1&quot; colorId=&quot;64&quot; zoomScale=&quot;100&quot; workbookViewId=&quot;0&quot;&gt;&lt;/sheetView&gt;\n   &lt;/sheetViews&gt;\n   &lt;sheetFormatPr defaultRowHeight=&quot;15&quot;&gt;&lt;/sheetFormatPr&gt;\n   &lt;sheetData&gt;&lt;/sheetData&gt;\n   &lt;pageMargins left=&quot;0,7&quot; right=&quot;0,7&quot; top=&quot;0,75&quot; bottom=&quot;0,75&quot; header=&quot;0,3&quot; footer=&quot;0,3&quot;&gt;&lt;/pageMargins&gt;\n&lt;/worksheet&gt;</code></pre>\n\n",
    "PostedDate": "2014-02-24T05:53:40.717-08:00",
    "UserRole": null,
    "MarkedAsAnswerDate": null
  },
  {
    "Id": "1219837",
    "ThreadId": "534809",
    "Html": "this is fixed in the most recent code on github. \r<br />\n<br />\nThe last issue I found was in SetCellValue in the XSSF namespace<br />\n<pre><code>        public void SetCellValue(double value)\n        {\n      //...\n            else\n            {\n                _cell.t = (ST_CellType.n);\n                // fixed for any culture\n                _cell.v = (value.ToString(CultureInfo.InvariantCulture));\n            }\n        }</code></pre>\n\nUsing the current NPOI code + this fix your XML files should always be generated correctly. <br />\n",
    "PostedDate": "2014-03-06T04:40:54.44-08:00",
    "UserRole": null,
    "MarkedAsAnswerDate": null
  },
  {
    "Id": "1220804",
    "ThreadId": "534809",
    "Html": "which version are you using? I need to track the issue impact<br />\n",
    "PostedDate": "2014-03-09T12:16:22.673-07:00",
    "UserRole": "Owner",
    "MarkedAsAnswerDate": null
  },
  {
    "Id": "1220903",
    "ThreadId": "534809",
    "Html": "I am using last build <a href=\"https://npoi.codeplex.com/releases/view/112932\" rel=\"nofollow\">https://npoi.codeplex.com/releases/view/112932</a><br />\n",
    "PostedDate": "2014-03-09T23:10:24.367-07:00",
    "UserRole": null,
    "MarkedAsAnswerDate": null
  },
  {
    "Id": "1222515",
    "ThreadId": "534809",
    "Html": "try the latest github source code and let me know if it's fixed.<br />\n",
    "PostedDate": "2014-03-13T13:10:25.403-07:00",
    "UserRole": "Owner",
    "MarkedAsAnswerDate": null
  },
  {
    "Id": "1223076",
    "ThreadId": "534809",
    "Html": "\r\n<div dir=\"ltr\">\r\n<div>Hi, sorry my english <br>\r\n<br>\r\nWorkbook created OK<br>\r\n</div>\r\nI try write decimal value- error &lt;v&gt;1,5&lt;/v&gt;<br>\r\n<br>\r\nIWorkbook workbook = new XSSFWorkbook();<br>\r\nISheet sheet = workbook.CreateSheet(&quot;Sheet1&quot;);<br>\r\nsheet.CreateRow(1).CreateCell(1).SetCellValue(1.5);<br>\r\nFileStream sw = File.Create(&quot;test.xlsx&quot;);<br>\r\nworkbook.Write(sw);<br>\r\nsw.Close();<br>\r\n<br>\r\n&lt;?xml version=&quot;1.0&quot;?&gt;<br>\r\n&lt;worksheet xmlns:r=&quot;<a href=\"http://schemas.openxmlformats.org/officeDocument/2006/relationships\">http://schemas.openxmlformats.org/officeDocument/2006/relationships</a>&quot; xmlns=&quot;<a href=\"http://schemas.openxmlformats.org/spreadsheetml/2006/main\">http://schemas.openxmlformats.org/spreadsheetml/2006/main</a>&quot;&gt;<br>\r\n&lt;dimension ref=&quot;A1&quot; /&gt;<br>\r\n&lt;sheetViews&gt;<br>\r\n&lt;sheetView tabSelected=&quot;true&quot; workbookViewId=&quot;0&quot; /&gt;<br>\r\n&lt;/sheetViews&gt;<br>\r\n&lt;sheetFormatPr defaultRowHeight=&quot;15&quot; /&gt;<br>\r\n&lt;sheetData&gt;<br>\r\n&lt;row r=&quot;2&quot;&gt;<br>\r\n&lt;c r=&quot;B2&quot;&gt;<br>\r\n&lt;v&gt;1,5&lt;/v&gt;<br>\r\n&lt;/c&gt;<br>\r\n&lt;/row&gt;<br>\r\n&lt;/sheetData&gt;<br>\r\n&lt;pageMargins left=&quot;0.7&quot; right=&quot;0.7&quot; top=&quot;0.75&quot; bottom=&quot;0.75&quot; header=&quot;0.3&quot; footer=&quot;0.3&quot; /&gt;<br>\r\n&lt;/worksheet&gt;<br>\r\n</div>\r\n<div><br>\r\n<br>\r\n<div>2014-03-14 0:10 GMT&#43;04:00 tonyqus <span dir=\"ltr\">&lt;[email removed]&gt;</span>:<br>\r\n<blockquote style=\"margin:0 0 0 .8ex; border-left:1px #ccc solid; padding-left:1ex\">\r\n<div>\r\n<p>From: tonyqus</p>\r\n<div>try the latest github source code and let me know if it's fixed.<br>\r\n</div>\r\n<div>\r\n<p>Read the <a href=\"http://npoi.codeplex.com/discussions/534809#post1222515\" target=\"_blank\">\r\nfull discussion online</a>.</p>\r\n<p>To add a post to this discussion, reply to this email ([email removed])</p>\r\n<p>To start a new discussion for this project, email [email removed]</p>\r\n<p>You are receiving this email because you subscribed to this discussion on CodePlex. You can\r\n<a href=\"http://npoi.codeplex.com/discussions/534809/unsubscribe/\" target=\"_blank\">\r\nunsubscribe</a> on CodePlex.com.</p>\r\n<p>Please note: Images and attachments will be removed from emails. Any posts to this discussion will also be available online at CodePlex.com</p>\r\n</div>\r\n</div>\r\n</blockquote>\r\n</div>\r\n<br>\r\n</div>\r\n",
    "PostedDate": "2014-03-15T07:22:21.327-07:00",
    "UserRole": null,
    "MarkedAsAnswerDate": null
  }
]