[
  {
    "Id": "1220353",
    "ThreadId": "538314",
    "Html": "The January 4th release is marked as a stable 2.0 version.  When I add the dll to my project in Visual Studio and look at the dll information it says the following:\r<br />\n<br />\nFile Version: 2.0.6.0\r<br />\nProduct Version: NPOI 2.0 beta3\r<br />\n<br />\nI am a bit confused.  Is it a beta or a final?  Also, the dll in the object explorer shows:\r<br />\nNPOI.dll -&gt; Version -&gt; 1 [Neutral]\r<br />\n<br />\nAnother side note, the latest release is not available via NuGet.\r<br />\n<br />\nThanks<br />\n",
    "PostedDate": "2014-03-07T09:01:21.403-08:00",
    "UserRole": null,
    "MarkedAsAnswerDate": null
  },
  {
    "Id": "1220803",
    "ThreadId": "538314",
    "Html": "Hi,\r<br />\n<br />\nIt is a bug of assembly version. I forgot to change the Product Version to NPOI 2.0 final. Anyway, most users don't look at this property at all. It's not a big problem I think.\r<br />\n<br />\nI'm trying to release a more stable version for NPOI 2.0. Maybe NPOI 2.0.7 or NPOI 2.0.8. After that, I'll put the latest release into Nuget. \r<br />\n<br />\nTony<br />\n",
    "PostedDate": "2014-03-09T12:15:25.593-07:00",
    "UserRole": "Owner",
    "MarkedAsAnswerDate": "2014-04-12T14:00:01.03-07:00"
  }
]