[
  {
    "Id": "1220906",
    "ThreadId": "538474",
    "Html": "Why appear at reading excel 2007 .\r<br />\nIsHidden = “((NPOI.XSSF.UserModel.XSSFWorkbook)(workbook)).IsHidden”Lead to“System.NotImplementedException”Exception\r<br />\n<br />\nPlease inform the next.Thank you.<br />\n",
    "PostedDate": "2014-03-09T23:18:32.173-07:00",
    "UserRole": null,
    "MarkedAsAnswerDate": null
  },
  {
    "Id": "1222511",
    "ThreadId": "538474",
    "Html": "Why do you need to call this property? What's the purpose?<br />\n",
    "PostedDate": "2014-03-13T13:07:34.973-07:00",
    "UserRole": "Owner",
    "MarkedAsAnswerDate": null
  }
]