[
  {
    "Id": "1220909",
    "ThreadId": "538475",
    "Html": "I want to append some data after reading excel file. How to do this so I am able to append data.<br />\n<div style=\"color:Black;background-color:White;\"><pre>\r\n<span style=\"color:Blue;\">using</span> System;\n<span style=\"color:Blue;\">using</span> System.Collections.Generic;\n<span style=\"color:Blue;\">using</span> System.IO;\n<span style=\"color:Blue;\">using</span> System.Linq;\n<span style=\"color:Blue;\">using</span> System.Text;\n<span style=\"color:Blue;\">using</span> NPOI.HSSF.UserModel;\n<span style=\"color:Blue;\">using</span> NPOI.HSSF.Util;\n<span style=\"color:Blue;\">using</span> NPOI.SS.UserModel;\n<span style=\"color:Blue;\">using</span> NPOI.SS.Util;\n<span style=\"color:Blue;\">using</span> NPOI.XSSF.UserModel;&#39;\n\nXSSFWorkbook wb;\n            <span style=\"color:Blue;\">using</span> (FileStream file = <span style=\"color:Blue;\">new</span> FileStream(<span style=\"color:#A31515;\">@&quot;test.xlsx&quot;</span>, FileMode.Open, FileAccess.ReadWrite))\n            {\n                wb = <span style=\"color:Blue;\">new</span> XSSFWorkbook(file);\n\n                ISheet sheet = wb.GetSheet(<span style=\"color:#A31515;\">&quot;Sheet1&quot;</span>);                \n\n                sheet.CreateRow(8).CreateCell(0).SetCellValue(<span style=\"color:#A31515;\">&quot;testnew row cell value&quot;</span>);\n            }\r\n</pre></div>Data doesn't append!!!<br />\n",
    "PostedDate": "2014-03-09T23:41:53.33-07:00",
    "UserRole": null,
    "MarkedAsAnswerDate": null
  },
  {
    "Id": "1222510",
    "ThreadId": "538475",
    "Html": "Don't understand what you want. NPOI supports opening template and add/modify cell data.<br />\n",
    "PostedDate": "2014-03-13T13:06:10.873-07:00",
    "UserRole": "Owner",
    "MarkedAsAnswerDate": "2014-05-13T16:57:17.25-07:00"
  }
]