[
  {
    "Id": "1221453",
    "ThreadId": "538639",
    "Html": "Is there a way to convert a Xlsm file to Xlsx file using the library?<br />\n<br />\nI'm writing a program in C# and I really need the CloneSheet() function, which I notice does not work with Xlsm but will work with Xlsx.<br />\n<br />\nI try this code but it doesn't work.<br />\n<pre><code>XSSFWorkbook workbook;\n\n//read original xlsm file into workbook\nusing (FileStream file = new FileStream(@&quot;OriginalFile\\&quot; + filename, FileMode.Open, FileAccess.Read))\n{ workbook = new XSSFWorkbook(file); }\n\n//change file extension to xlsx and save in a new location\nfilename = Path.ChangeExtension(filename, &quot;xlsx&quot;);\nif (!Directory.Exists(&quot;NewFile&quot;))\n    Directory.CreateDirectory(&quot;NewFile&quot;);\nFileStream stream = new FileStream((&quot;NewFile\\\\New&quot; + filename), FileMode.Create, System.IO.FileAccess.Write);\nworkbook.Write(stream);\nstream.Close();\n\n//read the newly created file from the new location\nusing (FileStream file = new FileStream(@&quot;NewFile\\\\New&quot; + filename, FileMode.Open, FileAccess.Read))\n{ workbook = new XSSFWorkbook(file); }</code></pre>\n\nThe code creates a xlsx file, but the file cannot be open and seems to be corrupted.<br />\n",
    "PostedDate": "2014-03-11T07:37:33.697-07:00",
    "UserRole": null,
    "MarkedAsAnswerDate": null
  },
  {
    "Id": "1233539",
    "ThreadId": "538639",
    "Html": "There is no plan to support xlsm because xlsm is for macro. NPOI has no support on Macro/VBA.<br />\n",
    "PostedDate": "2014-04-12T14:35:39.447-07:00",
    "UserRole": "Owner",
    "MarkedAsAnswerDate": "2014-04-12T14:35:45.103-07:00"
  }
]