[
  {
    "Id": "1222026",
    "ThreadId": "538795",
    "Html": "I was going through some of the NPOI 2.0.6 code, and spotted the if statement below with a SemiColon (;) at the end of line... this looks like an error, please confirm:\r<br />\n<br />\n/SS/Usermodel/Sheet.cs<br />\n<pre><code>/**\n    * Checks wheter specific LatentStyleID is a latentStyle\n*/\npublic bool IsLatentStyle(String latentStyleID)\n{\n    foreach (CT_LsdException lsd in latentStyles.lsdException )\n    {\n        if (lsd.name.Equals(latentStyleID)) ;\n        return true;\n    }\n    return false;\n}</code></pre>\n\n",
    "PostedDate": "2014-03-12T11:48:02.29-07:00",
    "UserRole": null,
    "MarkedAsAnswerDate": null
  },
  {
    "Id": "1222506",
    "ThreadId": "538795",
    "Html": "This discussion has been copied to a work item. Click <a href=\"https://npoi.codeplex.com/workitem/12821\" rel=\"nofollow\">here</a> to go to the work item and continue the discussion.<br />\n",
    "PostedDate": "2014-03-13T12:49:09.613-07:00",
    "UserRole": "Owner",
    "MarkedAsAnswerDate": null
  }
]