[
  {
    "Id": "1222564",
    "ThreadId": "538958",
    "Html": "I've been using NPOI (1.2.5) for a while to make XLS files, and I recently discovered the NPOI 2.0.6 which I would like to use to build DOCX files from scratch.\r<br />\n \r<br />\nI've been looking for a XWPF styled table example, and found very little, I got the example Simple Table working, and found a styled Table example from POI, but calling, &lt;tcpr.tcPrChange = new CT_TcPrChange();&gt; whether, I make any additional calls to the tcpr object or not (&lt;tcpr.AddNewShd().fill = &quot;A7BFDE&quot;;&gt;), causes the Table to render BADLY (WHOLE CELL IS BLACK).  I would like to change the fill color:\r<br />\ntcpr.tcPrChange = new CT_TcPrChange();\r<br />\ntcpr.AddNewShd().fill = &quot;A7BFDE&quot;;\r<br />\n<br />\nThe following is a summary of my success and failures:\r<br />\n<br />\nXWPF Success:<br />\n<ul>\n<li>Create Paragraphs</li>\n<li>Set Font-Family</li>\n<li>Set Font-Size</li>\n<li>Set Font-Bold</li>\n<li>Set Text</li>\n<li>Set Run-Color</li>\n<li>Create Table</li>\n<li>Access Table-Cell-Paragraph</li>\n<li>Create Runs in Table-Cells</li>\n<li>\nSetInsideVBorder &amp; SetInsideHBorder<br />\n</li>\n</ul>\nXWPF Fail:<br />\n<ul>\n<li>AddPicture</li>\n<li>Set Table-Width</li>\n<li>Set Table-Column-Width</li>\n<li>Set Table-Row-Height</li>\n<li>Set Table-Cell-Background-Color</li>\n<li>Set Table-SetOutsideVBorder &amp; Table-SetOutsideHBorder</li>\n<li>Set Page-Header/Footer</li>\n<li>\nSet Page-Orientation-Landscape (maybe not event supported in POI yet?)<br />\n</li>\n</ul>\nAre any or all of these expected to work at this time?\r<br />\nIf so, where can I find example code for each?\r<br />\n<br />\nThanks<br />\n",
    "PostedDate": "2014-03-13T16:08:27.84-07:00",
    "UserRole": null,
    "MarkedAsAnswerDate": null
  },
  {
    "Id": "1233534",
    "ThreadId": "538958",
    "Html": "Read this: <a href=\"http://tonyqus.sinaapp.com/archives/614\" rel=\"nofollow\">http://tonyqus.sinaapp.com/archives/614</a> (But it's in Chinese, you can check the code directly)<br />\n",
    "PostedDate": "2014-04-12T14:01:59.213-07:00",
    "UserRole": "Owner",
    "MarkedAsAnswerDate": null
  },
  {
    "Id": "1245062",
    "ThreadId": "538958",
    "Html": "This discussion has been copied to a work item. Click <a href=\"https://npoi.codeplex.com/workitem/13019\" rel=\"nofollow\">here</a> to go to the work item and continue the discussion.<br />\n",
    "PostedDate": "2014-05-13T16:43:18.533-07:00",
    "UserRole": "Owner",
    "MarkedAsAnswerDate": null
  },
  {
    "Id": "1245085",
    "ThreadId": "538958",
    "Html": "I had managed to achieve a table of similar quality to the one shown in archive 614, and successfully created a Run in Table Cells.\r<br />\nHowever failure to set background color (this seemed really close) and inability to rotate text 90 degrees, make NPOI unsatisfactory for my project.<br />\n",
    "PostedDate": "2014-05-13T18:10:21.633-07:00",
    "UserRole": null,
    "MarkedAsAnswerDate": null
  }
]