[
  {
    "Id": "1228134",
    "ThreadId": "540559",
    "Html": "I'm testing NPOI and I've to admit that it's awsome! very fast and solid! <br />\nBut I think there are some memory issue.<br />\nWhen I'm opening a large xlsx the memory goes up and it ends with an NPOI.POIXMLException<br />\n<br />\nI'm talking about 30 MB of files with 1 million rows (I know it's a lot of dates) but I've to work with these files..<br />\n<br />\nHere is my code<br />\n<pre><code>IWorkbook wb;\nusing (FileStream file = new FileStream(excelFilePath, FileMode.Open, FileAccess.Read))\n{\nif (excelFilePath.ToLower().EndsWith(&quot;.xlsx&quot;))\n    wb = new XSSFWorkbook(file);  // &lt;- NPOI.POIXMLException\nelse\n    wb = new HSSFWorkbook(file);\n}</code></pre>\n\n",
    "PostedDate": "2014-03-29T03:34:43.713-07:00",
    "UserRole": null,
    "MarkedAsAnswerDate": null
  },
  {
    "Id": "1233533",
    "ThreadId": "540559",
    "Html": "Which version of NPOI are you using? Which architecture are you running on,  x86 or x64?<br />\n",
    "PostedDate": "2014-04-12T13:56:37.993-07:00",
    "UserRole": "Owner",
    "MarkedAsAnswerDate": null
  },
  {
    "Id": "1233590",
    "ThreadId": "540559",
    "Html": "I'm running a 32 bit application, but even with a 64 bit application the memory grows up very quickly.\r<br />\nI guess the problem is with  XmlDocument, it's very memory greedy with big files.. I thinlk the solution it's use XmlReader (a bit harder to use but light and fast)<br />\n",
    "PostedDate": "2014-04-13T00:51:01.953-07:00",
    "UserRole": null,
    "MarkedAsAnswerDate": null
  }
]