[
  {
    "Id": "1239865",
    "ThreadId": "543877",
    "Html": "When I use the following code to open the an Excel 2003 XML file I have the &quot;Invalid header signature; read 0x6C6D783F3CBFBBEF, expected 0xE11AB1A1E011CFD0&quot; Exception :<br />\n<br />\nusing (StreamReader input = new StreamReader(fileName))<br />\n{<br />\n<pre><code>IWorkbook workbook = new HSSFWorkbook(new POIFSFileSystem(input.BaseStream));\nif (null == workbook)\n{\n    Console.WriteLine(string.Format(&quot;Excel Workbook '{0}' could not be opened.&quot;, fileName));\n}\nelse\n{\n    // calculates/updates the formulas on the given workbook\n    IFormulaEvaluator formulaEvaluator = new HSSFFormulaEvaluator(workbook);\n    DataFormatter dataFormatter = new HSSFDataFormatter(new CultureInfo(&quot;en-US&quot;));\n\n    Console.WriteLine();\n    foreach (ISheet sheet in workbook)\n    {\n        Console.WriteLine(&quot;\\n\\n***   Worksheet &quot; + sheet.SheetName + &quot;   ***&quot;);\n        foreach (IRow row in sheet)\n        {\n            if (0 == row.RowNum % 10) { Console.WriteLine(); }\n            Console.Write(string.Format(&quot;Row {0,2}: &quot;, row.RowNum + 1));\n            foreach (ICell cell in row)\n            {\n                //string value = GetValue(cell, dataFormatter, formulaEvaluator);\n                //string commentText = GetComment(cell);\n                //Console.Write(string.Format(&quot;{0}{1};&quot;,\n                //    string.IsNullOrEmpty(value) ? &quot;&quot; : value,\n                //    string.IsNullOrEmpty(commentText) ? &quot;&quot; : &quot; [&quot; + commentText + &quot;]&quot;));\n            }\n            Console.WriteLine();\n        }\n    }\n}</code></pre>\n\n}<br />\n<br />\nCould y please give me a solution ?<br />\n<br />\nIf you give me an email address I can send you my Excel file.<br />\n<br />\nBest regards.<br />\n",
    "PostedDate": "2014-04-30T08:45:07.603-07:00",
    "UserRole": null,
    "MarkedAsAnswerDate": null
  },
  {
    "Id": "1244418",
    "ThreadId": "543877",
    "Html": "NPOI never supports Excel XML format. only xls and xlsx are supported.<br />\n",
    "PostedDate": "2014-05-12T08:46:06.077-07:00",
    "UserRole": "Owner",
    "MarkedAsAnswerDate": "2014-05-13T15:41:52.157-07:00"
  }
]