[
  {
    "Id": "1240864",
    "ThreadId": "544110",
    "Html": "Hi,\r<br />\n<br />\nI tried to retreive an excel table using this code :<br />\n<pre><code>    XSSFWorkbook workbook = new XSSFWorkbook(fs);\n    var table = workbook.GetName(&quot;Table1&quot;);</code></pre>\n\nThe returned value is null.\r<br />\n<br />\nDoes someone have a solution or a workaround to solve this ?\r<br />\n<br />\nThanks for advance.\r<br />\n<br />\nSybaris<br />\n",
    "PostedDate": "2014-05-02T14:32:21.37-07:00",
    "UserRole": null,
    "MarkedAsAnswerDate": null
  },
  {
    "Id": "1246138",
    "ThreadId": "544110",
    "Html": "Hi, \r<br />\n<br />\nI found the solution myself : \r<br />\nHere the code I used :<br />\n<pre><code>            FileStream fs = new FileStream(&quot;c:\\MyExcelFile.xls&quot;&quot;, FileMode.Open);\n            XSSFWorkbook workbook = new XSSFWorkbook(fs);\n            ISheet iWorksheet = workbook.GetSheet(&quot;MyWorkSheetName&quot;);\n            XSSFSheet worksheet = (XSSFSheet)iWorksheet;\n            List&lt;XSSFTable&gt; tables = worksheet.GetTables();\n            XSSFTable table = tables.Single&lt;XSSFTable&gt;(x =&gt; string.Compare(x.Name, &quot;MyTableName&quot;, true) == 0);</code></pre>\n\nI hope this will be usefull for someone...\r<br />\n<br />\nSybaris<br />\n",
    "PostedDate": "2014-05-16T07:16:01.693-07:00",
    "UserRole": null,
    "MarkedAsAnswerDate": "2014-05-17T16:40:09.53-07:00"
  },
  {
    "Id": "1246541",
    "ThreadId": "544110",
    "Html": "GetName is for named range instead of Excel table. This is by design<br />\n",
    "PostedDate": "2014-05-17T16:39:58.28-07:00",
    "UserRole": "Owner",
    "MarkedAsAnswerDate": null
  }
]