[
  {
    "Id": "1242879",
    "ThreadId": "544665",
    "Html": "More in detail, i have a &quot;.docx&quot; WORD with paragraphs and tables, <br />\n<br />\nSay, i have a paragraph  &quot;Name&quot;  followed with a table, and i want my c# app can read the &quot;name&quot;  and repalce new word<br />\nnow execute code .<br />\n<br />\n //FileStream stream = File.OpenRead(basePath + filename);<br />\n<pre><code>       // XWPFDocument doc = new XWPFDocument(stream);\n        OPCPackage pack = POIXMLDocument.OpenPackage(&quot;D:\\\\20140423095424.docx&quot;);\n        XWPFDocument doc = new XWPFDocument(pack);\n        IList&lt;XWPFTable&gt; tables = doc.Tables;\n        foreach (XWPFTable t in tables)\n        {\n            IList&lt;XWPFTableRow&gt; rows = t.Rows;\n            foreach (XWPFTableRow r in rows)\n            {\n                IList&lt;XWPFTableCell&gt; cells = r.GetTableCells();\n                foreach (XWPFTableCell cell in cells)\n                {\n                    IList&lt;XWPFParagraph&gt; paras = cell.Paragraphs;\n                    foreach (XWPFParagraph paragraph in paras)\n                    {\n                        string key = paragraph.ParagraphText;\n                        if (key.StartsWith(&quot;$[&quot;) &amp;&amp; key.EndsWith(&quot;]&quot;) &amp;&amp; userInitParams.Contains(key.Substring(2, key.Length - 3)))\n                        {\n                            string value = userInitParams[key.Substring(2, key.Length - 3)].ToString();\n\n                            IList&lt;XWPFRun&gt; run = paragraph.Runs;\n                            //XWPFRun newRun=   paragraph.InsertNewRun(run.Count+1);\n                            //newRun.SetText(value);\n                            for (int i = 0; i &lt; run.Count; i++)\n                            {\n                                //Boolean B1 = !string.IsNullOrEmpty(run[i].GetText(run[i].GetTextPosition()));\n                                //Boolean B2 = run[i].GetText(run[i].GetTextPosition()).Equals(key);\n                                //if (B1 &amp;&amp; B2)\n                                //{\n                                //    run[i].SetUnderline(UnderlinePatterns.Thick);\n                                //    run[i].SetText(value.ToString(), 0);\n                                //}\n                                if (i == 0)\n                                {\n                                    run[i].SetUnderline(UnderlinePatterns.Thick);\n                                    run[i].SetText(value.ToString(), 0);\n                                }\n                                else\n                                {\n                                    //   paragraph.RemoveRun(i);\n                                }\n                            }\n                        }\n                    }\n                }\n\n            }\n        }\n        Stream str = new FileStream(&quot;d:\\\\dd.docx&quot;, FileMode.CreateNew, FileAccess.ReadWrite, FileShare.ReadWrite);\n        doc.Write(str);\n</code></pre>\n\n",
    "PostedDate": "2014-05-07T22:44:26.057-07:00",
    "UserRole": null,
    "MarkedAsAnswerDate": null
  },
  {
    "Id": "1244419",
    "ThreadId": "544665",
    "Html": "What's the issue here?<br />\n",
    "PostedDate": "2014-05-12T08:47:28.517-07:00",
    "UserRole": "Owner",
    "MarkedAsAnswerDate": null
  }
]