[
  {
    "Id": "1248720",
    "ThreadId": "546322",
    "Html": "I am using NPOI dll version 1.2.2.0 for genrating excel sheet in C#. When I apply formula on some cell programmatically and export excel then in protected mode of excel sheet all the cells having formula show '0' value. but when i edit this excel all formulas work properly on those cell. Is there any solution from which applied formula can work in protected mode also?\r<br />\n<br />\nI cannot switch to higher versions. Please suggest/ provide any solution.\r<br />\n<br />\nThanks.\r<br />\nNMathur<br />\n",
    "PostedDate": "2014-05-22T23:33:10.967-07:00",
    "UserRole": null,
    "MarkedAsAnswerDate": null
  }
]