[
  {
    "Id": "1261962",
    "ThreadId": "550353",
    "Html": "Hi,\r<br />\nI am generating Excel file(.xlsx) using NPOI library.\r<br />\nCan anyone please suggest on how to make specific columns as readonly in a sheet having data around 10MB.<br />\n",
    "PostedDate": "2014-07-02T06:40:08.967-07:00",
    "UserRole": null,
    "MarkedAsAnswerDate": null
  }
]