[
  {
    "Id": "1262645",
    "ThreadId": "550574",
    "Html": "BackgroundColor setting, rows shifting, merged reagion creating and many other things has diifferent behaviour in the different IWorkbook implementations. When I work with interface I expect the same reaction from its implementaion. Why didn't you hide Excel features behind IWorkbook implementations?<br />\n",
    "PostedDate": "2014-07-03T20:56:20.743-07:00",
    "UserRole": null,
    "MarkedAsAnswerDate": null
  },
  {
    "Id": "1262647",
    "ThreadId": "550574",
    "Html": "Can you give me some detailed examples? The behavior should be same or almost same.<br />\n",
    "PostedDate": "2014-07-03T21:05:47.747-07:00",
    "UserRole": "Owner",
    "MarkedAsAnswerDate": null
  },
  {
    "Id": "1262706",
    "ThreadId": "550574",
    "Html": "For example, setting background color. For the HSSFWorkbook item:<br />\n<pre><code>                HSSFWorkbook workbook = ... // getting workbook\n                ...\n                var pallete = workbook.GetCustomPalette();\n                var color = pallete.FindSimilarColor(_backgroundColor.R, _backgroundColor.G, _backgroundColor.B);\n                if (color != null)\n                {\n                    var colorIndex = color.GetIndex();\n                    _poiCell.CellStyle.FillBackgroundColor = colorIndex;\n                }\n</code></pre>\n\nAnd for the XSSFWorkbook item:<br />\n<pre><code>            XSSFCellStyle style =... // getting cells style\n            ...\n            style.FillBackgroundXSSFColor = new XSSFColor(_backgroundColor);\n            style.FillPattern = FillPattern.SolidForeground;\n</code></pre>\n\n",
    "PostedDate": "2014-07-04T02:37:54.663-07:00",
    "UserRole": null,
    "MarkedAsAnswerDate": null
  },
  {
    "Id": "1262980",
    "ThreadId": "550574",
    "Html": "For HSSFWorkbook, you can also use CellStyle, FillPattern and FillForegroundColor. Why do you use custom pallette in HSSF? I don't understand. \r<br />\nAny other examples?<br />\n",
    "PostedDate": "2014-07-05T23:56:53.673-07:00",
    "UserRole": "Owner",
    "MarkedAsAnswerDate": null
  },
  {
    "Id": "1263122",
    "ThreadId": "550574",
    "Html": "<strong>tonyqus wrote:</strong><br />\n<blockquote>\nFor HSSFWorkbook, you can also use CellStyle, FillPattern and FillForegroundColor.<br />\n</blockquote>\nGood news. Thank you.<br />\n<strong>tonyqus wrote:</strong><br />\n<blockquote>\nWhy do you use custom pallette in HSSF? I don't understand. <br />\n</blockquote>\nI use it because I read it in the docs: <a href=\"http://poi.apache.org/spreadsheet/quick-guide.html#CustomColors\" rel=\"nofollow\">http://poi.apache.org/spreadsheet/quick-guide.html#CustomColors</a>. However, the type of FillForegroundColor property is short. How can I convert C# Color value to set FillForegroundColor property using IWorkbook interface only?<br />\n<br />\n<strong>tonyqus wrote:</strong><br />\n<blockquote>\nAny other examples?<br />\n</blockquote>\nIn the next example:<br />\n<pre><code>            var region = new CellRangeAddress(RowIndex, RowIndex + RowSpan - 1, ColIndex, ColIndex + ColSpan - 1);\n            _regionIndex = _cell.Sheet.AddMergedRegion(region)</code></pre>\n\nHSSDSheet.AddMergedRegion(region) returns 0 and XSSDSheet.AddMergedRegion(region) returns 1 in the same situation.<br />\n",
    "PostedDate": "2014-07-06T22:17:29.7-07:00",
    "UserRole": null,
    "MarkedAsAnswerDate": null
  },
  {
    "Id": "1263526",
    "ThreadId": "550574",
    "Html": "It's just a increasing region index. It's possible that there are many regions so that this method will return 0, 1, 2, 3. It's normal.<br />\n",
    "PostedDate": "2014-07-07T22:26:22.723-07:00",
    "UserRole": "Owner",
    "MarkedAsAnswerDate": null
  },
  {
    "Id": "1263528",
    "ThreadId": "550574",
    "Html": "<strong>tonyqus wrote:</strong><br />\n<blockquote>\nIt's just a increasing region index. It's possible that there are many regions so that this method will return 0, 1, 2, 3. It's normal.<br />\n</blockquote>\nOf course It's normal to increasing index. It's not normal to start from zero in HSSDSheet.AddMergedRegion(region) and from 1 in XSSDSheet.AddMergedRegion(region).<br />\nAnd you didn't answer about converting Color to short.<br />\n",
    "PostedDate": "2014-07-07T22:34:28.16-07:00",
    "UserRole": null,
    "MarkedAsAnswerDate": null
  }
]