[
  {
    "Id": "1263535",
    "ThreadId": "550909",
    "Html": "Hello,<br />\n<br />\nWhen I save a xlsx as in xls format and open with NPOI, HSSFWorkbook. Style are dissappeared in saved xls file. <br />\n<br />\nHere is my Code<br />\n<br />\n using (FileStream f = new FileStream(file, FileMode.Open, FileAccess.ReadWrite))<br />\n {<br />\n<pre><code>                IWorkbook wb = WorkbookFactory.Create(f);\n\n                //wb = new HSSFWorkbook(wb);\n\n                maskXLSWorkbook(wb);\n\n                newFileName = outputFolderName + &quot;\\\\&quot; + maskId + &quot;_&quot; +Path.GetFileName(file);\n</code></pre>\n\nusing (FileStream stream = new FileStream(newFileName, FileMode.Create, FileAccess.ReadWrite))<br />\n {<br />\n<pre><code>          try\n          {\n                 wb.Write(stream);\n            }\n           catch {\n\n                    }\n             }</code></pre>\n\n}<br />\n",
    "PostedDate": "2014-07-07T23:13:40.517-07:00",
    "UserRole": null,
    "MarkedAsAnswerDate": null
  }
]