[
  {
    "Id": "1273703",
    "ThreadId": "551882",
    "Html": "I am trying to create an Excel worksheet containing multiple charts. However, when I add a second chart the resulting .XLSX file is corrupt when I try opening it.\r<br />\n<br />\nHere is a code sample that shows the issue (modified from the LineChart example):<br />\n<pre><code> static void Main(string[] args)\n        {\n            int NUM_OF_CHARTS = 2;\n\n            IWorkbook wb = new XSSFWorkbook();\n            ISheet sheet = wb.CreateSheet(&quot;linechart&quot;);\n\n            IDrawing drawing = sheet.CreateDrawingPatriarch();\n\n            for (int i = 0; i &lt; NUM_OF_CHARTS; i++)\n            {\n                CreateChart(sheet, drawing, i);\n            }\n\n            using (FileStream fs = File.Create(String.Format(&quot;test-{0} charts-{1}.xlsx&quot;, NUM_OF_CHARTS, DateTime.Now.Ticks)))\n            {\n                wb.Write(fs);\n            }\n        }\n\n        static IChart CreateChart(ISheet sheet, IDrawing drawing, int factor)\n        {\n            int NUM_OF_ROWS = 3;\n            int NUM_OF_COLUMNS = 10;\n\n            Random r = new Random((int)DateTime.Now.Ticks);\n\n            System.Threading.Thread.Sleep(r.Next(50, 100));\n\n            // Create a row and put some cells in it. Rows are 0 based.\n            IRow row;\n            ICell cell;\n            for (int rowIndex = 0 + (NUM_OF_ROWS * factor); rowIndex &lt; NUM_OF_ROWS * (1 + factor); rowIndex++)\n            {\n                row = sheet.CreateRow((short)rowIndex);\n                for (int colIndex = 0; colIndex &lt; NUM_OF_COLUMNS; colIndex++)\n                {\n                    cell = row.CreateCell((short)colIndex);\n                    if (rowIndex == 0 + NUM_OF_ROWS * factor)\n                    {\n                        cell.SetCellValue(colIndex);\n                    }\n                    else\n                    {\n                        cell.SetCellValue(r.Next(0,100));\n                    }\n                }\n            }\n\n            IClientAnchor anchor = drawing.CreateAnchor(0, 0, 0, 0, 10, 0 + (10 * factor), 20, 10 + (10 * factor));\n\n            IChart chart = drawing.CreateChart(anchor);\n            ILineChartData&lt;double, double&gt; data = chart.GetChartDataFactory().CreateLineChartData&lt;double, double&gt;();\n\n            // Use a category axis for the bottom axis.\n            IChartAxis bottomAxis = chart.GetChartAxisFactory().CreateCategoryAxis(AxisPosition.Bottom);\n            IValueAxis leftAxis = chart.GetChartAxisFactory().CreateValueAxis(AxisPosition.Left);\n\n            IChartDataSource&lt;double&gt; xs = DataSources.FromNumericCellRange(sheet, new CellRangeAddress(0 + factor * NUM_OF_ROWS, 0 + factor * NUM_OF_ROWS, 0, NUM_OF_COLUMNS - 1));\n            IChartDataSource&lt;double&gt; ys1 = DataSources.FromNumericCellRange(sheet, new CellRangeAddress(1 + factor * NUM_OF_ROWS, 1 + factor * NUM_OF_ROWS, 0, NUM_OF_COLUMNS - 1));\n            IChartDataSource&lt;double&gt; ys2 = DataSources.FromNumericCellRange(sheet, new CellRangeAddress(2 + factor * NUM_OF_ROWS, 2 + factor * NUM_OF_ROWS, 0, NUM_OF_COLUMNS - 1));\n\n            var s1 = data.AddSerie(xs, ys1);\n            s1.SetTitle(&quot;title1&quot;);\n            var s2 = data.AddSerie(xs, ys2);\n            s2.SetTitle(&quot;title2&quot;);\n\n            chart.Plot(data, bottomAxis, leftAxis);\n\n            return chart;\n        }</code></pre>\n\nAny ideas?<br />\n",
    "PostedDate": "2014-07-17T12:56:41.447-07:00",
    "UserRole": null,
    "MarkedAsAnswerDate": null
  },
  {
    "Id": "1286749",
    "ThreadId": "551882",
    "Html": "This discussion has been copied to a work item. Click <a href=\"https://npoi.codeplex.com/workitem/13181\" rel=\"nofollow\">here</a> to go to the work item and continue the discussion.<br />\n",
    "PostedDate": "2014-08-05T23:43:50.08-07:00",
    "UserRole": "Owner",
    "MarkedAsAnswerDate": null
  }
]