[
  {
    "Id": "1274977",
    "ThreadId": "552384",
    "Html": "Hello,<br />\n<br />\nI am using latest NPOI to open and to save an XLSX file.<br />\n<br />\nThat XLSX file has a lot of sheets with tables and graphics. The test I made was only to open and immediately to save the file.<br />\n<br />\nAfter that, I tried to open the Excel file and the file appeared corrupt. Excel has told me to fix it and I pressed OK.  After I pressed OK, the file was fixed and all the sheets are present, however, graphics appeared bad formated.<br />\n<br />\nAny help on this please?<br />\n<br />\nThanks in advance,<br />\nJaime<br />\n",
    "PostedDate": "2014-07-21T18:34:49.87-07:00",
    "UserRole": null,
    "MarkedAsAnswerDate": null
  },
  {
    "Id": "1274995",
    "ThreadId": "552384",
    "Html": "looks to be a bug. Please submit your xlsx file and the repro steps to Issues.<br />\n",
    "PostedDate": "2014-07-21T21:59:20.49-07:00",
    "UserRole": "Owner",
    "MarkedAsAnswerDate": null
  }
]