[
  {
    "Id": "1289419",
    "ThreadId": "560993",
    "Html": "Hi all\r<br />\n<br />\nI have a workbook with macros.\r<br />\n<br />\nHow can i open the workbook and EXECUTE a macro ?\r<br />\n<br />\nThans in advance.<br />\n",
    "PostedDate": "2014-08-12T12:57:43.197-07:00",
    "UserRole": null,
    "MarkedAsAnswerDate": null
  },
  {
    "Id": "1289711",
    "ThreadId": "560993",
    "Html": "I found a solution:\r<br />\n<br />\n<a href=\"http://support.microsoft.com/kb/306683\" rel=\"nofollow\">http://support.microsoft.com/kb/306683</a>\r<br />\n<br />\nthanks anyway.<br />\n",
    "PostedDate": "2014-08-13T08:52:38.21-07:00",
    "UserRole": null,
    "MarkedAsAnswerDate": "2014-08-13T08:52:53.56-07:00"
  }
]