[
  {
    "Id": "1289713",
    "ThreadId": "561065",
    "Html": "Hi.<br />\n<br />\nI'm creating a Excel export function for SQL server. I have the following bit of code in my Visual C# CLR Database Project...<br />\n<pre><code>public static void CreateExcelFile(SqlDataReader rdr, string outputFile, bool includeHeading)\n{\n    IWorkbook workbook;\n\n    if (outputFile.ToLower().EndsWith(&quot;.xlsx&quot;))\n        workbook = new XSSFWorkbook();\n    else\n        workbook = new HSSFWorkbook();\n\n    // Some other stuff\n\n    Directory.CreateDirectory(Path.GetDirectoryName(outputFile));\n    FileStream file = new FileStream(outputFile, FileMode.Create);\n    workbook.Write(file);\n    file.Close();\n}</code></pre>\n\nWhen I set the output file to something ending with .xls, it works like a charm, and I get the expected Excel result file. But when I specify the output file to something ending with .xlsx i get an exception at the &quot;workbook = new XSSFWorkbook();&quot; line. The exception message is empty and the stacktrace look like the following:<br />\n<pre><code>   at NPOI.POIXMLDocument.GetProperties()\n   at NPOI.XSSF.UserModel.XSSFWorkbook.OnWorkbookCreate()\n   at StoredProcedures.CreateExcelFile(SqlDataReader rdr, String outputFile, Boolean includeHeading)\n   at StoredProcedures.ExportExcel(String sql, String outputFile, Boolean includeHeading)</code></pre>\n\nI've tried to reproduce the problem in a console application without luck. Seems like there's something when running in the SQL Server. Anyone got any suggestions?<br />\n<br />\nBest regards<br />\n/Henning<br />\n",
    "PostedDate": "2014-08-13T08:59:23.69-07:00",
    "UserRole": null,
    "MarkedAsAnswerDate": null
  }
]