[
  {
    "Id": "1291253",
    "ThreadId": "561552",
    "Html": "Hi,\r<br />\n<br />\nApologies but I'm new to this, I've picked up a project from a colleague that left (with no handover). I opened up his project and noticed a missing reference of NPOI. I downloaded the latest version and updated the reference, now when I try to build the project I get the following error:<br />\n<blockquote>\nNPOI.SS.UserModel.FontBoldWeight' does not contain a definition for 'BOLD'<br />\n</blockquote>\nwhich relates to the following code:<br />\n<pre><code>            IFont titleFont = _Workbook.CreateFont();\n            titleFont.Boldweight = (short)FontBoldWeight.BOLD;</code></pre>\n\nI know this was built previously as there is a version of the application that works. Any help would be appreciated.<br />\n",
    "PostedDate": "2014-08-19T01:39:38.25-07:00",
    "UserRole": null,
    "MarkedAsAnswerDate": null
  },
  {
    "Id": "1291273",
    "ThreadId": "561552",
    "Html": "It seems that this was just a case sensitivity issue:<br />\n<pre><code>titleFont.Boldweight = (short)FontBoldWeight.BOLD;</code></pre>\n\nshould have been:<br />\n<pre><code>titleFont.Boldweight = (short)FontBoldWeight.Bold;</code></pre>\n\n",
    "PostedDate": "2014-08-19T02:25:49.37-07:00",
    "UserRole": null,
    "MarkedAsAnswerDate": "2014-08-19T02:25:56.763-07:00"
  }
]