[
  {
    "Id": "1293520",
    "ThreadId": "562149",
    "Html": "I am trying to read a Word document, make some changes and then save it with a different name.\r<br />\n<br />\nEven when not making any changes the &quot;copy&quot; document changes appearance. The reason is that the &quot;Normal&quot; Style gets a 10pt in Spacing after even if it is 0 in the original document.\r<br />\n<br />\nCan anyone explain what happens here and how to fix it?\r<br />\n<br />\nCode supplied below. NPOI version is 2.1.1 (2.0.6 gives same result)\r<br />\n<br />\nRegards\r<br />\n<br />\nAnders<br />\n<pre><code>        FileStream inputStream = new FileStream(@&quot;D:\\work\\Original.docx&quot;, FileMode.Open);\n        XWPFDocument doc = new XWPFDocument(inputStream);\n\n        FileStream outputStream = new FileStream(@&quot;D:\\work\\Copy.docx&quot;, FileMode.Create);\n        doc.Write(outputStream);\n        outputStream.Close();</code></pre>\n\n",
    "PostedDate": "2014-08-26T06:16:17.957-07:00",
    "UserRole": null,
    "MarkedAsAnswerDate": null
  }
]