[
  {
    "Id": "1294359",
    "ThreadId": "562365",
    "Html": "Hi,\r<br />\n<br />\nI have a xls template file that i have to fill with data. <br />\n2 of the fields in the template are =EMBED(&quot;Forms.ComboBox.1&quot;;&quot;&quot;).<br />\nI never really saw this on a excel file and if i try to set a value to the cell where they are (apparently this controls are not in a cell) i get a null exception.\r<br />\n<br />\nHas anyone ever changed the value of this controls with NPOI?\r<br />\n<br />\nNOTE: The template is protected with a passwrod and only some cells are available. I don't and i won't be able to receive the password and i can't change the template file.<br />\n",
    "PostedDate": "2014-08-28T10:34:08.11-07:00",
    "UserRole": null,
    "MarkedAsAnswerDate": null
  }
]