[
  {
    "Id": "1297699",
    "ThreadId": "564805",
    "Html": "Is PPT support supplied anywhere? I just need to extract text, nothing else.<br />\n<br />\nThanks,<br />\n<br />\nAndy<br />\n",
    "PostedDate": "2014-09-01T03:57:06.753-07:00",
    "UserRole": null,
    "MarkedAsAnswerDate": null
  },
  {
    "Id": "1298788",
    "ThreadId": "564805",
    "Html": "Hi Andy,\r<br />\n<br />\nThere is no support for ppt by NPOI. Sorry for that.<br />\n",
    "PostedDate": "2014-09-03T17:57:10.87-07:00",
    "UserRole": "Owner",
    "MarkedAsAnswerDate": "2014-09-03T17:57:14.287-07:00"
  }
]