[
  {
    "Id": "1330525",
    "ThreadId": "574493",
    "Html": "Hello,\r<br />\n I am using the NPOI 2.o version. I am able to read and write xls and xlsx file format. But not able to read or write xlsm format in NPOL. what to do to read and write xlsm format file in NPOL. Please help.<br />\n",
    "PostedDate": "2014-12-10T02:18:49.347-08:00",
    "UserRole": null,
    "MarkedAsAnswerDate": null
  }
]