[
  {
    "Id": "1346723",
    "ThreadId": "578794",
    "Html": "Hello,<br />\nI have just begun creating docx with XWPFDocument. Could you please advice if my approach is proper, assuming that I would like to create a table with 3 columns, first narrow, second and third wider:<br />\n<pre><code>XWPFTable t0 = doc.CreateTable( 3, 3 );\nt0.Width = 5000;\n\nt0.GetRow( 0 ).GetCell( 0 ).SetText( &quot;A&quot; );\nt0.GetRow( 0 ).GetCell( 1 ).SetText( &quot;B&quot; );\nt0.GetRow( 0 ).GetCell( 2 ).SetText( &quot;C&quot; );\n\nt0.GetRow( 1 ).GetCell( 0 ).SetText( &quot;X&quot; );\nt0.GetRow( 1 ).GetCell( 1 ).SetText( &quot;Name 1, Name 2, Name 3, Name 4&quot; );\nt0.GetRow( 1 ).GetCell( 2 ).SetText( &quot;Name 1, Name 2, Name 3, Name 4&quot; );\n\nt0.SetColumnWidth( 0, 1000 );\nt0.SetColumnWidth( 1, 2000 );\nt0.SetColumnWidth( 2, 2000 );</code></pre>\n\nBeside of it I would like to leave only horizontal lines (top, bottom and innern) for the table.<br />\nI know how to modify presence of cell borders for a spreadsheet but not for the Word docx table. Here I tried for the [0, 0] cell something like:<br />\n<pre><code>XWPFTableCell c00 = t0.GetRow( 0 ).GetCell( 0 );\nCT_TcBorders c00Borders = c00.GetCTTc( ).AddNewTcPr( ).AddNewTcBorders( );\nc00Borders.left = new CT_Border { val = ST_Border.nil };\nc00Borders.right = new CT_Border { val = ST_Border.nil };\nc00Borders.insideV = new CT_Border { val = ST_Border.nil };</code></pre>\n\nbut I am not sure if that is proper.  Any help if I may please?<br />\n",
    "PostedDate": "2015-01-28T04:30:12.74-08:00",
    "UserRole": null,
    "MarkedAsAnswerDate": null
  }
]