[
  {
    "Id": "1350421",
    "ThreadId": "579849",
    "Html": "Hello I am in the progress of migrating a MVC application to a SPA with angular. In the past application I was able to pass a Filestream object from the MVC controller back to my page which prompted the user to download the generated excel file. Within the SPA I am now working with a webapi controller as well as angular, services and controllers. I can pass the reporting object to the api and generate the memory stream from the NPOI assembly but I am stuck on how to pass this back from the webapi to the client to prompt them to download.\r<br />\n<br />\nHere is the webapi method I have so far:<br />\n<pre><code>[HttpPost]\npublic HttpResponseMessage ExportReport([FromBody]DTOs.Report report)\n{\n  try\n     {\n      IReportPersistenceManager manager = ContainerConfigurator.Instance.Resolve&lt;IReportPersistenceManager&gt;();\n\n      MemoryStream ms = new MemoryStream();\n      //we have to pass to the NOPI assemble file type as well as file name \n     //since we only deal with excel for now we will set it but this could be configured later.\n      long id = report.ReportId;\n      string mimeType = &quot;application/vnd.ms-excel&quot;;\n      string filename = &quot;unknown&quot;;\n      manager.ExportDataToExcel(id, (name, mime) =&gt;\n      {\n       mimeType = mime;\n       filename = name;\n       return ms;\n      });\n     ms.Position = 0;\n\n    var response = new HttpResponseMessage();\n    response.Content = new ByteArrayContent(ms.ToArray());\n    response.Content.Headers.ContentType = new MediaTypeHeaderValue(&quot;application/vnd.ms-excel&quot;);       \n   return (response);\n   }\n   catch (Exception)\n   {\n   //error\n   return new HttpResponseMessage(System.Net.HttpStatusCode.BadRequest);\n   }\n}</code></pre>\n\nBased upon what I have read using HttpResponseMessge looks to be teh right direction but I am stuck on how to get this object once returned to unravel and prompt the user to download the file. I may be way off on the approach but I was wondering if anyone has used NPOI with Angular or some other similar SPA framework and what was needed to get the download to fire.\r<br />\n<br />\nI've also posted this question on <a href=\"http://stackoverflow.com/questions/28421480/how-to-download-memory-stream-object-via-angularjs-and-webaapi2\" rel=\"nofollow\">stackoverflow</a> for reference\r<br />\n<br />\nI'd really appreciate any guidance or suggestions on an approach\r<br />\n<br />\nthank you<br />\n",
    "PostedDate": "2015-02-09T15:50:06.213-08:00",
    "UserRole": null,
    "MarkedAsAnswerDate": null
  }
]