[
  {
    "Id": "1354862",
    "ThreadId": "581610",
    "Html": "There's a date to release Version 2.2?<br />\n",
    "PostedDate": "2015-02-23T04:18:42.963-08:00",
    "UserRole": null,
    "MarkedAsAnswerDate": null
  },
  {
    "Id": "1356203",
    "ThreadId": "581610",
    "Html": "Why 2.2? What do you need?<br />\n",
    "PostedDate": "2015-02-26T20:05:24.37-08:00",
    "UserRole": "Owner",
    "MarkedAsAnswerDate": null
  },
  {
    "Id": "1356320",
    "ThreadId": "581610",
    "Html": "According to NPOI roadmap, in version 2.2 it will be able to handle ppt. And i need to transform slides of an ppt to jpg.<br />\n",
    "PostedDate": "2015-02-27T03:20:02.563-08:00",
    "UserRole": null,
    "MarkedAsAnswerDate": null
  },
  {
    "Id": "1357242",
    "ThreadId": "581610",
    "Html": "I'm afraid this will be postpone to some other version like 2.5. In 2.2, we have to solve something urgent<br />\n",
    "PostedDate": "2015-03-01T01:51:48.093-08:00",
    "UserRole": "Owner",
    "MarkedAsAnswerDate": null
  }
]