[
  {
    "Id": "1360368",
    "ThreadId": "584742",
    "Html": "I have a spreadsheet containing a DATEDIF formula within a cell. When I attempt to evaluate the formula, I get the above error. I've tried this with both HSSF and XSSF, with both the EvaluateAllFormulaCells and workbook.GetCreationHelper().CreateFormulaEvaluator().EvaluateAll() sub routines.\r<br />\n<br />\nI've examined the source code of the project and it does appear that the DATEDIF function has been written as part of it, so I can't figure out why this isn't working.\r<br />\n<br />\nHas anyone had a similar problem or know what the solution is?\r<br />\n<br />\nThanks<br />\n",
    "PostedDate": "2015-03-06T02:49:45.717-08:00",
    "UserRole": null,
    "MarkedAsAnswerDate": null
  }
]