[
  {
    "Id": "1363252",
    "ThreadId": "586292",
    "Html": "Using current version of NPOI under Win7 64-bit, VS2013.\r<br />\n<br />\nMy program worked great (under 4.5.1), I was able to add a hyperlink to a directory that brought up Windows Explorer in a newly-created directory.  The DLLs I used were in a directory called 'dotnet2'.\r<br />\n<br />\nThen I realized the target machines would not have .NET 4.5.1, probably only 2.0, so I created a new project, copied my source over, added the references to 'dotnet2' NPOI DLLs.<br />\n\r<br />\nNow my cell has the hyperlink style, but there is no hyperlink to the directory, and the mouse pointer does not change.  When debugging, everything seems to go correctly.<br />\n\r<br />\nHere's a code snippet;  does anything look incorrect?<br />\n<pre><code>ICell cmdLineCell = row.GetCell(4);\ncmdLineCell.SetCellValue(fullPath);\n\nstring uriDir = Path.GetDirectoryName(fullPath);\nUri linkAddr = new Uri(uriDir);\n\ntry\n{\n    link.Address = (linkAddr.AbsoluteUri);\n    cmdLineCell.Hyperlink = (link);\n    cmdLineCell.CellStyle = (hlink_style);\n}\ncatch (Exception)\n{\n    Console.WriteLine(&quot;******* ERROR CREATING HYPERLINK *********&quot;);\n}</code></pre>\n\n",
    "PostedDate": "2015-03-13T12:28:20.417-07:00",
    "UserRole": null,
    "MarkedAsAnswerDate": null
  },
  {
    "Id": "1363257",
    "ThreadId": "586292",
    "Html": "<strong>showens wrote:</strong><br />\n<blockquote>\nHere's a code snippet;  does anything look incorrect?<br />\n<pre><code>ICell cmdLineCell = row.GetCell(4);\ncmdLineCell.SetCellValue(fullPath);\n\nstring uriDir = Path.GetDirectoryName(fullPath);\nUri linkAddr = new Uri(uriDir);\n\ntry\n{\n    link.Address = (linkAddr.AbsoluteUri);\n    cmdLineCell.Hyperlink = (link);\n    cmdLineCell.CellStyle = (hlink_style);\n}\ncatch (Exception)\n{\n    Console.WriteLine(&quot;******* ERROR CREATING HYPERLINK *********&quot;);\n}</code></pre>\n\n</blockquote>\nI found the issue.  The 'link' object has to be created each time a new cell is hyperlinked.  I added this and everything worked again.<br />\n<pre><code>XSSFHyperlink link = new XSSFHyperlink(HyperlinkType.File);</code></pre>\n\n",
    "PostedDate": "2015-03-13T12:45:52.317-07:00",
    "UserRole": null,
    "MarkedAsAnswerDate": "2015-03-13T12:45:56.48-07:00"
  }
]