[
  {
    "Id": "1385521",
    "ThreadId": "603939",
    "Html": "There is some method to stream write into xls document?<br />\n",
    "PostedDate": "2015-03-23T02:57:03.727-07:00",
    "UserRole": null,
    "MarkedAsAnswerDate": null
  }
]