[
  {
    "Id": "206153",
    "ThreadId": "60837",
    "Html": "<p>Is this Library support printing Excel file ?</p>",
    "PostedDate": "2009-06-27T01:23:02.64-07:00",
    "UserRole": null,
    "MarkedAsAnswerDate": null
  },
  {
    "Id": "206419",
    "ThreadId": "60837",
    "Html": "<p>I'm not sure what's your exact meaning. The library supports changing the print settings of Excel. However, this is excel-file-based, which means any print settings are saved in the xls. To support this file, users have to download the Excel and then print it in Excel file. If you are talking about printing the Excel in a web page, I'm afraid this is out of the scope of this library. If you need any further information, please feel free to contact me via tonyqus (at) gmail.com</p>",
    "PostedDate": "2009-06-28T18:13:49.587-07:00",
    "UserRole": "Owner",
    "MarkedAsAnswerDate": null
  },
  {
    "Id": "206795",
    "ThreadId": "60837",
    "Html": "<p>I mean something like this:</p>\r\n<p>\r\n<pre>NPOI.Print(&quot;dummy.xls&quot;);</pre>\r\n</p>\r\n<p>Print Excel file directly, without opening it.</p>",
    "PostedDate": "2009-06-29T15:23:46.84-07:00",
    "UserRole": null,
    "MarkedAsAnswerDate": null
  },
  {
    "Id": "206837",
    "ThreadId": "60837",
    "Html": "<p>As I said, direct-print is out of the scope of this library. Sorry about that!</p>",
    "PostedDate": "2009-06-29T18:27:36.843-07:00",
    "UserRole": "Owner",
    "MarkedAsAnswerDate": null
  }
]