[
  {
    "Id": "1415978",
    "ThreadId": "631786",
    "Html": "Hello,<br />\n<br />\nI currently work for a small qualitative research company who specializes in mobile research.  We are looking to have a have a custom excel file pulled from our database in a specific format.  Anyone who has experience please reach out to me I would love to talk.<br />\n<br />\nThanks,<br />\n<br />\nZach<br />\n",
    "PostedDate": "2015-04-20T08:41:36.227-07:00",
    "UserRole": null,
    "MarkedAsAnswerDate": null
  },
  {
    "Id": "1431842",
    "ThreadId": "631786",
    "Html": "Hello,\r<br />\nI have some experience with creating such files from database. My approach is:<br />\n<ol>\n<li>first create a spreadsheet layout using MS Excel</li>\n<li>then read the layout using NPOI and save it eg. as an XML file or db records</li>\n<li>\nuse the structure definition and the db data to generate the custom files (again using NPOI)<br />\n</li>\n</ol>\nEdward<br />\n",
    "PostedDate": "2015-06-25T06:55:34.527-07:00",
    "UserRole": null,
    "MarkedAsAnswerDate": null
  }
]