[
  {
    "Id": "1417588",
    "ThreadId": "632715",
    "Html": "How can I refresh all queries in an Excel Workbook using this .dll?  What would syntax be for both .xls and .xlsx files?<br />\n",
    "PostedDate": "2015-04-24T17:30:58.433-07:00",
    "UserRole": null,
    "MarkedAsAnswerDate": null
  }
]