[
  {
    "Id": "1433203",
    "ThreadId": "640965",
    "Html": "Hi readers, <br />\n<br />\nI just want to know if NPOI provides following features or not: <br />\n<br />\n1) Styling in word and excel documents (e.g. changing font, colors etc.). <br />\n2) Page number insertion after page break in word document. <br />\n3) Creating hyperlinks, paragraphs and table of contents in word document. <br />\n<br />\nIf you have any useful resources or code snippets, please share. <br />\n<br />\nOne more question, does NPOI have any limitations / characteristics in Azure environment? <br />\n<br />\nThanks.<br />\n",
    "PostedDate": "2015-07-06T03:26:40.25-07:00",
    "UserRole": null,
    "MarkedAsAnswerDate": null
  }
]