[
  {
    "Id": "1442127",
    "ThreadId": "644287",
    "Html": "I have a big string variable(table) contains &quot;&lt;table&gt;...&lt;tr&gt;...&lt;td&gt;.......&quot; Its a html code.\r<br />\n<br />\nSo I want to use this string variable to create excel file with NPOI.\r<br />\nAnd of course I don't want to work with cell by cell.\r<br />\nNPOI is capable to do this ? (I need a code)<br />\n",
    "PostedDate": "2015-08-27T05:54:09.48-07:00",
    "UserRole": null,
    "MarkedAsAnswerDate": null
  },
  {
    "Id": "1445240",
    "ThreadId": "644287",
    "Html": "I'm afraid no. NPOI can only do &quot;Excel to html&quot; for now.<br />\n",
    "PostedDate": "2015-09-21T13:42:43.35-07:00",
    "UserRole": "Owner",
    "MarkedAsAnswerDate": null
  }
]