[
  {
    "Id": "1465989",
    "ThreadId": "652266",
    "Html": "Hi,<br />\n<br />\nI am trying to select multiple options when protecting my NPOI Sheet. I have set the correct formatting for range of cell I need locked and not locked and have that working, but I need the ability to select the additional options like as shown in image below. <br />\n<br />\n<img src=\"https://osiprodeusodcspstoa01.blob.core.windows.net/en-us/media/3d6b23e1-a186-420c-ac4c-956a49a907cf.jpg\" alt=\"Image\" /><br />\n<br />\nI need to select (Select Locked Cells, Select Unlocked Cells, Format Cells, Format Columns, Format Rows, Insert Rows, Delete Rows, Use AutoFilters)<br />\n<br />\nThanks for any help!!<br />\n",
    "PostedDate": "2016-03-07T12:30:47.123-08:00",
    "UserRole": null,
    "MarkedAsAnswerDate": null
  }
]