[
  {
    "Id": "1486676",
    "ThreadId": "658892",
    "Html": "it's possible to download the source code of version NPOI 2.2.1?\r<br />\nthanks<br />\n",
    "PostedDate": "2016-10-22T10:17:43.627-07:00",
    "UserRole": null,
    "MarkedAsAnswerDate": null
  },
  {
    "Id": "1487199",
    "ThreadId": "658892",
    "Html": "Hi, \r<br />\n<br />\nI am totally new in here, so please bear with me, if I don't give the right information.\r<br />\n<br />\nAs far as I have figured out, the source code is here: \r<br />\n<a href=\"https://github.com/tonyqus/npoi\" rel=\"nofollow\">https://github.com/tonyqus/npoi</a>\r<br />\n<br />\nI haven't found any other forum for the software than here at codeplex, but the source code here seems to be very old.\r<br />\n<br />\n/Rasmus<br />\n",
    "PostedDate": "2016-11-01T05:10:21.847-07:00",
    "UserRole": null,
    "MarkedAsAnswerDate": null
  }
]