[
  {
    "Id": "1487946",
    "ThreadId": "659412",
    "Html": "Dear All,\r<br />\n<br />\nI'm have to put a picture on a DOCX file using NPOI. \r<br />\n<br />\nUsing NPOI 2.1 I have no problem to do that using this code:<br />\n<pre><code>XWPFDocument doc = new XWPFDocument();\n            XWPFParagraph p2 = doc.CreateParagraph();\n            XWPFRun r2 = p2.CreateRun();\n            r2.SetBold(true);\n            r2.SetText(&quot;test&quot;);\n\n            var widthEmus = (int)(400.0 * 9525);\n            var heightEmus = (int)(300.0 * 9525);\n\n            using (FileStream picData = new FileStream(imgPath, FileMode.Open, FileAccess.Read))\n            {\n                r2.AddPicture(picData, (int)PictureType.PNG, &quot;image1&quot;, widthEmus, heightEmus);\n            }\n\n            using (FileStream sw = File.Create(outputfile))\n            {\n                doc.Write(sw);\n            }</code></pre>\n\nAnyway, using the version 2.2 this code does not work correctly sinche the create DOCX file cannot be open correctly using Word (but open office can open it!)\r<br />\n<br />\nDo you have any idea on how to insert a Picture using version 2.2?\r<br />\n<br />\nThanks<br />\n",
    "PostedDate": "2016-11-15T08:49:16.043-08:00",
    "UserRole": null,
    "MarkedAsAnswerDate": null
  }
]