[
  {
    "Id": "1492705",
    "ThreadId": "661363",
    "Html": "I am using NPOI dll to read excel file which contains 35k rows(10MB )<br />\n<pre><code>using (FileStream fs = new FileStream(&quot;temp.xlsx&quot;, FileMode.Open, FileAccess.Read))\n{\n      IWorkbook wb = WorkbookFactory.Create(fs);\n}</code></pre>\n\nAfter reading excel file using above code process memory increased around 200MB. In my application multiple excel files are reading one after another, so process memory increasing for each file.  I am unable to clear process memory because workbook doesn't have any dispose method. I want to clear memory occupied by workbook after completion of work with one excel file and read another file.\r<br />\nAfter reading excel file :  Is there any method to clear workbook memory?<br />\n",
    "PostedDate": "2017-02-15T04:59:59.977-08:00",
    "UserRole": null,
    "MarkedAsAnswerDate": null
  }
]