[
  {
    "Id": "1495760",
    "ThreadId": "662681",
    "Html": "CodePlex is shutting down, and will be frozen October of this year (2017).\r<br />\n<br />\nDoes Tony Qu or Neuzilla have any migration plans?  It looks like their is a main page at <a href=\"https://www.nuget.org/packages/NPOI/\" rel=\"nofollow\">https://www.nuget.org/packages/NPOI/</a>, but all (most?) of the documentation points to <a href=\"https://npoi.codeplex.com\" rel=\"nofollow\">https://npoi.codeplex.com</a> as the &quot;home&quot; of NPOI.\r<br />\n<br />\nWhere will this discussion group move to?<br />\n",
    "PostedDate": "2017-04-24T15:04:45.88-07:00",
    "UserRole": null,
    "MarkedAsAnswerDate": null
  }
]