[
  {
    "Id": "229731",
    "ThreadId": "67597",
    "Html": "<p>The following code will NOT set the FillBackgroundProperty if the foreground color has not been set previously.</p>\r\n<p>&nbsp;&nbsp;&nbsp;&nbsp;&nbsp;&nbsp;&nbsp;&nbsp;&nbsp;&nbsp;&nbsp; HSSFCellStyle style = _thisBook.CreateCellStyle();<br>&nbsp;&nbsp;&nbsp;&nbsp;&nbsp;&nbsp;&nbsp;&nbsp;&nbsp;&nbsp;&nbsp; style.FillBackgroundColor = NPOI.HSSF.Util.HSSFColor.PINK.index;</p>\r\n<p>It appears to be in the logic in the HSSFCellStyle.CheckDefaultBackgroundFills().&nbsp; It prevents me from using the automatic foreground color with a custom background color, it even goes so far as to reset the background color if the foreground color is reset to automatic.</p>\r\n<p>Is there a particular reason why you can not change the background color of a cell without changing the foreground color from automatic?&nbsp;</p>\r\n<p>Also, how do a set the background fill to a solid?&nbsp; I see foreground fill of solid, but background all seem to be a pattern.&nbsp; I don't want a pattern, I want a solid fill with no pattern.</p>",
    "PostedDate": "2009-09-01T07:59:59.047-07:00",
    "UserRole": null,
    "MarkedAsAnswerDate": null
  },
  {
    "Id": "229741",
    "ThreadId": "67597",
    "Html": "<p>NM... I get it now.&nbsp; My concept of fore and background colors was incorrect.</p>",
    "PostedDate": "2009-09-01T08:19:13.303-07:00",
    "UserRole": null,
    "MarkedAsAnswerDate": null
  },
  {
    "Id": "229977",
    "ThreadId": "67597",
    "Html": "<p>That's ok. I used to get confused&nbsp;of the backgroundcolor and foregoundcolor&nbsp;like&nbsp;you&nbsp;while writing the fillbackground example in NPOI.Example. The Excel background is a bit more advanced than we thought. Anyway, thank you for your feedback.</p>\r\n<p>If you&nbsp;find any&nbsp;bugs and issues, please feel free to let me know</p>",
    "PostedDate": "2009-09-01T18:22:26.677-07:00",
    "UserRole": "Owner",
    "MarkedAsAnswerDate": null
  },
  {
    "Id": "420533",
    "ThreadId": "67597",
    "Html": "<p>please kindly fix it &nbsp;..........</p>",
    "PostedDate": "2010-03-20T05:38:27.917-07:00",
    "UserRole": null,
    "MarkedAsAnswerDate": null
  },
  {
    "Id": "421953",
    "ThreadId": "67597",
    "Html": "<p>This is not a bug. It's by design. So no need to fix it.</p>",
    "PostedDate": "2010-03-21T18:34:42.893-07:00",
    "UserRole": "Owner",
    "MarkedAsAnswerDate": null
  },
  {
    "Id": "487584",
    "ThreadId": "67597",
    "Html": "<p>Why is it not a bug that setting the foreground color changes the background color, and setting the background color does nothing?</p>",
    "PostedDate": "2010-09-01T07:00:26.423-07:00",
    "UserRole": null,
    "MarkedAsAnswerDate": null
  },
  {
    "Id": "487730",
    "ThreadId": "67597",
    "Html": "<p>It's been a long time since I've looked at this, and if I'm wrong I hope Tony will correct me, but forecolor does not mean text color in this situation.&nbsp;&nbsp;&nbsp;You have to think of the cell as having two layers that compose the background color information.&nbsp;&nbsp;Combined they give you your final effect.&nbsp; So think of the background information as a way to add a colored pattern to a cell and the foreground as the true cell color that shows through it.</p>\r\n<p>&nbsp;</p>\r\n<p>I know it's confusing, but if you have excel 2007 try thinking of it this way.&nbsp; When you look at the fill tab in format cells, the information on the left side deals with forecolor information, and the information on the right background.&nbsp; If you pay attention to how they react with each other, it should start to give you an idea of how this all works.</p>",
    "PostedDate": "2010-09-01T10:36:57.847-07:00",
    "UserRole": null,
    "MarkedAsAnswerDate": null
  },
  {
    "Id": "487757",
    "ThreadId": "67597",
    "Html": "<p>That makes sense, mostly :)</p>\r\n<p>I have Excel 2003, and it sounds similar to 2007.&nbsp; I have the choice of a &quot;Background Color&quot; and a &quot;Pattern Color&quot;.</p>",
    "PostedDate": "2010-09-01T11:19:13.46-07:00",
    "UserRole": null,
    "MarkedAsAnswerDate": null
  },
  {
    "Id": "487773",
    "ThreadId": "67597",
    "Html": "<p>Yeah, Background Color is probably really the foreground information and Pattern Color is background.</p>\r\n<p>Like I said though, it can be confusing especially since most developers don't think of foreground color in this way.</p>",
    "PostedDate": "2010-09-01T11:29:27.177-07:00",
    "UserRole": null,
    "MarkedAsAnswerDate": null
  }
]