[
  {
    "Id": "257174",
    "ThreadId": "75153",
    "Html": "<p>I need this library to run on a shared host.</p>\r\n<p>Shared hosts always run in medium trust, so is there anyway to change the library to not need full trust?</p>",
    "PostedDate": "2009-11-14T20:27:48.22-08:00",
    "UserRole": null,
    "MarkedAsAnswerDate": null
  }
]