[
  {
    "Id": "257895",
    "ThreadId": "75358",
    "Html": "<p>I'm opening an existing .xls file; Excel 2003, adding rows and populating columns. How do I save the changes?</p>\r\n<div style=\"color:Black;background-color:White\">\r\n<pre>      <span style=\"color:Green\">// copy the template file to a working file that will be populated</span>\r\n      File.Copy(templateFile, outputFile);\r\n\r\n      <span style=\"color:Green\">// open the working file as a stream</span>\r\n      FileStream fs = <span style=\"color:Blue\">new</span> FileStream(outputFile, FileMode.Open, FileAccess.ReadWrite);\r\n\r\n      <span style=\"color:Green\">// open the entire workbook</span>\r\n      HSSFWorkbook wb = <span style=\"color:Blue\">new</span> HSSFWorkbook(fs);\r\n\r\n      <span style=\"color:Green\">// get reference to the &quot;Project&quot; worksheet</span>\r\n      HSSFSheet ws = wb.GetSheet(<span style=\"color:#A31515\">&quot;Project&quot;</span>);\r\n\r\n      <span style=\"color:Green\">// determine where the next row will be created</span>\r\n      nextRow = ws.LastRowNum + 1;\r\n\r\n      <span style=\"color:Green\">// create the row</span>\r\n      HSSFRow row = ws.CreateRow(nextRow);\r\n\r\n      <span style=\"color:Green\">// populate first two columns with some dummy data</span>\r\n      row.CreateCell(0).SetCellValue(<span style=\"color:#A31515\">&quot;Foo&quot;</span>);\r\n      row.CreateCell(1).SetCellValue(<span style=\"color:#A31515\">&quot;Bar&quot;</span>);\r\n\r\n      <span style=\"color:Green\">// save the changes</span>\r\n      wb.Write(fs); <span style=\"color:Green\">// error right here with a 'System.ObjectDisposedException' (cannot access a closed file)</span>\r\n\r\n      fs.Close();\r\n\r\n</pre>\r\n</div>",
    "PostedDate": "2009-11-17T06:14:40.213-08:00",
    "UserRole": null,
    "MarkedAsAnswerDate": null
  },
  {
    "Id": "257956",
    "ThreadId": "75358",
    "Html": "<p>I must've been brain-dead... this works:</p>\r\n<div style=\"color:Black;background-color:White\">\r\n<pre>      <span style=\"color:Green\">// open the input file as a stream</span>\r\n      fs = <span style=\"color:Blue\">new</span> FileStream(inputFile, FileMode.Open, FileAccess.ReadWrite);\r\n\r\n      <span style=\"color:Green\">// open the entire workbook</span>\r\n      HSSFWorkbook wb = <span style=\"color:Blue\">new</span> HSSFWorkbook(fs);\r\n\r\n      fs.Close();\r\n\r\n      <span style=\"color:Green\">// get reference to the &quot;Project&quot; worksheet</span>\r\n      HSSFSheet ws = wb.GetSheet(<span style=\"color:#A31515\">&quot;Project&quot;</span>);\r\n\r\n      <span style=\"color:Green\">// determine where the next row will be created</span>\r\n      nextRow = ws.LastRowNum + 1;\r\n\r\n      <span style=\"color:Green\">// create the row</span>\r\n      HSSFRow row = ws.CreateRow(nextRow);\r\n\r\n      <span style=\"color:Green\">// populate first two columns with some dummy data</span>\r\n      row.CreateCell(0).SetCellValue(<span style=\"color:#A31515\">&quot;Foo&quot;</span>);\r\n      row.CreateCell(1).SetCellValue(<span style=\"color:#A31515\">&quot;Bar&quot;</span>);\r\n\r\n      <span style=\"color:Green\">// create a filestream for the output file</span>\r\n      fs = <span style=\"color:Blue\">new</span> FileStream(outputFile, FileMode.Create);\r\n\r\n      <span style=\"color:Green\">// save the changes</span>\r\n      wb.Write(fs);           \r\n\r\n      fs.Close();\r\n\r\n\r\n \r\n\r\n</pre>\r\n</div>",
    "PostedDate": "2009-11-17T08:31:29.367-08:00",
    "UserRole": null,
    "MarkedAsAnswerDate": null
  }
]