[
  {
    "Id": "263672",
    "ThreadId": "77131",
    "Html": "<p>Hello,</p>\r\n<p>May i ask for help please?</p>\r\n<p>I want to load an existing xls file and convert it to DataTable. Any help please?</p>\r\n<p>&nbsp;</p>\r\n<p>Thank you!</p>",
    "PostedDate": "2009-12-04T08:21:21.737-08:00",
    "UserRole": null,
    "MarkedAsAnswerDate": null
  },
  {
    "Id": "264247",
    "ThreadId": "77131",
    "Html": "<p>http://msdn.microsoft.com/zh-tw/ee818993.aspx</p>",
    "PostedDate": "2009-12-06T15:10:49.72-08:00",
    "UserRole": "Owner",
    "MarkedAsAnswerDate": null
  }
]