[
  {
    "Id": "276009",
    "ThreadId": "80510",
    "Html": "<p>Hi,</p>\r\n<p>Does anyone have a idea how to protect the structure of a workbook using NPOI. I do not want to allow users to un-hide some of the protected sheets within the generated Excel file. I know that you can do it using the Excel Libraries by using the following technique: <a href=\"http://msdn.microsoft.com/en-us/library/7czw9wzs.aspx\">http://msdn.microsoft.com/en-us/library/7czw9wzs.aspx</a>.</p>\r\n<p>I am aware of the workbook.WriteProtectWorkbook(&quot;password&quot;); method, but only sets a password on the entire document. Thus when you open the workbook you need to type in a password or open it as read-only. But in all this you are still allowed to un-hide protected sheets</p>\r\n<p>Any help would be greatly appreciated.</p>\r\n<p>Thanks,</p>\r\n<p>Jannes</p>",
    "PostedDate": "2010-01-11T22:20:55.42-08:00",
    "UserRole": null,
    "MarkedAsAnswerDate": null
  },
  {
    "Id": "277069",
    "ThreadId": "80510",
    "Html": "<p><a href=\"http://office.microsoft.com/en-us/excel/HA100968371033.aspx#LockCells\">http://office.microsoft.com/en-us/excel/HA100968371033.aspx#LockCells</a></p>\r\n<p>Is this what you want?</p>",
    "PostedDate": "2010-01-14T04:00:22.147-08:00",
    "UserRole": "Owner",
    "MarkedAsAnswerDate": null
  },
  {
    "Id": "277144",
    "ThreadId": "80510",
    "Html": "<p>Hi Tony,</p>\r\n<p>Yes the section that details the following</p>\r\n<h3>&quot;Protecting the structure and windows of a workbook</h3>\r\n<p>You can lock the structure of a workbook, which prevents users from adding or deleting worksheets or from displaying hidden worksheets. You can also prevent users from changing the size or position of worksheet windows. Workbook structure and window protection applies to the whole workbook.&quot;</p>\r\n<p>from the following link <a title=\"http://office.microsoft.com/en-us/excel/HP100785801033.aspx?pid=CH101024601033\" href=\"http://office.microsoft.com/en-us/excel/HP100785801033.aspx?pid=CH101024601033\">http://office.microsoft.com/en-us/excel/HP100785801033.aspx?pid=CH101024601033</a></p>\r\n<p>Thanks</p>",
    "PostedDate": "2010-01-14T07:01:55.283-08:00",
    "UserRole": null,
    "MarkedAsAnswerDate": null
  }
]