{
  "WorkItem": {
    "AffectedComponent": {
      "Name": "",
      "DisplayName": ""
    },
    "ClosedComment": "",
    "ClosedDate": "2008-10-09T16:48:08.33-07:00",
    "CommentCount": 0,
    "Custom": null,
    "Description": "package org.apache.poi.ddf",
    "LastUpdatedDate": "2013-05-16T05:28:06.233-07:00",
    "PlannedForRelease": "NPOI.DDF 1.0",
    "ReleaseVisibleToPublic": true,
    "Priority": {
      "Name": "Medium",
      "Severity": 100,
      "Id": 2
    },
    "ProjectName": "npoi",
    "ReportedDate": "2008-09-22T08:33:16.177-07:00",
    "Status": {
      "Name": "Closed",
      "Id": 4
    },
    "ReasonClosed": {
      "Name": "Unassigned"
    },
    "Summary": "NPOI.DDF namespace",
    "Type": {
      "Name": "Task",
      "Id": 2
    },
    "VoteCount": 0,
    "Id": 177
  },
  "FileAttachments": [],
  "Comments": [
    {
      "Message": "Associated with changeset 2052.",
      "PostedDate": "2008-09-23T09:00:01.243-07:00",
      "Id": -2147483648
    },
    {
      "Message": "Associated with changeset 2246.",
      "PostedDate": "2008-09-25T01:57:36.687-07:00",
      "Id": -2147483648
    },
    {
      "Message": "",
      "PostedDate": "2008-09-25T02:14:21.253-07:00",
      "Id": -2147483648
    },
    {
      "Message": "",
      "PostedDate": "2008-09-29T01:04:56.493-07:00",
      "Id": -2147483648
    },
    {
      "Message": "",
      "PostedDate": "2008-10-09T16:47:07.427-07:00",
      "Id": -2147483648
    },
    {
      "Message": "",
      "PostedDate": "2008-10-09T16:48:08.33-07:00",
      "Id": -2147483648
    },
    {
      "Message": "",
      "PostedDate": "2013-02-21T18:20:15.863-08:00",
      "Id": -2147483648
    },
    {
      "Message": "",
      "PostedDate": "2013-05-16T05:28:06.233-07:00",
      "Id": -2147483648
    }
  ]
}