{
  "WorkItem": {
    "AffectedComponent": {
      "Name": "",
      "DisplayName": ""
    },
    "ClosedComment": "",
    "ClosedDate": null,
    "CommentCount": 0,
    "Custom": null,
    "Description": "I found when AutoSizeColumn may fail when data type is datetime (Column which I get from DataSet, database)\n \nFor example, set date at \"01/01/2010\"\n \nsheet1.AutoSizeColumn(dateColumnIndex)\n \nAnd the second reason is cell in bold font . Column width may not size correctly when some rows in bold font, but another rows in normal font in a same column.\n \n \n \nThanks for your work\n \nDongMT",
    "LastUpdatedDate": "2013-02-21T18:19:58.633-08:00",
    "PlannedForRelease": "NPOI 1.2.5",
    "ReleaseVisibleToPublic": true,
    "Priority": {
      "Name": "Medium",
      "Severity": 100,
      "Id": 2
    },
    "ProjectName": "npoi",
    "ReportedDate": "2010-10-12T16:02:25.533-07:00",
    "Status": {
      "Name": "Proposed",
      "Id": 1
    },
    "ReasonClosed": {
      "Name": "Unassigned"
    },
    "Summary": "AutoSizeColumn doesn't work in datetime cell",
    "Type": {
      "Name": "Issue",
      "Id": 3
    },
    "VoteCount": 3,
    "Id": 7402
  },
  "FileAttachments": [],
  "Comments": []
}