{
  "WorkItem": {
    "AffectedComponent": {
      "Name": "",
      "DisplayName": ""
    },
    "ClosedComment": "",
    "ClosedDate": null,
    "CommentCount": 0,
    "Custom": null,
    "Description": "My question comes from:\nhttps://stackoverflow.com/questions/47063178/npoi-excel-column-formatted-to-decimal-with-sxssfworkbook\n\nI have to export a table from a DB to Excel. I get all column types perfect, minus the numerical types with decimals (like 325.75), which are created as strings, or decimals are eliminated, or the excel gives an error when opening it.\nI am using NPI 3.20 .... is it a limitation of this version?",
    "LastUpdatedDate": "2017-11-04T14:45:44.523-07:00",
    "PlannedForRelease": "",
    "ReleaseVisibleToPublic": false,
    "Priority": {
      "Name": "Unassigned",
      "Severity": 0,
      "Id": 0
    },
    "ProjectName": "npoi",
    "ReportedDate": "2017-11-04T14:45:44.523-07:00",
    "Status": {
      "Name": "Proposed",
      "Id": 1
    },
    "ReasonClosed": {
      "Name": "Unassigned"
    },
    "Summary": "Is it possible to get a column formatted as a number using the stream types?",
    "Type": {
      "Name": "Unassigned",
      "Id": 5
    },
    "VoteCount": 1,
    "Id": 14146
  },
  "FileAttachments": [],
  "Comments": []
}