{
  "WorkItem": {
    "AffectedComponent": {
      "Name": "",
      "DisplayName": ""
    },
    "ClosedComment": "",
    "ClosedDate": "2009-03-14T18:14:51.607-07:00",
    "CommentCount": 0,
    "Custom": null,
    "Description": "",
    "LastUpdatedDate": "2013-05-16T05:28:00.023-07:00",
    "PlannedForRelease": "NPOI 1.2 Alpha",
    "ReleaseVisibleToPublic": false,
    "Priority": {
      "Name": "Unassigned",
      "Severity": 0,
      "Id": 0
    },
    "ProjectName": "npoi",
    "ReportedDate": "2008-11-11T13:11:56.137-08:00",
    "Status": {
      "Name": "Closed",
      "Id": 4
    },
    "ReasonClosed": {
      "Name": "Unassigned"
    },
    "Summary": "Test Cases for NPOI.SS.Formula namespace",
    "Type": {
      "Name": "Issue",
      "Id": 3
    },
    "VoteCount": 0,
    "Id": 947
  },
  "FileAttachments": [],
  "Comments": [
    {
      "Message": "Associated with changeset 9718.",
      "PostedDate": "2009-01-02T21:44:35.153-08:00",
      "Id": -2147483648
    },
    {
      "Message": "Resolved with changeset 17834.",
      "PostedDate": "2009-03-14T18:14:51.607-07:00",
      "Id": -2147483648
    },
    {
      "Message": "",
      "PostedDate": "2013-05-16T05:28:00.023-07:00",
      "Id": -2147483648
    }
  ]
}