{
  "WorkItem": {
    "AffectedComponent": {
      "Name": "",
      "DisplayName": ""
    },
    "ClosedComment": "",
    "ClosedDate": "2009-01-18T05:42:27.967-08:00",
    "CommentCount": 0,
    "Custom": null,
    "Description": "",
    "LastUpdatedDate": "2013-05-16T05:28:02.013-07:00",
    "PlannedForRelease": "NPOI 1.2 Alpha",
    "ReleaseVisibleToPublic": false,
    "Priority": {
      "Name": "Unassigned",
      "Severity": 0,
      "Id": 0
    },
    "ProjectName": "npoi",
    "ReportedDate": "2008-11-11T12:44:54.887-08:00",
    "Status": {
      "Name": "Closed",
      "Id": 4
    },
    "ReasonClosed": {
      "Name": "Unassigned"
    },
    "Summary": "NPOI.HSSF.Record.Formula.Function namespace",
    "Type": {
      "Name": "Task",
      "Id": 2
    },
    "VoteCount": 0,
    "Id": 933
  },
  "FileAttachments": [],
  "Comments": [
    {
      "Message": "Resolved with changeset 10190.",
      "PostedDate": "2009-01-18T05:42:27.967-08:00",
      "Id": -2147483648
    },
    {
      "Message": "",
      "PostedDate": "2013-05-16T05:28:02.013-07:00",
      "Id": -2147483648
    }
  ]
}