{
  "WorkItem": {
    "AffectedComponent": {
      "Name": "",
      "DisplayName": ""
    },
    "ClosedComment": "",
    "ClosedDate": "2014-08-26T20:53:42.223-07:00",
    "CommentCount": 0,
    "Custom": null,
    "Description": "Hi,\n\nI'm trying to write an excel using filestream \n```\nusing (FileStream file = new FileStream(selectDest.SelectedPath + @\"\\Import update LHT.xls\", FileMode.Create, FileAccess.Write))\n            {\n                wbImport.Write(file);\n            }\n```\nand I'm getting this error\n```\nAn unhandled exception of type 'NPOI.Util.RuntimeException' occurred in NPOI.dll\n\nAdditional information: Buffer overrun i=111;endIndex=152;writeIndex=43\n```\n\nThe workbook has only one sheet with about 500 rows so I don't think the size is the problem.\n\nThe workbook writing worked until last week and since I keep getting this error and I don't know why.",
    "LastUpdatedDate": "2014-08-26T20:53:42.223-07:00",
    "PlannedForRelease": "",
    "ReleaseVisibleToPublic": false,
    "Priority": {
      "Name": "Unassigned",
      "Severity": 0,
      "Id": 0
    },
    "ProjectName": "npoi",
    "ReportedDate": "2014-07-24T01:15:57.95-07:00",
    "Status": {
      "Name": "Closed",
      "Id": 4
    },
    "ReasonClosed": {
      "Name": "Not a issue"
    },
    "Summary": "Buffer overrun while writing a workbook",
    "Type": {
      "Name": "Unassigned",
      "Id": 5
    },
    "VoteCount": 1,
    "Id": 13159
  },
  "FileAttachments": [],
  "Comments": [
    {
      "Message": "The error is thrown by LittleEndianByteArrayOutputStream class \r\n\r\n        private void CheckPosition(int i)\n        {\n            if (i > _endIndex - _writeIndex)\n            {\n                throw new RuntimeException(string.Format(CultureInfo.InvariantCulture, \"Buffer overrun i={0};endIndex={1};writeIndex={2}\", i, _endIndex, _writeIndex));\n            }\n        }\r\n\r\nIf it used to work, the issue may be caused by the original xls template. I need your complete code and xls file to check what's going on.",
      "PostedDate": "2014-08-02T02:01:35.893-07:00",
      "Id": -2147483648
    },
    {
      "Message": "Hi,\r\n\r\nYou are right, the issue is the xls file because it was created badly as an export from another application.\r\n\r\nThank you!",
      "PostedDate": "2014-08-03T23:30:28.297-07:00",
      "Id": -2147483648
    },
    {
      "Message": "",
      "PostedDate": "2014-08-26T20:53:42.223-07:00",
      "Id": -2147483648
    }
  ]
}