{
  "WorkItem": {
    "AffectedComponent": {
      "Name": "",
      "DisplayName": ""
    },
    "ClosedComment": "",
    "ClosedDate": null,
    "CommentCount": 0,
    "Custom": null,
    "Description": "Hi all,\nWhen I insert secord picture in Xlsx file, it always replace first one.\nAny help?\n\n            IWorkbook workbook = new XSSFWorkbook();\n            ISheet sheet1 = workbook.CreateSheet(\"PictureSheet\");\n\n            IDrawing patriarch = sheet1.CreateDrawingPatriarch();\n            //create the anchor\n            XSSFClientAnchor anchor = new XSSFClientAnchor(500, 200, 0, 0, 2, 2, 4, 7);\n            anchor.AnchorType = 2;\n            //load the picture and get the picture index in the workbook\n            XSSFPicture picture = (XSSFPicture)patriarch.CreatePicture(anchor, LoadImage(\"../../image/HumpbackWhale.jpg\", workbook));\n            picture.Resize(); //Note: Resize will reset client anchor you set.\n\n\n            XSSFClientAnchor anchor2 = new XSSFClientAnchor(500, 200, 0, 0, 12, 2, 14, 7);\n            anchor2.AnchorType = 2;  \n            XSSFPicture picture2 = (XSSFPicture)patriarch.CreatePicture(anchor2, LoadImage(\"../../image/pic2.jpg\", workbook));\n            picture2.Resize();\n\n            FileStream sw = File.Create(\"test.xlsx\");\n            workbook.Write(sw);\n            sw.Close();",
    "LastUpdatedDate": "2014-03-25T06:15:47.637-07:00",
    "PlannedForRelease": "",
    "ReleaseVisibleToPublic": false,
    "Priority": {
      "Name": "Unassigned",
      "Severity": 0,
      "Id": 0
    },
    "ProjectName": "npoi",
    "ReportedDate": "2013-06-22T10:39:29.923-07:00",
    "Status": {
      "Name": "Proposed",
      "Id": 1
    },
    "ReasonClosed": {
      "Name": "Unassigned"
    },
    "Summary": "xlsx Insert second picture error",
    "Type": {
      "Name": "Unassigned",
      "Id": 5
    },
    "VoteCount": 6,
    "Id": 11892
  },
  "FileAttachments": [
    {
      "FileId": 4588,
      "FileName": "test.xlsx",
      "DownloadUrl": ".\\4588"
    }
  ],
  "Comments": [
    {
      "Message": "That is a Static method case this problem.\nMethod code[..\\npoi\\ooxml\\XSSF\\UserModel\\XSSPicture.cs]\n```\n        internal static CT_Picture Prototype()\n        {\n          if (prototype == null)\n          {\n            CT_Picture pic = new CT_Picture();\n            CT_PictureNonVisual nvpr = pic.AddNewNvPicPr();\n            CT_NonVisualDrawingProps nvProps = nvpr.AddNewCNvPr();\n            nvProps.id = (1);\n            nvProps.name = (\"Picture 1\");\n            nvProps.descr = (\"Picture\");\n            CT_NonVisualPictureProperties nvPicProps = nvpr.AddNewCNvPicPr();\n            nvPicProps.AddNewPicLocks().noChangeAspect = true;\r\n\r\n\r\n\r\n            CT_BlipFillProperties blip = pic.AddNewBlipFill();\n            blip.AddNewBlip().embed = \"\";\n            blip.AddNewStretch().AddNewFillRect();\r\n\r\n            CT_ShapeProperties sppr = pic.AddNewSpPr();\n            CT_Transform2D t2d = sppr.AddNewXfrm();\n            CT_PositiveSize2D ext = t2d.AddNewExt();\n            //should be original picture width and height expressed in EMUs\n            ext.cx = (0);\n            ext.cy = (0);\r\n\r\n            CT_Point2D off = t2d.AddNewOff();\n            off.x = (0);\n            off.y = (0);\r\n\r\n            CT_PresetGeometry2D prstGeom = sppr.AddNewPrstGeom();\n            prstGeom.prst = (ST_ShapeType.rect);\n            prstGeom.AddNewAvLst();\r\n\r\n            prototype = pic;\n          }\n          return prototype;\n       }\n```\r\n\r\nCall method code[..\\npoi\\ooxml\\XSSF\\UserModel\\XSSFDrawing.cs]\n```\n    public IPicture CreatePicture(XSSFClientAnchor anchor, int pictureIndex)\n    {\n      PackageRelationship rel = AddPictureReference(pictureIndex);\r\n\r\n      long shapeId = newShapeId();\n      CT_TwoCellAnchor ctAnchor = CreateTwoCellAnchor(anchor);\r\n\r\n      NPOI.OpenXmlFormats.Dml.Spreadsheet.CT_Picture ctShape = ctAnchor.AddNewPic();\n      \n      ___ctShape.Set(XSSFPicture.Prototype());___\r\n\r\n      ctShape.nvPicPr.cNvPr.id = (uint)shapeId;\r\n\r\n      XSSFPicture shape = new XSSFPicture(this, ctShape);\n      shape.anchor = anchor;\n      shape.SetPictureReference(rel);\r\n\r\n      return shape;\n    }\r\n\r\n        public void Set(CT_Picture pict)\n        {\n            this.nvPicPr = pict.nvPicPr;\n            this.spPr = pict.spPr;\n            this.macro = pict.macro;\n            this.macroSpecified = this.macroSpecified;\n            this.style = pict.style;\n            this.styleSpecified = pict.styleSpecified;\n            this.fPublished = pict.fPublished;\n            this.fPublishedSpecified = pict.fPublishedSpecified;\n            ___this.blipFill = pict.blipFill;___\n            \n        }\n```\nThis code every time blipFill is same reference.Then you insert second picture, the first picture will be replace\n",
      "PostedDate": "2013-07-23T22:13:56.767-07:00",
      "Id": -2147483648
    },
    {
      "Message": "This code every time \"blipFill is same object\".Then you insert second picture, the first picture will be replace",
      "PostedDate": "2013-07-23T22:19:32.12-07:00",
      "Id": -2147483648
    },
    {
      "Message": "",
      "PostedDate": "2013-08-28T22:39:19.177-07:00",
      "Id": -2147483648
    },
    {
      "Message": "have u solve the error?",
      "PostedDate": "2013-08-28T22:46:30.507-07:00",
      "Id": -2147483648
    },
    {
      "Message": "",
      "PostedDate": "2014-03-03T06:10:01.05-08:00",
      "Id": -2147483648
    },
    {
      "Message": "",
      "PostedDate": "2014-03-24T14:17:58.427-07:00",
      "Id": -2147483648
    },
    {
      "Message": "",
      "PostedDate": "2014-03-25T06:15:47.637-07:00",
      "Id": -2147483648
    }
  ]
}