{
  "WorkItem": {
    "AffectedComponent": {
      "Name": "",
      "DisplayName": ""
    },
    "ClosedComment": "",
    "ClosedDate": null,
    "CommentCount": 0,
    "Custom": null,
    "Description": "首先, 在硬盘上创建一个Excel,任意取名, 然后调用以下函数, 该函数用户读取Excel,文件,并在该文件上,创建Sheet, 在创建的Sheet上填写内容. 总是发生异常\n\n```\n        public static MemoryStream Export(string tempFilePath)\n        {\n            IWorkbook iworkbook = null;\n            XSSFWorkbook hwb = null;\n            using (FileStream file = new FileStream(tempFilePath, FileMode.Open, FileAccess.Read))\n            {\n                hwb = new XSSFWorkbook(file);\n                iworkbook = hwb;\n            }\n\n            ICellStyle textWhiteStyle = getWhiteText(hwb);\n            for (int i = 0; i < 5; i++)\n            {\n                ISheet saveSheet = hwb.CreateSheet(i.ToString());\n                int lastUserSN = 0;\n                int fromIndex = 4;\n\n                for (int m = 0; m < 100; m++)\n                {\n                    IRow row = saveSheet.CreateRow(m);\n\n                    ICell cell = row.CreateCell(1);\n                    cell.SetCellValue(m);\n                    cell.CellStyle = textWhiteStyle;\n                    \n                }\n            }\n\n            MemoryStream memFile = new MemoryStream();\n            iworkbook.Write(memFile);\n\n            FileStream file1 = new FileStream(@\"C:/123.xlsx\", FileMode.Create);\n            iworkbook.Write(file1);\n            file1.Close();\n\n            return memFile;\n        }\n\n        private static ICellStyle getWhiteText(XSSFWorkbook hwb)\n        {\n            IFont font1 = hwb.CreateFont();\n            font1.FontHeightInPoints = 9;\n            font1.FontName = \"Arial Narrow\";\n          \n            ICellStyle style2 = hwb.CreateCellStyle();\n            style2.SetFont(font1);\n            style2.BorderBottom = BorderStyle.Thin;\n            style2.BorderLeft = BorderStyle.Thin;\n            style2.BorderRight = BorderStyle.Thin;\n            style2.BorderTop = BorderStyle.Thin;\n            style2.BottomBorderColor = NPOI.HSSF.Util.HSSFColor.Black.Index;\n            style2.LeftBorderColor = NPOI.HSSF.Util.HSSFColor.Black.Index;\n            style2.RightBorderColor = NPOI.HSSF.Util.HSSFColor.Black.Index;\n            style2.TopBorderColor = NPOI.HSSF.Util.HSSFColor.Black.Index;\n            style2.Alignment = HorizontalAlignment.Left;\n            style2.WrapText = true;\n\n            return style2;\n        }\n```\n![Image](https://www.codeplex.com/Download/AttachmentDownload.ashx?ProjectName=npoi&WorkItemId=13154&FileAttachmentId=5046)\n![Image](https://www.codeplex.com/Download/AttachmentDownload.ashx?ProjectName=npoi&WorkItemId=13154&FileAttachmentId=5045)",
    "LastUpdatedDate": "2014-07-23T04:56:00.65-07:00",
    "PlannedForRelease": "",
    "ReleaseVisibleToPublic": false,
    "Priority": {
      "Name": "Unassigned",
      "Severity": 0,
      "Id": 0
    },
    "ProjectName": "npoi",
    "ReportedDate": "2014-07-23T04:52:52.67-07:00",
    "Status": {
      "Name": "Proposed",
      "Id": 1
    },
    "ReasonClosed": {
      "Name": "Unassigned"
    },
    "Summary": "执行XSSFWorkbook.CreateSheet函数, 创建的Excel有错误",
    "Type": {
      "Name": "Unassigned",
      "Id": 5
    },
    "VoteCount": 1,
    "Id": 13154
  },
  "FileAttachments": [
    {
      "FileId": 5045,
      "FileName": "2.PNG",
      "DownloadUrl": ".\\5045"
    },
    {
      "FileId": 5046,
      "FileName": "1.PNG",
      "DownloadUrl": ".\\5046"
    }
  ],
  "Comments": []
}